<?xml version="1.0" encoding="ASCII"?>
<trace:Trace xmlns:xsi="http://www.w3.org/2001/XMLSchema-instance" xmlns:trace="http://www.inria.fr/sophia/aoste/trace/1.0.0" name="model2017_0605_012329">
  <references xsi:type="trace:ModelElementReference">
    <elementRef href="../../model.timemodel#/"/>
    <elementRef href="../../model.timemodel#//@subBlock.0"/>
    <elementRef href="../../model.timemodel#//@subBlock.0/@elements.17"/>
  </references>
  <references xsi:type="trace:ModelElementReference">
    <elementRef href="../../model.timemodel#/"/>
    <elementRef href="../../model.timemodel#//@subBlock.0"/>
    <elementRef href="../../model.timemodel#//@subBlock.0/@elements.56"/>
  </references>
  <references xsi:type="trace:ModelElementReference">
    <elementRef href="../../model.timemodel#/"/>
    <elementRef href="../../model.timemodel#//@subBlock.0"/>
    <elementRef href="../../model.timemodel#//@subBlock.0/@elements.53"/>
  </references>
  <references xsi:type="trace:ModelElementReference">
    <elementRef href="../../model.timemodel#/"/>
    <elementRef href="../../model.timemodel#//@subBlock.0"/>
    <elementRef href="../../model.timemodel#//@subBlock.0/@elements.49"/>
  </references>
  <references xsi:type="trace:ModelElementReference">
    <elementRef href="../../model.timemodel#/"/>
    <elementRef href="../../model.timemodel#//@subBlock.0"/>
    <elementRef href="../../model.timemodel#//@subBlock.0/@elements.54"/>
  </references>
  <references xsi:type="trace:ModelElementReference">
    <elementRef href="../../model.timemodel#/"/>
    <elementRef href="../../model.timemodel#//@subBlock.0"/>
    <elementRef href="../../model.timemodel#//@subBlock.0/@elements.83"/>
  </references>
  <references xsi:type="trace:ModelElementReference">
    <elementRef href="../../model.timemodel#/"/>
    <elementRef href="../../model.timemodel#//@subBlock.0"/>
    <elementRef href="../../model.timemodel#//@subBlock.0/@elements.32"/>
  </references>
  <references xsi:type="trace:ModelElementReference">
    <elementRef href="../../model.timemodel#/"/>
    <elementRef href="../../model.timemodel#//@subBlock.0"/>
    <elementRef href="../../model.timemodel#//@subBlock.0/@elements.23"/>
  </references>
  <references xsi:type="trace:ModelElementReference">
    <elementRef href="../../model.timemodel#/"/>
    <elementRef href="../../model.timemodel#//@subBlock.0"/>
    <elementRef href="../../model.timemodel#//@subBlock.0/@elements.68"/>
  </references>
  <references xsi:type="trace:ModelElementReference">
    <elementRef href="../../model.timemodel#/"/>
    <elementRef href="../../model.timemodel#//@subBlock.0"/>
    <elementRef href="../../model.timemodel#//@subBlock.0/@elements.24"/>
  </references>
  <references xsi:type="trace:ModelElementReference">
    <elementRef href="../../model.timemodel#/"/>
    <elementRef href="../../model.timemodel#//@subBlock.0"/>
    <elementRef href="../../model.timemodel#//@subBlock.0/@elements.81"/>
  </references>
  <references xsi:type="trace:ModelElementReference">
    <elementRef href="../../model.timemodel#/"/>
    <elementRef href="../../model.timemodel#//@subBlock.0"/>
    <elementRef href="../../model.timemodel#//@subBlock.0/@elements.37"/>
  </references>
  <references xsi:type="trace:ModelElementReference">
    <elementRef href="../../model.timemodel#/"/>
    <elementRef href="../../model.timemodel#//@subBlock.0"/>
    <elementRef href="../../model.timemodel#//@subBlock.0/@elements.75"/>
  </references>
  <references xsi:type="trace:ModelElementReference">
    <elementRef href="../../model.timemodel#/"/>
    <elementRef href="../../model.timemodel#//@subBlock.0"/>
    <elementRef href="../../model.timemodel#//@subBlock.0/@elements.15"/>
  </references>
  <references xsi:type="trace:ModelElementReference">
    <elementRef href="../../model.timemodel#/"/>
    <elementRef href="../../model.timemodel#//@subBlock.0"/>
    <elementRef href="../../model.timemodel#//@subBlock.0/@elements.67"/>
  </references>
  <references xsi:type="trace:ModelElementReference">
    <elementRef href="../../model.timemodel#/"/>
    <elementRef href="../../model.timemodel#//@subBlock.0"/>
    <elementRef href="../../model.timemodel#//@subBlock.0/@elements.16"/>
  </references>
  <references xsi:type="trace:ModelElementReference">
    <elementRef href="../../model.timemodel#/"/>
    <elementRef href="../../model.timemodel#//@subBlock.0"/>
    <elementRef href="../../model.timemodel#//@subBlock.0/@elements.2"/>
  </references>
  <references xsi:type="trace:ModelElementReference">
    <elementRef href="../../model.timemodel#/"/>
    <elementRef href="../../model.timemodel#//@subBlock.0"/>
    <elementRef href="../../model.timemodel#//@subBlock.0/@elements.0"/>
  </references>
  <references xsi:type="trace:ModelElementReference">
    <elementRef href="../../model.timemodel#/"/>
    <elementRef href="../../model.timemodel#//@subBlock.0"/>
    <elementRef href="../../model.timemodel#//@subBlock.0/@elements.34"/>
  </references>
  <references xsi:type="trace:ModelElementReference">
    <elementRef href="../../model.timemodel#/"/>
    <elementRef href="../../model.timemodel#//@subBlock.0"/>
    <elementRef href="../../model.timemodel#//@subBlock.0/@elements.63"/>
  </references>
  <references xsi:type="trace:ModelElementReference">
    <elementRef href="../../model.timemodel#/"/>
    <elementRef href="../../model.timemodel#//@subBlock.0"/>
    <elementRef href="../../model.timemodel#//@subBlock.0/@elements.45"/>
  </references>
  <references xsi:type="trace:ModelElementReference">
    <elementRef href="../../model.timemodel#/"/>
    <elementRef href="../../model.timemodel#//@subBlock.0"/>
    <elementRef href="../../model.timemodel#//@subBlock.0/@elements.59"/>
  </references>
  <references xsi:type="trace:ModelElementReference">
    <elementRef href="../../model.timemodel#/"/>
    <elementRef href="../../model.timemodel#//@subBlock.0"/>
    <elementRef href="../../model.timemodel#//@subBlock.0/@elements.64"/>
  </references>
  <references xsi:type="trace:ModelElementReference">
    <elementRef href="../../model.timemodel#/"/>
    <elementRef href="../../model.timemodel#//@subBlock.0"/>
    <elementRef href="../../model.timemodel#//@subBlock.0/@elements.25"/>
  </references>
  <references xsi:type="trace:ModelElementReference">
    <elementRef href="../../model.timemodel#/"/>
    <elementRef href="../../model.timemodel#//@subBlock.0"/>
    <elementRef href="../../model.timemodel#//@subBlock.0/@elements.36"/>
  </references>
  <references xsi:type="trace:ModelElementReference">
    <elementRef href="../../model.timemodel#/"/>
    <elementRef href="../../model.timemodel#//@subBlock.0"/>
    <elementRef href="../../model.timemodel#//@subBlock.0/@elements.79"/>
  </references>
  <references xsi:type="trace:ModelElementReference">
    <elementRef href="../../model.timemodel#/"/>
    <elementRef href="../../model.timemodel#//@subBlock.0"/>
    <elementRef href="../../model.timemodel#//@subBlock.0/@elements.70"/>
  </references>
  <references xsi:type="trace:ModelElementReference">
    <elementRef href="../../model.timemodel#/"/>
    <elementRef href="../../model.timemodel#//@subBlock.0"/>
    <elementRef href="../../model.timemodel#//@subBlock.0/@elements.74"/>
  </references>
  <references xsi:type="trace:ModelElementReference">
    <elementRef href="../../model.timemodel#/"/>
    <elementRef href="../../model.timemodel#//@subBlock.0"/>
    <elementRef href="../../model.timemodel#//@subBlock.0/@elements.77"/>
  </references>
  <references xsi:type="trace:ModelElementReference">
    <elementRef href="../../model.timemodel#/"/>
    <elementRef href="../../model.timemodel#//@subBlock.0"/>
    <elementRef href="../../model.timemodel#//@subBlock.0/@elements.73"/>
  </references>
  <references xsi:type="trace:ModelElementReference">
    <elementRef href="../../model.timemodel#/"/>
    <elementRef href="../../model.timemodel#//@subBlock.0"/>
    <elementRef href="../../model.timemodel#//@subBlock.0/@elements.14"/>
  </references>
  <references xsi:type="trace:ModelElementReference">
    <elementRef href="../../model.timemodel#/"/>
    <elementRef href="../../model.timemodel#//@subBlock.0"/>
    <elementRef href="../../model.timemodel#//@subBlock.0/@elements.52"/>
  </references>
  <references xsi:type="trace:ModelElementReference">
    <elementRef href="../../model.timemodel#/"/>
    <elementRef href="../../model.timemodel#//@subBlock.0"/>
    <elementRef href="../../model.timemodel#//@subBlock.0/@elements.72"/>
  </references>
  <references xsi:type="trace:ModelElementReference">
    <elementRef href="../../model.timemodel#/"/>
    <elementRef href="../../model.timemodel#//@subBlock.0"/>
    <elementRef href="../../model.timemodel#//@subBlock.0/@elements.20"/>
  </references>
  <references xsi:type="trace:ModelElementReference">
    <elementRef href="../../model.timemodel#/"/>
    <elementRef href="../../model.timemodel#//@subBlock.0"/>
    <elementRef href="../../model.timemodel#//@subBlock.0/@elements.27"/>
  </references>
  <references xsi:type="trace:ModelElementReference">
    <elementRef href="../../model.timemodel#/"/>
    <elementRef href="../../model.timemodel#//@subBlock.0"/>
    <elementRef href="../../model.timemodel#//@subBlock.0/@elements.57"/>
  </references>
  <references xsi:type="trace:ModelElementReference">
    <elementRef href="../../model.timemodel#/"/>
    <elementRef href="../../model.timemodel#//@subBlock.0"/>
    <elementRef href="../../model.timemodel#//@subBlock.0/@elements.19"/>
  </references>
  <references xsi:type="trace:ModelElementReference">
    <elementRef href="../../model.timemodel#/"/>
    <elementRef href="../../model.timemodel#//@subBlock.0"/>
    <elementRef href="../../model.timemodel#//@subBlock.0/@elements.66"/>
  </references>
  <references xsi:type="trace:ModelElementReference">
    <elementRef href="../../model.timemodel#/"/>
    <elementRef href="../../model.timemodel#//@subBlock.0"/>
    <elementRef href="../../model.timemodel#//@subBlock.0/@elements.21"/>
  </references>
  <references xsi:type="trace:ModelElementReference">
    <elementRef href="../../model.timemodel#/"/>
    <elementRef href="../../model.timemodel#//@subBlock.0"/>
    <elementRef href="../../model.timemodel#//@subBlock.0/@elements.80"/>
  </references>
  <references xsi:type="trace:ModelElementReference">
    <elementRef href="../../model.timemodel#/"/>
    <elementRef href="../../model.timemodel#//@subBlock.0"/>
    <elementRef href="../../model.timemodel#//@subBlock.0/@elements.22"/>
  </references>
  <references xsi:type="trace:ModelElementReference">
    <elementRef href="../../model.timemodel#/"/>
    <elementRef href="../../model.timemodel#//@subBlock.0"/>
    <elementRef href="../../model.timemodel#//@subBlock.0/@elements.78"/>
  </references>
  <references xsi:type="trace:ModelElementReference">
    <elementRef href="../../model.timemodel#/"/>
    <elementRef href="../../model.timemodel#//@subBlock.0"/>
    <elementRef href="../../model.timemodel#//@subBlock.0/@elements.44"/>
  </references>
  <references xsi:type="trace:ModelElementReference">
    <elementRef href="../../model.timemodel#/"/>
    <elementRef href="../../model.timemodel#//@subBlock.0"/>
    <elementRef href="../../model.timemodel#//@subBlock.0/@elements.11"/>
  </references>
  <references xsi:type="trace:ModelElementReference">
    <elementRef href="../../model.timemodel#/"/>
    <elementRef href="../../model.timemodel#//@subBlock.0"/>
    <elementRef href="../../model.timemodel#//@subBlock.0/@elements.62"/>
  </references>
  <references xsi:type="trace:ModelElementReference">
    <elementRef href="../../model.timemodel#/"/>
    <elementRef href="../../model.timemodel#//@subBlock.0"/>
    <elementRef href="../../model.timemodel#//@subBlock.0/@elements.13"/>
  </references>
  <references xsi:type="trace:ModelElementReference">
    <elementRef href="../../model.timemodel#/"/>
    <elementRef href="../../model.timemodel#//@subBlock.0"/>
    <elementRef href="../../model.timemodel#//@subBlock.0/@elements.46"/>
  </references>
  <references xsi:type="trace:ModelElementReference">
    <elementRef href="../../model.timemodel#/"/>
    <elementRef href="../../model.timemodel#//@subBlock.0"/>
    <elementRef href="../../model.timemodel#//@subBlock.0/@elements.8"/>
  </references>
  <references xsi:type="trace:ModelElementReference">
    <elementRef href="../../model.timemodel#/"/>
    <elementRef href="../../model.timemodel#//@subBlock.0"/>
    <elementRef href="../../model.timemodel#//@subBlock.0/@elements.33"/>
  </references>
  <references xsi:type="trace:ModelElementReference">
    <elementRef href="../../model.timemodel#/"/>
    <elementRef href="../../model.timemodel#//@subBlock.0"/>
    <elementRef href="../../model.timemodel#//@subBlock.0/@elements.1"/>
  </references>
  <references xsi:type="trace:ModelElementReference">
    <elementRef href="../../model.timemodel#/"/>
    <elementRef href="../../model.timemodel#//@subBlock.0"/>
    <elementRef href="../../model.timemodel#//@subBlock.0/@elements.61"/>
  </references>
  <references xsi:type="trace:ModelElementReference">
    <elementRef href="../../model.timemodel#/"/>
    <elementRef href="../../model.timemodel#//@subBlock.0"/>
    <elementRef href="../../model.timemodel#//@subBlock.0/@elements.31"/>
  </references>
  <references xsi:type="trace:ModelElementReference">
    <elementRef href="../../model.timemodel#/"/>
    <elementRef href="../../model.timemodel#//@subBlock.0"/>
    <elementRef href="../../model.timemodel#//@subBlock.0/@elements.7"/>
  </references>
  <references xsi:type="trace:ModelElementReference">
    <elementRef href="../../model.timemodel#/"/>
    <elementRef href="../../model.timemodel#//@subBlock.0"/>
    <elementRef href="../../model.timemodel#//@subBlock.0/@elements.58"/>
  </references>
  <references xsi:type="trace:ModelElementReference">
    <elementRef href="../../model.timemodel#/"/>
    <elementRef href="../../model.timemodel#//@subBlock.0"/>
    <elementRef href="../../model.timemodel#//@subBlock.0/@elements.29"/>
  </references>
  <references xsi:type="trace:ModelElementReference">
    <elementRef href="../../model.timemodel#/"/>
    <elementRef href="../../model.timemodel#//@subBlock.0"/>
    <elementRef href="../../model.timemodel#//@subBlock.0/@elements.41"/>
  </references>
  <references xsi:type="trace:ModelElementReference">
    <elementRef href="../../model.timemodel#/"/>
    <elementRef href="../../model.timemodel#//@subBlock.0"/>
    <elementRef href="../../model.timemodel#//@subBlock.0/@elements.65"/>
  </references>
  <references xsi:type="trace:ModelElementReference">
    <elementRef href="../../model.timemodel#/"/>
    <elementRef href="../../model.timemodel#//@subBlock.0"/>
    <elementRef href="../../model.timemodel#//@subBlock.0/@elements.50"/>
  </references>
  <references xsi:type="trace:ModelElementReference">
    <elementRef href="../../model.timemodel#/"/>
    <elementRef href="../../model.timemodel#//@subBlock.0"/>
    <elementRef href="../../model.timemodel#//@subBlock.0/@elements.38"/>
  </references>
  <references xsi:type="trace:ModelElementReference">
    <elementRef href="../../model.timemodel#/"/>
    <elementRef href="../../model.timemodel#//@subBlock.0"/>
    <elementRef href="../../model.timemodel#//@subBlock.0/@elements.60"/>
  </references>
  <references xsi:type="trace:ModelElementReference">
    <elementRef href="../../model.timemodel#/"/>
    <elementRef href="../../model.timemodel#//@subBlock.0"/>
    <elementRef href="../../model.timemodel#//@subBlock.0/@elements.12"/>
  </references>
  <references xsi:type="trace:ModelElementReference">
    <elementRef href="../../model.timemodel#/"/>
    <elementRef href="../../model.timemodel#//@subBlock.0"/>
    <elementRef href="../../model.timemodel#//@subBlock.0/@elements.35"/>
  </references>
  <references xsi:type="trace:ModelElementReference">
    <elementRef href="../../model.timemodel#/"/>
    <elementRef href="../../model.timemodel#//@subBlock.0"/>
    <elementRef href="../../model.timemodel#//@subBlock.0/@elements.82"/>
  </references>
  <references xsi:type="trace:ModelElementReference">
    <elementRef href="../../model.timemodel#/"/>
    <elementRef href="../../model.timemodel#//@subBlock.0"/>
    <elementRef href="../../model.timemodel#//@subBlock.0/@elements.47"/>
  </references>
  <references xsi:type="trace:ModelElementReference">
    <elementRef href="../../model.timemodel#/"/>
    <elementRef href="../../model.timemodel#//@subBlock.0"/>
    <elementRef href="../../model.timemodel#//@subBlock.0/@elements.76"/>
  </references>
  <references xsi:type="trace:ModelElementReference">
    <elementRef href="../../model.timemodel#/"/>
    <elementRef href="../../model.timemodel#//@subBlock.0"/>
    <elementRef href="../../model.timemodel#//@subBlock.0/@elements.6"/>
  </references>
  <references xsi:type="trace:ModelElementReference">
    <elementRef href="../../model.timemodel#/"/>
    <elementRef href="../../model.timemodel#//@subBlock.0"/>
    <elementRef href="../../model.timemodel#//@subBlock.0/@elements.30"/>
  </references>
  <references xsi:type="trace:ModelElementReference">
    <elementRef href="../../model.timemodel#/"/>
    <elementRef href="../../model.timemodel#//@subBlock.0"/>
    <elementRef href="../../model.timemodel#//@subBlock.0/@elements.5"/>
  </references>
  <references xsi:type="trace:ModelElementReference">
    <elementRef href="../../model.timemodel#/"/>
    <elementRef href="../../model.timemodel#//@subBlock.0"/>
    <elementRef href="../../model.timemodel#//@subBlock.0/@elements.9"/>
  </references>
  <references xsi:type="trace:ModelElementReference">
    <elementRef href="../../model.timemodel#/"/>
    <elementRef href="../../model.timemodel#//@subBlock.0"/>
    <elementRef href="../../model.timemodel#//@subBlock.0/@elements.3"/>
  </references>
  <references xsi:type="trace:ModelElementReference">
    <elementRef href="../../model.timemodel#/"/>
    <elementRef href="../../model.timemodel#//@subBlock.0"/>
    <elementRef href="../../model.timemodel#//@subBlock.0/@elements.39"/>
  </references>
  <references xsi:type="trace:ModelElementReference">
    <elementRef href="../../model.timemodel#/"/>
    <elementRef href="../../model.timemodel#//@subBlock.0"/>
    <elementRef href="../../model.timemodel#//@subBlock.0/@elements.40"/>
  </references>
  <references xsi:type="trace:ModelElementReference">
    <elementRef href="../../model.timemodel#/"/>
    <elementRef href="../../model.timemodel#//@subBlock.0"/>
    <elementRef href="../../model.timemodel#//@subBlock.0/@elements.26"/>
  </references>
  <references xsi:type="trace:ModelElementReference">
    <elementRef href="../../model.timemodel#/"/>
    <elementRef href="../../model.timemodel#//@subBlock.0"/>
    <elementRef href="../../model.timemodel#//@subBlock.0/@elements.10"/>
  </references>
  <references xsi:type="trace:ModelElementReference">
    <elementRef href="../../model.timemodel#/"/>
    <elementRef href="../../model.timemodel#//@subBlock.0"/>
    <elementRef href="../../model.timemodel#//@subBlock.0/@elements.55"/>
  </references>
  <references xsi:type="trace:ModelElementReference">
    <elementRef href="../../model.timemodel#/"/>
    <elementRef href="../../model.timemodel#//@subBlock.0"/>
    <elementRef href="../../model.timemodel#//@subBlock.0/@elements.51"/>
  </references>
  <references xsi:type="trace:ModelElementReference">
    <elementRef href="../../model.timemodel#/"/>
    <elementRef href="../../model.timemodel#//@subBlock.0"/>
    <elementRef href="../../model.timemodel#//@subBlock.0/@elements.69"/>
  </references>
  <references xsi:type="trace:ModelElementReference">
    <elementRef href="../../model.timemodel#/"/>
    <elementRef href="../../model.timemodel#//@subBlock.0"/>
    <elementRef href="../../model.timemodel#//@subBlock.0/@elements.18"/>
  </references>
  <references xsi:type="trace:ModelElementReference">
    <elementRef href="../../model.timemodel#/"/>
    <elementRef href="../../model.timemodel#//@subBlock.0"/>
    <elementRef href="../../model.timemodel#//@subBlock.0/@elements.4"/>
  </references>
  <references xsi:type="trace:ModelElementReference">
    <elementRef href="../../model.timemodel#/"/>
    <elementRef href="../../model.timemodel#//@subBlock.0"/>
    <elementRef href="../../model.timemodel#//@subBlock.0/@elements.71"/>
  </references>
  <references xsi:type="trace:ModelElementReference">
    <elementRef href="../../model.timemodel#/"/>
    <elementRef href="../../model.timemodel#//@subBlock.0"/>
    <elementRef href="../../model.timemodel#//@subBlock.0/@elements.48"/>
  </references>
  <references xsi:type="trace:ModelElementReference">
    <elementRef href="../../model.timemodel#/"/>
    <elementRef href="../../model.timemodel#//@subBlock.0"/>
    <elementRef href="../../model.timemodel#//@subBlock.0/@elements.28"/>
  </references>
  <references xsi:type="trace:ModelElementReference">
    <elementRef href="../../model.timemodel#/"/>
    <elementRef href="../../model.timemodel#//@subBlock.0"/>
    <elementRef href="../../model.timemodel#//@subBlock.0/@expressions.77"/>
    <elementRef href="platform:/plugin/fr.inria.aoste.timesquare.ccslkernel.model/ccsllibrary/CCSL.ccslLib#//@expressionLibraries.0/@expressionDefinitions.2"/>
    <elementRef href="platform:/plugin/fr.inria.aoste.timesquare.ccslkernel.model/ccsllibrary/CCSL.ccslLib#//@expressionLibraries.0/@expressionDefinitions.2/@concreteEntities.1"/>
  </references>
  <references xsi:type="trace:ModelElementReference">
    <elementRef href="../../model.timemodel#/"/>
    <elementRef href="../../model.timemodel#//@subBlock.0"/>
    <elementRef href="../../model.timemodel#//@subBlock.0/@expressions.73"/>
    <elementRef href="platform:/plugin/fr.inria.aoste.timesquare.ccslkernel.model/ccsllibrary/CCSL.ccslLib#//@expressionLibraries.0/@expressionDefinitions.2"/>
    <elementRef href="platform:/plugin/fr.inria.aoste.timesquare.ccslkernel.model/ccsllibrary/CCSL.ccslLib#//@expressionLibraries.0/@expressionDefinitions.2/@concreteEntities.1"/>
  </references>
  <references xsi:type="trace:ModelElementReference">
    <elementRef href="../../model.timemodel#/"/>
    <elementRef href="../../model.timemodel#//@subBlock.0"/>
    <elementRef href="../../model.timemodel#//@subBlock.0/@expressions.62"/>
  </references>
  <references xsi:type="trace:ModelElementReference">
    <elementRef href="../../model.timemodel#/"/>
    <elementRef href="../../model.timemodel#//@subBlock.0"/>
    <elementRef href="../../model.timemodel#//@subBlock.0/@expressions.61"/>
  </references>
  <references xsi:type="trace:ModelElementReference">
    <elementRef href="../../model.timemodel#/"/>
    <elementRef href="../../model.timemodel#//@subBlock.0"/>
    <elementRef href="../../model.timemodel#//@subBlock.0/@expressions.68"/>
    <elementRef href="platform:/plugin/fr.inria.aoste.timesquare.ccslkernel.model/ccsllibrary/CCSL.ccslLib#//@expressionLibraries.0/@expressionDefinitions.2"/>
    <elementRef href="platform:/plugin/fr.inria.aoste.timesquare.ccslkernel.model/ccsllibrary/CCSL.ccslLib#//@expressionLibraries.0/@expressionDefinitions.2/@concreteEntities.1"/>
  </references>
  <references xsi:type="trace:ModelElementReference">
    <elementRef href="../../model.timemodel#/"/>
    <elementRef href="../../model.timemodel#//@subBlock.0"/>
    <elementRef href="../../model.timemodel#//@subBlock.0/@expressions.83"/>
  </references>
  <references xsi:type="trace:ModelElementReference">
    <elementRef href="../../model.timemodel#/"/>
    <elementRef href="../../model.timemodel#//@subBlock.0"/>
    <elementRef href="../../model.timemodel#//@subBlock.0/@expressions.1"/>
  </references>
  <references xsi:type="trace:ModelElementReference">
    <elementRef href="../../model.timemodel#/"/>
    <elementRef href="../../model.timemodel#//@subBlock.0"/>
    <elementRef href="../../model.timemodel#//@subBlock.0/@expressions.56"/>
  </references>
  <references xsi:type="trace:ModelElementReference">
    <elementRef href="../../model.timemodel#/"/>
    <elementRef href="../../model.timemodel#//@subBlock.0"/>
    <elementRef href="../../model.timemodel#//@subBlock.0/@expressions.66"/>
  </references>
  <references xsi:type="trace:ModelElementReference">
    <elementRef href="../../model.timemodel#/"/>
    <elementRef href="../../model.timemodel#//@subBlock.0"/>
    <elementRef href="../../model.timemodel#//@subBlock.0/@expressions.43"/>
  </references>
  <references xsi:type="trace:ModelElementReference">
    <elementRef href="../../model.timemodel#/"/>
    <elementRef href="../../model.timemodel#//@subBlock.0"/>
    <elementRef href="../../model.timemodel#//@subBlock.0/@expressions.67"/>
    <elementRef href="platform:/plugin/fr.inria.aoste.timesquare.ccslkernel.model/ccsllibrary/CCSL.ccslLib#//@expressionLibraries.0/@expressionDefinitions.2"/>
    <elementRef href="platform:/plugin/fr.inria.aoste.timesquare.ccslkernel.model/ccsllibrary/CCSL.ccslLib#//@expressionLibraries.0/@expressionDefinitions.2/@concreteEntities.1"/>
  </references>
  <references xsi:type="trace:ModelElementReference">
    <elementRef href="../../model.timemodel#/"/>
    <elementRef href="../../model.timemodel#//@subBlock.0"/>
    <elementRef href="../../model.timemodel#//@subBlock.0/@expressions.81"/>
  </references>
  <references xsi:type="trace:ModelElementReference">
    <elementRef href="../../model.timemodel#/"/>
    <elementRef href="../../model.timemodel#//@subBlock.0"/>
    <elementRef href="../../model.timemodel#//@subBlock.0/@expressions.53"/>
  </references>
  <references xsi:type="trace:ModelElementReference">
    <elementRef href="../../model.timemodel#/"/>
    <elementRef href="../../model.timemodel#//@subBlock.0"/>
    <elementRef href="../../model.timemodel#//@subBlock.0/@expressions.2"/>
  </references>
  <references xsi:type="trace:ModelElementReference">
    <elementRef href="../../model.timemodel#/"/>
    <elementRef href="../../model.timemodel#//@subBlock.0"/>
    <elementRef href="../../model.timemodel#//@subBlock.0/@expressions.69"/>
    <elementRef href="platform:/plugin/fr.inria.aoste.timesquare.ccslkernel.model/ccsllibrary/CCSL.ccslLib#//@expressionLibraries.0/@expressionDefinitions.2"/>
    <elementRef href="platform:/plugin/fr.inria.aoste.timesquare.ccslkernel.model/ccsllibrary/CCSL.ccslLib#//@expressionLibraries.0/@expressionDefinitions.2/@concreteEntities.1"/>
  </references>
  <references xsi:type="trace:ModelElementReference">
    <elementRef href="../../model.timemodel#/"/>
    <elementRef href="../../model.timemodel#//@subBlock.0"/>
    <elementRef href="../../model.timemodel#//@subBlock.0/@expressions.75"/>
    <elementRef href="platform:/plugin/fr.inria.aoste.timesquare.ccslkernel.model/ccsllibrary/CCSL.ccslLib#//@expressionLibraries.0/@expressionDefinitions.2"/>
    <elementRef href="platform:/plugin/fr.inria.aoste.timesquare.ccslkernel.model/ccsllibrary/CCSL.ccslLib#//@expressionLibraries.0/@expressionDefinitions.2/@concreteEntities.1"/>
  </references>
  <references xsi:type="trace:ModelElementReference">
    <elementRef href="../../model.timemodel#/"/>
    <elementRef href="../../model.timemodel#//@subBlock.0"/>
    <elementRef href="../../model.timemodel#//@subBlock.0/@expressions.46"/>
  </references>
  <references xsi:type="trace:ModelElementReference">
    <elementRef href="../../model.timemodel#/"/>
    <elementRef href="../../model.timemodel#//@subBlock.0"/>
    <elementRef href="../../model.timemodel#//@subBlock.0/@expressions.71"/>
    <elementRef href="platform:/plugin/fr.inria.aoste.timesquare.ccslkernel.model/ccsllibrary/CCSL.ccslLib#//@expressionLibraries.0/@expressionDefinitions.2"/>
    <elementRef href="platform:/plugin/fr.inria.aoste.timesquare.ccslkernel.model/ccsllibrary/CCSL.ccslLib#//@expressionLibraries.0/@expressionDefinitions.2/@concreteEntities.1"/>
  </references>
  <references xsi:type="trace:ModelElementReference">
    <elementRef href="../../model.timemodel#/"/>
    <elementRef href="../../model.timemodel#//@subBlock.0"/>
    <elementRef href="../../model.timemodel#//@subBlock.0/@expressions.76"/>
  </references>
  <references xsi:type="trace:ModelElementReference">
    <elementRef href="../../model.timemodel#/"/>
    <elementRef href="../../model.timemodel#//@subBlock.0"/>
    <elementRef href="../../model.timemodel#//@subBlock.0/@expressions.34"/>
  </references>
  <references xsi:type="trace:ModelElementReference">
    <elementRef href="../../model.timemodel#/"/>
    <elementRef href="../../model.timemodel#//@subBlock.0"/>
    <elementRef href="../../model.timemodel#//@subBlock.0/@expressions.54"/>
  </references>
  <references xsi:type="trace:ModelElementReference">
    <elementRef href="../../model.timemodel#/"/>
    <elementRef href="../../model.timemodel#//@subBlock.0"/>
    <elementRef href="../../model.timemodel#//@subBlock.0/@expressions.84"/>
  </references>
  <references xsi:type="trace:ModelElementReference">
    <elementRef href="../../model.timemodel#/"/>
    <elementRef href="../../model.timemodel#//@subBlock.0"/>
    <elementRef href="../../model.timemodel#//@subBlock.0/@expressions.75"/>
  </references>
  <references xsi:type="trace:ModelElementReference">
    <elementRef href="../../model.timemodel#/"/>
    <elementRef href="../../model.timemodel#//@subBlock.0"/>
    <elementRef href="../../model.timemodel#//@subBlock.0/@expressions.70"/>
    <elementRef href="platform:/plugin/fr.inria.aoste.timesquare.ccslkernel.model/ccsllibrary/CCSL.ccslLib#//@expressionLibraries.0/@expressionDefinitions.2"/>
    <elementRef href="platform:/plugin/fr.inria.aoste.timesquare.ccslkernel.model/ccsllibrary/CCSL.ccslLib#//@expressionLibraries.0/@expressionDefinitions.2/@concreteEntities.1"/>
  </references>
  <references xsi:type="trace:ModelElementReference">
    <elementRef href="../../model.timemodel#/"/>
    <elementRef href="../../model.timemodel#//@subBlock.0"/>
    <elementRef href="../../model.timemodel#//@subBlock.0/@expressions.39"/>
  </references>
  <references xsi:type="trace:ModelElementReference">
    <elementRef href="../../model.timemodel#/"/>
    <elementRef href="../../model.timemodel#//@subBlock.0"/>
    <elementRef href="../../model.timemodel#//@subBlock.0/@expressions.87"/>
    <elementRef href="platform:/plugin/fr.inria.aoste.timesquare.ccslkernel.model/ccsllibrary/CCSL.ccslLib#//@expressionLibraries.0/@expressionDefinitions.3"/>
    <elementRef href="platform:/plugin/fr.inria.aoste.timesquare.ccslkernel.model/ccsllibrary/CCSL.ccslLib#//@expressionLibraries.0/@expressionDefinitions.3/@concreteEntities.0"/>
  </references>
  <references xsi:type="trace:ModelElementReference">
    <elementRef href="../../model.timemodel#/"/>
    <elementRef href="../../model.timemodel#//@subBlock.0"/>
    <elementRef href="../../model.timemodel#//@subBlock.0/@expressions.45"/>
  </references>
  <references xsi:type="trace:ModelElementReference">
    <elementRef href="../../model.timemodel#/"/>
    <elementRef href="../../model.timemodel#//@subBlock.0"/>
    <elementRef href="../../model.timemodel#//@subBlock.0/@expressions.67"/>
  </references>
  <references xsi:type="trace:ModelElementReference">
    <elementRef href="../../model.timemodel#/"/>
    <elementRef href="../../model.timemodel#//@subBlock.0"/>
    <elementRef href="../../model.timemodel#//@subBlock.0/@expressions.65"/>
  </references>
  <references xsi:type="trace:ModelElementReference">
    <elementRef href="../../model.timemodel#/"/>
    <elementRef href="../../model.timemodel#//@subBlock.0"/>
    <elementRef href="../../model.timemodel#//@subBlock.0/@expressions.78"/>
    <elementRef href="platform:/plugin/fr.inria.aoste.timesquare.ccslkernel.model/ccsllibrary/CCSL.ccslLib#//@expressionLibraries.0/@expressionDefinitions.2"/>
    <elementRef href="platform:/plugin/fr.inria.aoste.timesquare.ccslkernel.model/ccsllibrary/CCSL.ccslLib#//@expressionLibraries.0/@expressionDefinitions.2/@concreteEntities.1"/>
  </references>
  <references xsi:type="trace:ModelElementReference">
    <elementRef href="../../model.timemodel#/"/>
    <elementRef href="../../model.timemodel#//@subBlock.0"/>
    <elementRef href="../../model.timemodel#//@subBlock.0/@expressions.68"/>
  </references>
  <references xsi:type="trace:ModelElementReference">
    <elementRef href="../../model.timemodel#/"/>
    <elementRef href="../../model.timemodel#//@subBlock.0"/>
    <elementRef href="../../model.timemodel#//@subBlock.0/@expressions.85"/>
  </references>
  <references xsi:type="trace:ModelElementReference">
    <elementRef href="../../model.timemodel#/"/>
    <elementRef href="../../model.timemodel#//@subBlock.0"/>
    <elementRef href="../../model.timemodel#//@subBlock.0/@expressions.63"/>
    <elementRef href="platform:/plugin/fr.inria.aoste.timesquare.ccslkernel.model/ccsllibrary/CCSL.ccslLib#//@expressionLibraries.0/@expressionDefinitions.2"/>
    <elementRef href="platform:/plugin/fr.inria.aoste.timesquare.ccslkernel.model/ccsllibrary/CCSL.ccslLib#//@expressionLibraries.0/@expressionDefinitions.2/@concreteEntities.1"/>
  </references>
  <references xsi:type="trace:ModelElementReference">
    <elementRef href="../../model.timemodel#/"/>
    <elementRef href="../../model.timemodel#//@subBlock.0"/>
    <elementRef href="../../model.timemodel#//@subBlock.0/@expressions.18"/>
  </references>
  <references xsi:type="trace:ModelElementReference">
    <elementRef href="../../model.timemodel#/"/>
    <elementRef href="../../model.timemodel#//@subBlock.0"/>
    <elementRef href="../../model.timemodel#//@subBlock.0/@expressions.72"/>
  </references>
  <references xsi:type="trace:ModelElementReference">
    <elementRef href="../../model.timemodel#/"/>
    <elementRef href="../../model.timemodel#//@subBlock.0"/>
    <elementRef href="../../model.timemodel#//@subBlock.0/@expressions.15"/>
  </references>
  <references xsi:type="trace:ModelElementReference">
    <elementRef href="../../model.timemodel#/"/>
    <elementRef href="../../model.timemodel#//@subBlock.0"/>
    <elementRef href="../../model.timemodel#//@subBlock.0/@expressions.64"/>
    <elementRef href="platform:/plugin/fr.inria.aoste.timesquare.ccslkernel.model/ccsllibrary/CCSL.ccslLib#//@expressionLibraries.0/@expressionDefinitions.2"/>
    <elementRef href="platform:/plugin/fr.inria.aoste.timesquare.ccslkernel.model/ccsllibrary/CCSL.ccslLib#//@expressionLibraries.0/@expressionDefinitions.2/@concreteEntities.1"/>
  </references>
  <references xsi:type="trace:ModelElementReference">
    <elementRef href="../../model.timemodel#/"/>
    <elementRef href="../../model.timemodel#//@subBlock.0"/>
    <elementRef href="../../model.timemodel#//@subBlock.0/@expressions.69"/>
  </references>
  <references xsi:type="trace:ModelElementReference">
    <elementRef href="../../model.timemodel#/"/>
    <elementRef href="../../model.timemodel#//@subBlock.0"/>
    <elementRef href="../../model.timemodel#//@subBlock.0/@expressions.30"/>
  </references>
  <references xsi:type="trace:ModelElementReference">
    <elementRef href="../../model.timemodel#/"/>
    <elementRef href="../../model.timemodel#//@subBlock.0"/>
    <elementRef href="../../model.timemodel#//@subBlock.0/@expressions.40"/>
  </references>
  <references xsi:type="trace:ModelElementReference">
    <elementRef href="../../model.timemodel#/"/>
    <elementRef href="../../model.timemodel#//@subBlock.0"/>
    <elementRef href="../../model.timemodel#//@subBlock.0/@expressions.88"/>
    <elementRef href="platform:/plugin/fr.inria.aoste.timesquare.ccslkernel.model/ccsllibrary/CCSL.ccslLib#//@expressionLibraries.0/@expressionDefinitions.3"/>
    <elementRef href="platform:/plugin/fr.inria.aoste.timesquare.ccslkernel.model/ccsllibrary/CCSL.ccslLib#//@expressionLibraries.0/@expressionDefinitions.3/@concreteEntities.1"/>
  </references>
  <references xsi:type="trace:ModelElementReference">
    <elementRef href="../../model.timemodel#/"/>
    <elementRef href="../../model.timemodel#//@subBlock.0"/>
    <elementRef href="../../model.timemodel#//@subBlock.0/@expressions.5"/>
  </references>
  <references xsi:type="trace:ModelElementReference">
    <elementRef href="../../model.timemodel#/"/>
    <elementRef href="../../model.timemodel#//@subBlock.0"/>
    <elementRef href="../../model.timemodel#//@subBlock.0/@expressions.31"/>
  </references>
  <references xsi:type="trace:ModelElementReference">
    <elementRef href="../../model.timemodel#/"/>
    <elementRef href="../../model.timemodel#//@subBlock.0"/>
    <elementRef href="../../model.timemodel#//@subBlock.0/@expressions.48"/>
  </references>
  <references xsi:type="trace:ModelElementReference">
    <elementRef href="../../model.timemodel#/"/>
    <elementRef href="../../model.timemodel#//@subBlock.0"/>
    <elementRef href="../../model.timemodel#//@subBlock.0/@expressions.17"/>
  </references>
  <references xsi:type="trace:ModelElementReference">
    <elementRef href="../../model.timemodel#/"/>
    <elementRef href="../../model.timemodel#//@subBlock.0"/>
    <elementRef href="../../model.timemodel#//@subBlock.0/@expressions.84"/>
    <elementRef href="platform:/plugin/fr.inria.aoste.timesquare.ccslkernel.model/ccsllibrary/CCSL.ccslLib#//@expressionLibraries.0/@expressionDefinitions.2"/>
    <elementRef href="platform:/plugin/fr.inria.aoste.timesquare.ccslkernel.model/ccsllibrary/CCSL.ccslLib#//@expressionLibraries.0/@expressionDefinitions.2/@concreteEntities.1"/>
  </references>
  <references xsi:type="trace:ModelElementReference">
    <elementRef href="../../model.timemodel#/"/>
    <elementRef href="../../model.timemodel#//@subBlock.0"/>
    <elementRef href="../../model.timemodel#//@subBlock.0/@expressions.51"/>
  </references>
  <references xsi:type="trace:ModelElementReference">
    <elementRef href="../../model.timemodel#/"/>
    <elementRef href="../../model.timemodel#//@subBlock.0"/>
    <elementRef href="../../model.timemodel#//@subBlock.0/@expressions.14"/>
  </references>
  <references xsi:type="trace:ModelElementReference">
    <elementRef href="../../model.timemodel#/"/>
    <elementRef href="../../model.timemodel#//@subBlock.0"/>
    <elementRef href="../../model.timemodel#//@subBlock.0/@expressions.82"/>
  </references>
  <references xsi:type="trace:ModelElementReference">
    <elementRef href="../../model.timemodel#/"/>
    <elementRef href="../../model.timemodel#//@subBlock.0"/>
    <elementRef href="../../model.timemodel#//@subBlock.0/@expressions.37"/>
  </references>
  <references xsi:type="trace:ModelElementReference">
    <elementRef href="../../model.timemodel#/"/>
    <elementRef href="../../model.timemodel#//@subBlock.0"/>
    <elementRef href="../../model.timemodel#//@subBlock.0/@expressions.21"/>
  </references>
  <references xsi:type="trace:ModelElementReference">
    <elementRef href="../../model.timemodel#/"/>
    <elementRef href="../../model.timemodel#//@subBlock.0"/>
    <elementRef href="../../model.timemodel#//@subBlock.0/@expressions.4"/>
  </references>
  <references xsi:type="trace:ModelElementReference">
    <elementRef href="../../model.timemodel#/"/>
    <elementRef href="../../model.timemodel#//@subBlock.0"/>
    <elementRef href="../../model.timemodel#//@subBlock.0/@expressions.47"/>
  </references>
  <references xsi:type="trace:ModelElementReference">
    <elementRef href="../../model.timemodel#/"/>
    <elementRef href="../../model.timemodel#//@subBlock.0"/>
    <elementRef href="../../model.timemodel#//@subBlock.0/@expressions.50"/>
  </references>
  <references xsi:type="trace:ModelElementReference">
    <elementRef href="../../model.timemodel#/"/>
    <elementRef href="../../model.timemodel#//@subBlock.0"/>
    <elementRef href="../../model.timemodel#//@subBlock.0/@expressions.79"/>
  </references>
  <references xsi:type="trace:ModelElementReference">
    <elementRef href="../../model.timemodel#/"/>
    <elementRef href="../../model.timemodel#//@subBlock.0"/>
    <elementRef href="../../model.timemodel#//@subBlock.0/@expressions.87"/>
  </references>
  <references xsi:type="trace:ModelElementReference">
    <elementRef href="../../model.timemodel#/"/>
    <elementRef href="../../model.timemodel#//@subBlock.0"/>
    <elementRef href="../../model.timemodel#//@subBlock.0/@expressions.3"/>
  </references>
  <references xsi:type="trace:ModelElementReference">
    <elementRef href="../../model.timemodel#/"/>
    <elementRef href="../../model.timemodel#//@subBlock.0"/>
    <elementRef href="../../model.timemodel#//@subBlock.0/@expressions.19"/>
  </references>
  <references xsi:type="trace:ModelElementReference">
    <elementRef href="../../model.timemodel#/"/>
    <elementRef href="../../model.timemodel#//@subBlock.0"/>
    <elementRef href="../../model.timemodel#//@subBlock.0/@expressions.10"/>
  </references>
  <references xsi:type="trace:ModelElementReference">
    <elementRef href="../../model.timemodel#/"/>
    <elementRef href="../../model.timemodel#//@subBlock.0"/>
    <elementRef href="../../model.timemodel#//@subBlock.0/@expressions.70"/>
  </references>
  <references xsi:type="trace:ModelElementReference">
    <elementRef href="../../model.timemodel#/"/>
    <elementRef href="../../model.timemodel#//@subBlock.0"/>
    <elementRef href="../../model.timemodel#//@subBlock.0/@expressions.71"/>
  </references>
  <references xsi:type="trace:ModelElementReference">
    <elementRef href="../../model.timemodel#/"/>
    <elementRef href="../../model.timemodel#//@subBlock.0"/>
    <elementRef href="../../model.timemodel#//@subBlock.0/@expressions.76"/>
    <elementRef href="platform:/plugin/fr.inria.aoste.timesquare.ccslkernel.model/ccsllibrary/CCSL.ccslLib#//@expressionLibraries.0/@expressionDefinitions.2"/>
    <elementRef href="platform:/plugin/fr.inria.aoste.timesquare.ccslkernel.model/ccsllibrary/CCSL.ccslLib#//@expressionLibraries.0/@expressionDefinitions.2/@concreteEntities.1"/>
  </references>
  <references xsi:type="trace:ModelElementReference">
    <elementRef href="../../model.timemodel#/"/>
    <elementRef href="../../model.timemodel#//@subBlock.0"/>
    <elementRef href="../../model.timemodel#//@subBlock.0/@expressions.58"/>
  </references>
  <references xsi:type="trace:ModelElementReference">
    <elementRef href="../../model.timemodel#/"/>
    <elementRef href="../../model.timemodel#//@subBlock.0"/>
    <elementRef href="../../model.timemodel#//@subBlock.0/@expressions.0"/>
  </references>
  <references xsi:type="trace:ModelElementReference">
    <elementRef href="../../model.timemodel#/"/>
    <elementRef href="../../model.timemodel#//@subBlock.0"/>
    <elementRef href="../../model.timemodel#//@subBlock.0/@expressions.13"/>
  </references>
  <references xsi:type="trace:ModelElementReference">
    <elementRef href="../../model.timemodel#/"/>
    <elementRef href="../../model.timemodel#//@subBlock.0"/>
    <elementRef href="../../model.timemodel#//@subBlock.0/@expressions.65"/>
    <elementRef href="platform:/plugin/fr.inria.aoste.timesquare.ccslkernel.model/ccsllibrary/CCSL.ccslLib#//@expressionLibraries.0/@expressionDefinitions.2"/>
    <elementRef href="platform:/plugin/fr.inria.aoste.timesquare.ccslkernel.model/ccsllibrary/CCSL.ccslLib#//@expressionLibraries.0/@expressionDefinitions.2/@concreteEntities.1"/>
  </references>
  <references xsi:type="trace:ModelElementReference">
    <elementRef href="../../model.timemodel#/"/>
    <elementRef href="../../model.timemodel#//@subBlock.0"/>
    <elementRef href="../../model.timemodel#//@subBlock.0/@expressions.12"/>
  </references>
  <references xsi:type="trace:ModelElementReference">
    <elementRef href="../../model.timemodel#/"/>
    <elementRef href="../../model.timemodel#//@subBlock.0"/>
    <elementRef href="../../model.timemodel#//@subBlock.0/@expressions.22"/>
  </references>
  <references xsi:type="trace:ModelElementReference">
    <elementRef href="../../model.timemodel#/"/>
    <elementRef href="../../model.timemodel#//@subBlock.0"/>
    <elementRef href="../../model.timemodel#//@subBlock.0/@expressions.52"/>
  </references>
  <references xsi:type="trace:ModelElementReference">
    <elementRef href="../../model.timemodel#/"/>
    <elementRef href="../../model.timemodel#//@subBlock.0"/>
    <elementRef href="../../model.timemodel#//@subBlock.0/@expressions.32"/>
  </references>
  <references xsi:type="trace:ModelElementReference">
    <elementRef href="../../model.timemodel#/"/>
    <elementRef href="../../model.timemodel#//@subBlock.0"/>
    <elementRef href="../../model.timemodel#//@subBlock.0/@expressions.60"/>
  </references>
  <references xsi:type="trace:ModelElementReference">
    <elementRef href="../../model.timemodel#/"/>
    <elementRef href="../../model.timemodel#//@subBlock.0"/>
    <elementRef href="../../model.timemodel#//@subBlock.0/@expressions.25"/>
  </references>
  <references xsi:type="trace:ModelElementReference">
    <elementRef href="../../model.timemodel#/"/>
    <elementRef href="../../model.timemodel#//@subBlock.0"/>
    <elementRef href="../../model.timemodel#//@subBlock.0/@expressions.73"/>
  </references>
  <references xsi:type="trace:ModelElementReference">
    <elementRef href="../../model.timemodel#/"/>
    <elementRef href="../../model.timemodel#//@subBlock.0"/>
    <elementRef href="../../model.timemodel#//@subBlock.0/@expressions.36"/>
  </references>
  <references xsi:type="trace:ModelElementReference">
    <elementRef href="../../model.timemodel#/"/>
    <elementRef href="../../model.timemodel#//@subBlock.0"/>
    <elementRef href="../../model.timemodel#//@subBlock.0/@expressions.63"/>
  </references>
  <references xsi:type="trace:ModelElementReference">
    <elementRef href="../../model.timemodel#/"/>
    <elementRef href="../../model.timemodel#//@subBlock.0"/>
    <elementRef href="../../model.timemodel#//@subBlock.0/@expressions.78"/>
  </references>
  <references xsi:type="trace:ModelElementReference">
    <elementRef href="../../model.timemodel#/"/>
    <elementRef href="../../model.timemodel#//@subBlock.0"/>
    <elementRef href="../../model.timemodel#//@subBlock.0/@expressions.74"/>
  </references>
  <references xsi:type="trace:ModelElementReference">
    <elementRef href="../../model.timemodel#/"/>
    <elementRef href="../../model.timemodel#//@subBlock.0"/>
    <elementRef href="../../model.timemodel#//@subBlock.0/@expressions.24"/>
  </references>
  <references xsi:type="trace:ModelElementReference">
    <elementRef href="../../model.timemodel#/"/>
    <elementRef href="../../model.timemodel#//@subBlock.0"/>
    <elementRef href="../../model.timemodel#//@subBlock.0/@expressions.42"/>
  </references>
  <references xsi:type="trace:ModelElementReference">
    <elementRef href="../../model.timemodel#/"/>
    <elementRef href="../../model.timemodel#//@subBlock.0"/>
    <elementRef href="../../model.timemodel#//@subBlock.0/@expressions.38"/>
  </references>
  <references xsi:type="trace:ModelElementReference">
    <elementRef href="../../model.timemodel#/"/>
    <elementRef href="../../model.timemodel#//@subBlock.0"/>
    <elementRef href="../../model.timemodel#//@subBlock.0/@expressions.7"/>
  </references>
  <references xsi:type="trace:ModelElementReference">
    <elementRef href="../../model.timemodel#/"/>
    <elementRef href="../../model.timemodel#//@subBlock.0"/>
    <elementRef href="../../model.timemodel#//@subBlock.0/@expressions.33"/>
  </references>
  <references xsi:type="trace:ModelElementReference">
    <elementRef href="../../model.timemodel#/"/>
    <elementRef href="../../model.timemodel#//@subBlock.0"/>
    <elementRef href="../../model.timemodel#//@subBlock.0/@expressions.20"/>
  </references>
  <references xsi:type="trace:ModelElementReference">
    <elementRef href="../../model.timemodel#/"/>
    <elementRef href="../../model.timemodel#//@subBlock.0"/>
    <elementRef href="../../model.timemodel#//@subBlock.0/@expressions.8"/>
  </references>
  <references xsi:type="trace:ModelElementReference">
    <elementRef href="../../model.timemodel#/"/>
    <elementRef href="../../model.timemodel#//@subBlock.0"/>
    <elementRef href="../../model.timemodel#//@subBlock.0/@expressions.87"/>
    <elementRef href="platform:/plugin/fr.inria.aoste.timesquare.ccslkernel.model/ccsllibrary/CCSL.ccslLib#//@expressionLibraries.0/@expressionDefinitions.3"/>
    <elementRef href="platform:/plugin/fr.inria.aoste.timesquare.ccslkernel.model/ccsllibrary/CCSL.ccslLib#//@expressionLibraries.0/@expressionDefinitions.3/@concreteEntities.1"/>
  </references>
  <references xsi:type="trace:ModelElementReference">
    <elementRef href="../../model.timemodel#/"/>
    <elementRef href="../../model.timemodel#//@subBlock.0"/>
    <elementRef href="../../model.timemodel#//@subBlock.0/@expressions.64"/>
  </references>
  <references xsi:type="trace:ModelElementReference">
    <elementRef href="../../model.timemodel#/"/>
    <elementRef href="../../model.timemodel#//@subBlock.0"/>
    <elementRef href="../../model.timemodel#//@subBlock.0/@expressions.55"/>
  </references>
  <references xsi:type="trace:ModelElementReference">
    <elementRef href="../../model.timemodel#/"/>
    <elementRef href="../../model.timemodel#//@subBlock.0"/>
    <elementRef href="../../model.timemodel#//@subBlock.0/@expressions.23"/>
  </references>
  <references xsi:type="trace:ModelElementReference">
    <elementRef href="../../model.timemodel#/"/>
    <elementRef href="../../model.timemodel#//@subBlock.0"/>
    <elementRef href="../../model.timemodel#//@subBlock.0/@expressions.88"/>
  </references>
  <references xsi:type="trace:ModelElementReference">
    <elementRef href="../../model.timemodel#/"/>
    <elementRef href="../../model.timemodel#//@subBlock.0"/>
    <elementRef href="../../model.timemodel#//@subBlock.0/@expressions.9"/>
  </references>
  <references xsi:type="trace:ModelElementReference">
    <elementRef href="../../model.timemodel#/"/>
    <elementRef href="../../model.timemodel#//@subBlock.0"/>
    <elementRef href="../../model.timemodel#//@subBlock.0/@expressions.80"/>
  </references>
  <references xsi:type="trace:ModelElementReference">
    <elementRef href="../../model.timemodel#/"/>
    <elementRef href="../../model.timemodel#//@subBlock.0"/>
    <elementRef href="../../model.timemodel#//@subBlock.0/@expressions.66"/>
    <elementRef href="platform:/plugin/fr.inria.aoste.timesquare.ccslkernel.model/ccsllibrary/CCSL.ccslLib#//@expressionLibraries.0/@expressionDefinitions.2"/>
    <elementRef href="platform:/plugin/fr.inria.aoste.timesquare.ccslkernel.model/ccsllibrary/CCSL.ccslLib#//@expressionLibraries.0/@expressionDefinitions.2/@concreteEntities.1"/>
  </references>
  <references xsi:type="trace:ModelElementReference">
    <elementRef href="../../model.timemodel#/"/>
    <elementRef href="../../model.timemodel#//@subBlock.0"/>
    <elementRef href="../../model.timemodel#//@subBlock.0/@expressions.44"/>
  </references>
  <references xsi:type="trace:ModelElementReference">
    <elementRef href="../../model.timemodel#/"/>
    <elementRef href="../../model.timemodel#//@subBlock.0"/>
    <elementRef href="../../model.timemodel#//@subBlock.0/@expressions.26"/>
  </references>
  <references xsi:type="trace:ModelElementReference">
    <elementRef href="../../model.timemodel#/"/>
    <elementRef href="../../model.timemodel#//@subBlock.0"/>
    <elementRef href="../../model.timemodel#//@subBlock.0/@expressions.74"/>
    <elementRef href="platform:/plugin/fr.inria.aoste.timesquare.ccslkernel.model/ccsllibrary/CCSL.ccslLib#//@expressionLibraries.0/@expressionDefinitions.2"/>
    <elementRef href="platform:/plugin/fr.inria.aoste.timesquare.ccslkernel.model/ccsllibrary/CCSL.ccslLib#//@expressionLibraries.0/@expressionDefinitions.2/@concreteEntities.1"/>
  </references>
  <references xsi:type="trace:ModelElementReference">
    <elementRef href="../../model.timemodel#/"/>
    <elementRef href="../../model.timemodel#//@subBlock.0"/>
    <elementRef href="../../model.timemodel#//@subBlock.0/@expressions.86"/>
  </references>
  <references xsi:type="trace:ModelElementReference">
    <elementRef href="../../model.timemodel#/"/>
    <elementRef href="../../model.timemodel#//@subBlock.0"/>
    <elementRef href="../../model.timemodel#//@subBlock.0/@expressions.49"/>
  </references>
  <references xsi:type="trace:ModelElementReference">
    <elementRef href="../../model.timemodel#/"/>
    <elementRef href="../../model.timemodel#//@subBlock.0"/>
    <elementRef href="../../model.timemodel#//@subBlock.0/@expressions.27"/>
  </references>
  <references xsi:type="trace:ModelElementReference">
    <elementRef href="../../model.timemodel#/"/>
    <elementRef href="../../model.timemodel#//@subBlock.0"/>
    <elementRef href="../../model.timemodel#//@subBlock.0/@expressions.88"/>
    <elementRef href="platform:/plugin/fr.inria.aoste.timesquare.ccslkernel.model/ccsllibrary/CCSL.ccslLib#//@expressionLibraries.0/@expressionDefinitions.3"/>
    <elementRef href="platform:/plugin/fr.inria.aoste.timesquare.ccslkernel.model/ccsllibrary/CCSL.ccslLib#//@expressionLibraries.0/@expressionDefinitions.3/@concreteEntities.0"/>
  </references>
  <references xsi:type="trace:ModelElementReference">
    <elementRef href="../../model.timemodel#/"/>
    <elementRef href="../../model.timemodel#//@subBlock.0"/>
    <elementRef href="../../model.timemodel#//@subBlock.0/@expressions.59"/>
  </references>
  <references xsi:type="trace:ModelElementReference">
    <elementRef href="../../model.timemodel#/"/>
    <elementRef href="../../model.timemodel#//@subBlock.0"/>
    <elementRef href="../../model.timemodel#//@subBlock.0/@expressions.41"/>
  </references>
  <references xsi:type="trace:ModelElementReference">
    <elementRef href="../../model.timemodel#/"/>
    <elementRef href="../../model.timemodel#//@subBlock.0"/>
    <elementRef href="../../model.timemodel#//@subBlock.0/@expressions.29"/>
  </references>
  <references xsi:type="trace:ModelElementReference">
    <elementRef href="../../model.timemodel#/"/>
    <elementRef href="../../model.timemodel#//@subBlock.0"/>
    <elementRef href="../../model.timemodel#//@subBlock.0/@expressions.11"/>
  </references>
  <references xsi:type="trace:ModelElementReference">
    <elementRef href="../../model.timemodel#/"/>
    <elementRef href="../../model.timemodel#//@subBlock.0"/>
    <elementRef href="../../model.timemodel#//@subBlock.0/@expressions.57"/>
  </references>
  <references xsi:type="trace:ModelElementReference">
    <elementRef href="../../model.timemodel#/"/>
    <elementRef href="../../model.timemodel#//@subBlock.0"/>
    <elementRef href="../../model.timemodel#//@subBlock.0/@expressions.72"/>
    <elementRef href="platform:/plugin/fr.inria.aoste.timesquare.ccslkernel.model/ccsllibrary/CCSL.ccslLib#//@expressionLibraries.0/@expressionDefinitions.2"/>
    <elementRef href="platform:/plugin/fr.inria.aoste.timesquare.ccslkernel.model/ccsllibrary/CCSL.ccslLib#//@expressionLibraries.0/@expressionDefinitions.2/@concreteEntities.1"/>
  </references>
  <references xsi:type="trace:ModelElementReference">
    <elementRef href="../../model.timemodel#/"/>
    <elementRef href="../../model.timemodel#//@subBlock.0"/>
    <elementRef href="../../model.timemodel#//@subBlock.0/@expressions.35"/>
  </references>
  <references xsi:type="trace:ModelElementReference">
    <elementRef href="../../model.timemodel#/"/>
    <elementRef href="../../model.timemodel#//@subBlock.0"/>
    <elementRef href="../../model.timemodel#//@subBlock.0/@expressions.28"/>
  </references>
  <references xsi:type="trace:ModelElementReference">
    <elementRef href="../../model.timemodel#/"/>
    <elementRef href="../../model.timemodel#//@subBlock.0"/>
    <elementRef href="../../model.timemodel#//@subBlock.0/@expressions.16"/>
  </references>
  <references xsi:type="trace:ModelElementReference">
    <elementRef href="../../model.timemodel#/"/>
    <elementRef href="../../model.timemodel#//@subBlock.0"/>
    <elementRef href="../../model.timemodel#//@subBlock.0/@expressions.6"/>
  </references>
  <references xsi:type="trace:ModelElementReference">
    <elementRef href="../../model.timemodel#/"/>
    <elementRef href="../../model.timemodel#//@subBlock.0"/>
    <elementRef href="../../model.timemodel#//@subBlock.0/@expressions.77"/>
  </references>
  <references xsi:type="trace:ModelElementReference">
    <elementRef href="../../model.timemodel#/"/>
    <elementRef href="../../model.timemodel#//@subBlock.0"/>
    <elementRef href="../../model.timemodel#//@subBlock.0/@relations.146"/>
  </references>
  <references xsi:type="trace:ModelElementReference">
    <elementRef href="../../model.timemodel#/"/>
    <elementRef href="../../model.timemodel#//@subBlock.0"/>
    <elementRef href="../../model.timemodel#//@subBlock.0/@relations.131"/>
  </references>
  <references xsi:type="trace:ModelElementReference">
    <elementRef href="../../model.timemodel#/"/>
    <elementRef href="../../model.timemodel#//@subBlock.0"/>
    <elementRef href="../../model.timemodel#//@subBlock.0/@relations.24"/>
  </references>
  <references xsi:type="trace:ModelElementReference">
    <elementRef href="../../model.timemodel#/"/>
    <elementRef href="../../model.timemodel#//@subBlock.0"/>
    <elementRef href="../../model.timemodel#//@subBlock.0/@relations.127"/>
  </references>
  <references xsi:type="trace:ModelElementReference">
    <elementRef href="../../model.timemodel#/"/>
    <elementRef href="../../model.timemodel#//@subBlock.0"/>
    <elementRef href="../../model.timemodel#//@subBlock.0/@relations.32"/>
  </references>
  <references xsi:type="trace:ModelElementReference">
    <elementRef href="../../model.timemodel#/"/>
    <elementRef href="../../model.timemodel#//@subBlock.0"/>
    <elementRef href="../../model.timemodel#//@subBlock.0/@relations.120"/>
  </references>
  <references xsi:type="trace:ModelElementReference">
    <elementRef href="../../model.timemodel#/"/>
    <elementRef href="../../model.timemodel#//@subBlock.0"/>
    <elementRef href="../../model.timemodel#//@subBlock.0/@relations.33"/>
  </references>
  <references xsi:type="trace:ModelElementReference">
    <elementRef href="../../model.timemodel#/"/>
    <elementRef href="../../model.timemodel#//@subBlock.0"/>
    <elementRef href="../../model.timemodel#//@subBlock.0/@relations.64"/>
  </references>
  <references xsi:type="trace:ModelElementReference">
    <elementRef href="../../model.timemodel#/"/>
    <elementRef href="../../model.timemodel#//@subBlock.0"/>
    <elementRef href="../../model.timemodel#//@subBlock.0/@relations.132"/>
  </references>
  <references xsi:type="trace:ModelElementReference">
    <elementRef href="../../model.timemodel#/"/>
    <elementRef href="../../model.timemodel#//@subBlock.0"/>
    <elementRef href="../../model.timemodel#//@subBlock.0/@relations.22"/>
  </references>
  <references xsi:type="trace:ModelElementReference">
    <elementRef href="../../model.timemodel#/"/>
    <elementRef href="../../model.timemodel#//@subBlock.0"/>
    <elementRef href="../../model.timemodel#//@subBlock.0/@relations.13"/>
  </references>
  <references xsi:type="trace:ModelElementReference">
    <elementRef href="../../model.timemodel#/"/>
    <elementRef href="../../model.timemodel#//@subBlock.0"/>
    <elementRef href="../../model.timemodel#//@subBlock.0/@relations.140"/>
  </references>
  <references xsi:type="trace:ModelElementReference">
    <elementRef href="../../model.timemodel#/"/>
    <elementRef href="../../model.timemodel#//@subBlock.0"/>
    <elementRef href="../../model.timemodel#//@subBlock.0/@relations.119"/>
  </references>
  <references xsi:type="trace:ModelElementReference">
    <elementRef href="../../model.timemodel#/"/>
    <elementRef href="../../model.timemodel#//@subBlock.0"/>
    <elementRef href="../../model.timemodel#//@subBlock.0/@relations.4"/>
  </references>
  <references xsi:type="trace:ModelElementReference">
    <elementRef href="../../model.timemodel#/"/>
    <elementRef href="../../model.timemodel#//@subBlock.0"/>
    <elementRef href="../../model.timemodel#//@subBlock.0/@relations.19"/>
  </references>
  <references xsi:type="trace:ModelElementReference">
    <elementRef href="../../model.timemodel#/"/>
    <elementRef href="../../model.timemodel#//@subBlock.0"/>
    <elementRef href="../../model.timemodel#//@subBlock.0/@relations.136"/>
  </references>
  <references xsi:type="trace:ModelElementReference">
    <elementRef href="../../model.timemodel#/"/>
    <elementRef href="../../model.timemodel#//@subBlock.0"/>
    <elementRef href="../../model.timemodel#//@subBlock.0/@relations.105"/>
  </references>
  <references xsi:type="trace:ModelElementReference">
    <elementRef href="../../model.timemodel#/"/>
    <elementRef href="../../model.timemodel#//@subBlock.0"/>
    <elementRef href="../../model.timemodel#//@subBlock.0/@relations.98"/>
  </references>
  <references xsi:type="trace:ModelElementReference">
    <elementRef href="../../model.timemodel#/"/>
    <elementRef href="../../model.timemodel#//@subBlock.0"/>
    <elementRef href="../../model.timemodel#//@subBlock.0/@relations.42"/>
  </references>
  <references xsi:type="trace:ModelElementReference">
    <elementRef href="../../model.timemodel#/"/>
    <elementRef href="../../model.timemodel#//@subBlock.0"/>
    <elementRef href="../../model.timemodel#//@subBlock.0/@relations.144"/>
  </references>
  <references xsi:type="trace:ModelElementReference">
    <elementRef href="../../model.timemodel#/"/>
    <elementRef href="../../model.timemodel#//@subBlock.0"/>
    <elementRef href="../../model.timemodel#//@subBlock.0/@relations.61"/>
  </references>
  <references xsi:type="trace:ModelElementReference">
    <elementRef href="../../model.timemodel#/"/>
    <elementRef href="../../model.timemodel#//@subBlock.0"/>
    <elementRef href="../../model.timemodel#//@subBlock.0/@relations.122"/>
  </references>
  <references xsi:type="trace:ModelElementReference">
    <elementRef href="../../model.timemodel#/"/>
    <elementRef href="../../model.timemodel#//@subBlock.0"/>
    <elementRef href="../../model.timemodel#//@subBlock.0/@relations.14"/>
  </references>
  <references xsi:type="trace:ModelElementReference">
    <elementRef href="../../model.timemodel#/"/>
    <elementRef href="../../model.timemodel#//@subBlock.0"/>
    <elementRef href="../../model.timemodel#//@subBlock.0/@relations.55"/>
  </references>
  <references xsi:type="trace:ModelElementReference">
    <elementRef href="../../model.timemodel#/"/>
    <elementRef href="../../model.timemodel#//@subBlock.0"/>
    <elementRef href="../../model.timemodel#//@subBlock.0/@relations.121"/>
  </references>
  <references xsi:type="trace:ModelElementReference">
    <elementRef href="../../model.timemodel#/"/>
    <elementRef href="../../model.timemodel#//@subBlock.0"/>
    <elementRef href="../../model.timemodel#//@subBlock.0/@relations.141"/>
  </references>
  <references xsi:type="trace:ModelElementReference">
    <elementRef href="../../model.timemodel#/"/>
    <elementRef href="../../model.timemodel#//@subBlock.0"/>
    <elementRef href="../../model.timemodel#//@subBlock.0/@relations.35"/>
  </references>
  <references xsi:type="trace:ModelElementReference">
    <elementRef href="../../model.timemodel#/"/>
    <elementRef href="../../model.timemodel#//@subBlock.0"/>
    <elementRef href="../../model.timemodel#//@subBlock.0/@relations.17"/>
  </references>
  <references xsi:type="trace:ModelElementReference">
    <elementRef href="../../model.timemodel#/"/>
    <elementRef href="../../model.timemodel#//@subBlock.0"/>
    <elementRef href="../../model.timemodel#//@subBlock.0/@relations.137"/>
  </references>
  <references xsi:type="trace:ModelElementReference">
    <elementRef href="../../model.timemodel#/"/>
    <elementRef href="../../model.timemodel#//@subBlock.0"/>
    <elementRef href="../../model.timemodel#//@subBlock.0/@relations.113"/>
  </references>
  <references xsi:type="trace:ModelElementReference">
    <elementRef href="../../model.timemodel#/"/>
    <elementRef href="../../model.timemodel#//@subBlock.0"/>
    <elementRef href="../../model.timemodel#//@subBlock.0/@relations.63"/>
  </references>
  <references xsi:type="trace:ModelElementReference">
    <elementRef href="../../model.timemodel#/"/>
    <elementRef href="../../model.timemodel#//@subBlock.0"/>
    <elementRef href="../../model.timemodel#//@subBlock.0/@relations.37"/>
  </references>
  <references xsi:type="trace:ModelElementReference">
    <elementRef href="../../model.timemodel#/"/>
    <elementRef href="../../model.timemodel#//@subBlock.0"/>
    <elementRef href="../../model.timemodel#//@subBlock.0/@relations.10"/>
  </references>
  <references xsi:type="trace:ModelElementReference">
    <elementRef href="../../model.timemodel#/"/>
    <elementRef href="../../model.timemodel#//@subBlock.0"/>
    <elementRef href="../../model.timemodel#//@subBlock.0/@relations.102"/>
  </references>
  <references xsi:type="trace:ModelElementReference">
    <elementRef href="../../model.timemodel#/"/>
    <elementRef href="../../model.timemodel#//@subBlock.0"/>
    <elementRef href="../../model.timemodel#//@subBlock.0/@relations.147"/>
  </references>
  <references xsi:type="trace:ModelElementReference">
    <elementRef href="../../model.timemodel#/"/>
    <elementRef href="../../model.timemodel#//@subBlock.0"/>
    <elementRef href="../../model.timemodel#//@subBlock.0/@relations.152"/>
  </references>
  <references xsi:type="trace:ModelElementReference">
    <elementRef href="../../model.timemodel#/"/>
    <elementRef href="../../model.timemodel#//@subBlock.0"/>
    <elementRef href="../../model.timemodel#//@subBlock.0/@relations.107"/>
  </references>
  <references xsi:type="trace:ModelElementReference">
    <elementRef href="../../model.timemodel#/"/>
    <elementRef href="../../model.timemodel#//@subBlock.0"/>
    <elementRef href="../../model.timemodel#//@subBlock.0/@relations.115"/>
  </references>
  <references xsi:type="trace:ModelElementReference">
    <elementRef href="../../model.timemodel#/"/>
    <elementRef href="../../model.timemodel#//@subBlock.0"/>
    <elementRef href="../../model.timemodel#//@subBlock.0/@relations.104"/>
  </references>
  <references xsi:type="trace:ModelElementReference">
    <elementRef href="../../model.timemodel#/"/>
    <elementRef href="../../model.timemodel#//@subBlock.0"/>
    <elementRef href="../../model.timemodel#//@subBlock.0/@relations.139"/>
  </references>
  <references xsi:type="trace:ModelElementReference">
    <elementRef href="../../model.timemodel#/"/>
    <elementRef href="../../model.timemodel#//@subBlock.0"/>
    <elementRef href="../../model.timemodel#//@subBlock.0/@relations.15"/>
  </references>
  <references xsi:type="trace:ModelElementReference">
    <elementRef href="../../model.timemodel#/"/>
    <elementRef href="../../model.timemodel#//@subBlock.0"/>
    <elementRef href="../../model.timemodel#//@subBlock.0/@relations.145"/>
  </references>
  <references xsi:type="trace:ModelElementReference">
    <elementRef href="../../model.timemodel#/"/>
    <elementRef href="../../model.timemodel#//@subBlock.0"/>
    <elementRef href="../../model.timemodel#//@subBlock.0/@relations.151"/>
  </references>
  <references xsi:type="trace:ModelElementReference">
    <elementRef href="../../model.timemodel#/"/>
    <elementRef href="../../model.timemodel#//@subBlock.0"/>
    <elementRef href="../../model.timemodel#//@subBlock.0/@relations.6"/>
  </references>
  <references xsi:type="trace:ModelElementReference">
    <elementRef href="../../model.timemodel#/"/>
    <elementRef href="../../model.timemodel#//@subBlock.0"/>
    <elementRef href="../../model.timemodel#//@subBlock.0/@relations.20"/>
  </references>
  <references xsi:type="trace:ModelElementReference">
    <elementRef href="../../model.timemodel#/"/>
    <elementRef href="../../model.timemodel#//@subBlock.0"/>
    <elementRef href="../../model.timemodel#//@subBlock.0/@relations.112"/>
  </references>
  <references xsi:type="trace:ModelElementReference">
    <elementRef href="../../model.timemodel#/"/>
    <elementRef href="../../model.timemodel#//@subBlock.0"/>
    <elementRef href="../../model.timemodel#//@subBlock.0/@relations.44"/>
  </references>
  <references xsi:type="trace:ModelElementReference">
    <elementRef href="../../model.timemodel#/"/>
    <elementRef href="../../model.timemodel#//@subBlock.0"/>
    <elementRef href="../../model.timemodel#//@subBlock.0/@relations.43"/>
  </references>
  <references xsi:type="trace:ModelElementReference">
    <elementRef href="../../model.timemodel#/"/>
    <elementRef href="../../model.timemodel#//@subBlock.0"/>
    <elementRef href="../../model.timemodel#//@subBlock.0/@relations.7"/>
  </references>
  <references xsi:type="trace:ModelElementReference">
    <elementRef href="../../model.timemodel#/"/>
    <elementRef href="../../model.timemodel#//@subBlock.0"/>
    <elementRef href="../../model.timemodel#//@subBlock.0/@relations.111"/>
  </references>
  <references xsi:type="trace:ModelElementReference">
    <elementRef href="../../model.timemodel#/"/>
    <elementRef href="../../model.timemodel#//@subBlock.0"/>
    <elementRef href="../../model.timemodel#//@subBlock.0/@relations.135"/>
  </references>
  <references xsi:type="trace:ModelElementReference">
    <elementRef href="../../model.timemodel#/"/>
    <elementRef href="../../model.timemodel#//@subBlock.0"/>
    <elementRef href="../../model.timemodel#//@subBlock.0/@relations.0"/>
  </references>
  <references xsi:type="trace:ModelElementReference">
    <elementRef href="../../model.timemodel#/"/>
    <elementRef href="../../model.timemodel#//@subBlock.0"/>
    <elementRef href="../../model.timemodel#//@subBlock.0/@relations.9"/>
  </references>
  <references xsi:type="trace:ModelElementReference">
    <elementRef href="../../model.timemodel#/"/>
    <elementRef href="../../model.timemodel#//@subBlock.0"/>
    <elementRef href="../../model.timemodel#//@subBlock.0/@relations.11"/>
  </references>
  <references xsi:type="trace:ModelElementReference">
    <elementRef href="../../model.timemodel#/"/>
    <elementRef href="../../model.timemodel#//@subBlock.0"/>
    <elementRef href="../../model.timemodel#//@subBlock.0/@relations.114"/>
  </references>
  <references xsi:type="trace:ModelElementReference">
    <elementRef href="../../model.timemodel#/"/>
    <elementRef href="../../model.timemodel#//@subBlock.0"/>
    <elementRef href="../../model.timemodel#//@subBlock.0/@relations.101"/>
  </references>
  <references xsi:type="trace:ModelElementReference">
    <elementRef href="../../model.timemodel#/"/>
    <elementRef href="../../model.timemodel#//@subBlock.0"/>
    <elementRef href="../../model.timemodel#//@subBlock.0/@relations.123"/>
  </references>
  <references xsi:type="trace:ModelElementReference">
    <elementRef href="../../model.timemodel#/"/>
    <elementRef href="../../model.timemodel#//@subBlock.0"/>
    <elementRef href="../../model.timemodel#//@subBlock.0/@relations.110"/>
  </references>
  <references xsi:type="trace:ModelElementReference">
    <elementRef href="../../model.timemodel#/"/>
    <elementRef href="../../model.timemodel#//@subBlock.0"/>
    <elementRef href="../../model.timemodel#//@subBlock.0/@relations.30"/>
  </references>
  <references xsi:type="trace:ModelElementReference">
    <elementRef href="../../model.timemodel#/"/>
    <elementRef href="../../model.timemodel#//@subBlock.0"/>
    <elementRef href="../../model.timemodel#//@subBlock.0/@relations.62"/>
  </references>
  <references xsi:type="trace:ModelElementReference">
    <elementRef href="../../model.timemodel#/"/>
    <elementRef href="../../model.timemodel#//@subBlock.0"/>
    <elementRef href="../../model.timemodel#//@subBlock.0/@relations.25"/>
  </references>
  <references xsi:type="trace:ModelElementReference">
    <elementRef href="../../model.timemodel#/"/>
    <elementRef href="../../model.timemodel#//@subBlock.0"/>
    <elementRef href="../../model.timemodel#//@subBlock.0/@relations.117"/>
  </references>
  <references xsi:type="trace:ModelElementReference">
    <elementRef href="../../model.timemodel#/"/>
    <elementRef href="../../model.timemodel#//@subBlock.0"/>
    <elementRef href="../../model.timemodel#//@subBlock.0/@relations.18"/>
  </references>
  <references xsi:type="trace:ModelElementReference">
    <elementRef href="../../model.timemodel#/"/>
    <elementRef href="../../model.timemodel#//@subBlock.0"/>
    <elementRef href="../../model.timemodel#//@subBlock.0/@relations.8"/>
  </references>
  <references xsi:type="trace:ModelElementReference">
    <elementRef href="../../model.timemodel#/"/>
    <elementRef href="../../model.timemodel#//@subBlock.0"/>
    <elementRef href="../../model.timemodel#//@subBlock.0/@relations.138"/>
  </references>
  <references xsi:type="trace:ModelElementReference">
    <elementRef href="../../model.timemodel#/"/>
    <elementRef href="../../model.timemodel#//@subBlock.0"/>
    <elementRef href="../../model.timemodel#//@subBlock.0/@relations.133"/>
  </references>
  <references xsi:type="trace:ModelElementReference">
    <elementRef href="../../model.timemodel#/"/>
    <elementRef href="../../model.timemodel#//@subBlock.0"/>
    <elementRef href="../../model.timemodel#//@subBlock.0/@relations.56"/>
  </references>
  <references xsi:type="trace:ModelElementReference">
    <elementRef href="../../model.timemodel#/"/>
    <elementRef href="../../model.timemodel#//@subBlock.0"/>
    <elementRef href="../../model.timemodel#//@subBlock.0/@relations.108"/>
  </references>
  <references xsi:type="trace:ModelElementReference">
    <elementRef href="../../model.timemodel#/"/>
    <elementRef href="../../model.timemodel#//@subBlock.0"/>
    <elementRef href="../../model.timemodel#//@subBlock.0/@relations.99"/>
  </references>
  <references xsi:type="trace:ModelElementReference">
    <elementRef href="../../model.timemodel#/"/>
    <elementRef href="../../model.timemodel#//@subBlock.0"/>
    <elementRef href="../../model.timemodel#//@subBlock.0/@relations.109"/>
  </references>
  <references xsi:type="trace:ModelElementReference">
    <elementRef href="../../model.timemodel#/"/>
    <elementRef href="../../model.timemodel#//@subBlock.0"/>
    <elementRef href="../../model.timemodel#//@subBlock.0/@relations.27"/>
  </references>
  <references xsi:type="trace:ModelElementReference">
    <elementRef href="../../model.timemodel#/"/>
    <elementRef href="../../model.timemodel#//@subBlock.0"/>
    <elementRef href="../../model.timemodel#//@subBlock.0/@relations.53"/>
  </references>
  <references xsi:type="trace:ModelElementReference">
    <elementRef href="../../model.timemodel#/"/>
    <elementRef href="../../model.timemodel#//@subBlock.0"/>
    <elementRef href="../../model.timemodel#//@subBlock.0/@relations.155"/>
  </references>
  <references xsi:type="trace:ModelElementReference">
    <elementRef href="../../model.timemodel#/"/>
    <elementRef href="../../model.timemodel#//@subBlock.0"/>
    <elementRef href="../../model.timemodel#//@subBlock.0/@relations.116"/>
  </references>
  <references xsi:type="trace:ModelElementReference">
    <elementRef href="../../model.timemodel#/"/>
    <elementRef href="../../model.timemodel#//@subBlock.0"/>
    <elementRef href="../../model.timemodel#//@subBlock.0/@relations.142"/>
  </references>
  <references xsi:type="trace:ModelElementReference">
    <elementRef href="../../model.timemodel#/"/>
    <elementRef href="../../model.timemodel#//@subBlock.0"/>
    <elementRef href="../../model.timemodel#//@subBlock.0/@relations.3"/>
  </references>
  <references xsi:type="trace:ModelElementReference">
    <elementRef href="../../model.timemodel#/"/>
    <elementRef href="../../model.timemodel#//@subBlock.0"/>
    <elementRef href="../../model.timemodel#//@subBlock.0/@relations.126"/>
  </references>
  <references xsi:type="trace:ModelElementReference">
    <elementRef href="../../model.timemodel#/"/>
    <elementRef href="../../model.timemodel#//@subBlock.0"/>
    <elementRef href="../../model.timemodel#//@subBlock.0/@relations.150"/>
  </references>
  <references xsi:type="trace:ModelElementReference">
    <elementRef href="../../model.timemodel#/"/>
    <elementRef href="../../model.timemodel#//@subBlock.0"/>
    <elementRef href="../../model.timemodel#//@subBlock.0/@relations.149"/>
  </references>
  <references xsi:type="trace:ModelElementReference">
    <elementRef href="../../model.timemodel#/"/>
    <elementRef href="../../model.timemodel#//@subBlock.0"/>
    <elementRef href="../../model.timemodel#//@subBlock.0/@relations.125"/>
  </references>
  <references xsi:type="trace:ModelElementReference">
    <elementRef href="../../model.timemodel#/"/>
    <elementRef href="../../model.timemodel#//@subBlock.0"/>
    <elementRef href="../../model.timemodel#//@subBlock.0/@relations.129"/>
  </references>
  <references xsi:type="trace:ModelElementReference">
    <elementRef href="../../model.timemodel#/"/>
    <elementRef href="../../model.timemodel#//@subBlock.0"/>
    <elementRef href="../../model.timemodel#//@subBlock.0/@relations.34"/>
  </references>
  <references xsi:type="trace:ModelElementReference">
    <elementRef href="../../model.timemodel#/"/>
    <elementRef href="../../model.timemodel#//@subBlock.0"/>
    <elementRef href="../../model.timemodel#//@subBlock.0/@relations.118"/>
  </references>
  <references xsi:type="trace:ModelElementReference">
    <elementRef href="../../model.timemodel#/"/>
    <elementRef href="../../model.timemodel#//@subBlock.0"/>
    <elementRef href="../../model.timemodel#//@subBlock.0/@relations.97"/>
  </references>
  <references xsi:type="trace:ModelElementReference">
    <elementRef href="../../model.timemodel#/"/>
    <elementRef href="../../model.timemodel#//@subBlock.0"/>
    <elementRef href="../../model.timemodel#//@subBlock.0/@relations.124"/>
  </references>
  <references xsi:type="trace:ModelElementReference">
    <elementRef href="../../model.timemodel#/"/>
    <elementRef href="../../model.timemodel#//@subBlock.0"/>
    <elementRef href="../../model.timemodel#//@subBlock.0/@relations.21"/>
  </references>
  <references xsi:type="trace:ModelElementReference">
    <elementRef href="../../model.timemodel#/"/>
    <elementRef href="../../model.timemodel#//@subBlock.0"/>
    <elementRef href="../../model.timemodel#//@subBlock.0/@relations.5"/>
  </references>
  <references xsi:type="trace:ModelElementReference">
    <elementRef href="../../model.timemodel#/"/>
    <elementRef href="../../model.timemodel#//@subBlock.0"/>
    <elementRef href="../../model.timemodel#//@subBlock.0/@relations.54"/>
  </references>
  <references xsi:type="trace:ModelElementReference">
    <elementRef href="../../model.timemodel#/"/>
    <elementRef href="../../model.timemodel#//@subBlock.0"/>
    <elementRef href="../../model.timemodel#//@subBlock.0/@relations.26"/>
  </references>
  <references xsi:type="trace:ModelElementReference">
    <elementRef href="../../model.timemodel#/"/>
    <elementRef href="../../model.timemodel#//@subBlock.0"/>
    <elementRef href="../../model.timemodel#//@subBlock.0/@relations.143"/>
  </references>
  <references xsi:type="trace:ModelElementReference">
    <elementRef href="../../model.timemodel#/"/>
    <elementRef href="../../model.timemodel#//@subBlock.0"/>
    <elementRef href="../../model.timemodel#//@subBlock.0/@relations.106"/>
  </references>
  <references xsi:type="trace:ModelElementReference">
    <elementRef href="../../model.timemodel#/"/>
    <elementRef href="../../model.timemodel#//@subBlock.0"/>
    <elementRef href="../../model.timemodel#//@subBlock.0/@relations.28"/>
  </references>
  <references xsi:type="trace:ModelElementReference">
    <elementRef href="../../model.timemodel#/"/>
    <elementRef href="../../model.timemodel#//@subBlock.0"/>
    <elementRef href="../../model.timemodel#//@subBlock.0/@relations.103"/>
  </references>
  <references xsi:type="trace:ModelElementReference">
    <elementRef href="../../model.timemodel#/"/>
    <elementRef href="../../model.timemodel#//@subBlock.0"/>
    <elementRef href="../../model.timemodel#//@subBlock.0/@relations.1"/>
  </references>
  <references xsi:type="trace:ModelElementReference">
    <elementRef href="../../model.timemodel#/"/>
    <elementRef href="../../model.timemodel#//@subBlock.0"/>
    <elementRef href="../../model.timemodel#//@subBlock.0/@relations.154"/>
  </references>
  <references xsi:type="trace:ModelElementReference">
    <elementRef href="../../model.timemodel#/"/>
    <elementRef href="../../model.timemodel#//@subBlock.0"/>
    <elementRef href="../../model.timemodel#//@subBlock.0/@relations.16"/>
  </references>
  <references xsi:type="trace:ModelElementReference">
    <elementRef href="../../model.timemodel#/"/>
    <elementRef href="../../model.timemodel#//@subBlock.0"/>
    <elementRef href="../../model.timemodel#//@subBlock.0/@relations.23"/>
  </references>
  <references xsi:type="trace:ModelElementReference">
    <elementRef href="../../model.timemodel#/"/>
    <elementRef href="../../model.timemodel#//@subBlock.0"/>
    <elementRef href="../../model.timemodel#//@subBlock.0/@relations.100"/>
  </references>
  <references xsi:type="trace:ModelElementReference">
    <elementRef href="../../model.timemodel#/"/>
    <elementRef href="../../model.timemodel#//@subBlock.0"/>
    <elementRef href="../../model.timemodel#//@subBlock.0/@relations.134"/>
  </references>
  <references xsi:type="trace:ModelElementReference">
    <elementRef href="../../model.timemodel#/"/>
    <elementRef href="../../model.timemodel#//@subBlock.0"/>
    <elementRef href="../../model.timemodel#//@subBlock.0/@relations.148"/>
  </references>
  <references xsi:type="trace:ModelElementReference">
    <elementRef href="../../model.timemodel#/"/>
    <elementRef href="../../model.timemodel#//@subBlock.0"/>
    <elementRef href="../../model.timemodel#//@subBlock.0/@relations.12"/>
  </references>
  <references xsi:type="trace:ModelElementReference">
    <elementRef href="../../model.timemodel#/"/>
    <elementRef href="../../model.timemodel#//@subBlock.0"/>
    <elementRef href="../../model.timemodel#//@subBlock.0/@relations.130"/>
  </references>
  <references xsi:type="trace:ModelElementReference">
    <elementRef href="../../model.timemodel#/"/>
    <elementRef href="../../model.timemodel#//@subBlock.0"/>
    <elementRef href="../../model.timemodel#//@subBlock.0/@relations.29"/>
  </references>
  <references xsi:type="trace:ModelElementReference">
    <elementRef href="../../model.timemodel#/"/>
    <elementRef href="../../model.timemodel#//@subBlock.0"/>
    <elementRef href="../../model.timemodel#//@subBlock.0/@relations.153"/>
  </references>
  <references xsi:type="trace:ModelElementReference">
    <elementRef href="../../model.timemodel#/"/>
    <elementRef href="../../model.timemodel#//@subBlock.0"/>
    <elementRef href="../../model.timemodel#//@subBlock.0/@relations.2"/>
  </references>
  <references xsi:type="trace:ModelElementReference">
    <elementRef href="../../model.timemodel#/"/>
    <elementRef href="../../model.timemodel#//@subBlock.0"/>
    <elementRef href="../../model.timemodel#//@subBlock.0/@relations.128"/>
  </references>
  <references xsi:type="trace:ModelElementReference">
    <elementRef href="../../model.timemodel#/"/>
    <elementRef href="../../model.timemodel#//@subBlock.0"/>
    <elementRef href="../../model.timemodel#//@subBlock.0/@relations.31"/>
  </references>
</trace:Trace>
