$date 
Sun Jun 04 18:59:15 CEST 2017
$end

$version 
VCD Generation 2.1.0
$end

$comment hide DelayFor_defer $end
$comment scale 0.1  $end
$comment relation   "model2017_0604_185914.ccslrelationmodel" $end
$comment xmi  req_emcyBraking_13_taskStart "model2017_0604_185914.trace#//@references.0" $end
$comment xmi  comCon_6_acquireCon "model2017_0604_185914.trace#//@references.1" $end
$comment xmi  emcyBraking_3_objSysReceive "model2017_0604_185914.trace#//@references.2" $end
$comment xmi  enableBraking_1_objSysConsume "model2017_0604_185914.trace#//@references.3" $end
$comment xmi  obstacle_2_objSysReceive "model2017_0604_185914.trace#//@references.4" $end
$comment xmi  req_emcyBrakeWarning_12_receive "model2017_0604_185914.trace#//@references.5" $end
$comment xmi  req_emcyBraking_13_taskComplete "model2017_0604_185914.trace#//@references.6" $end
$comment xmi  req_emcyBraking_13_consume "model2017_0604_185914.trace#//@references.7" $end
$comment xmi  emcyBraking_3_objSysTaskStart "model2017_0604_185914.trace#//@references.8" $end
$comment xmi  emcyBraking_3_objSysConsume "model2017_0604_185914.trace#//@references.9" $end
$comment xmi  PU2_8_dispatch "model2017_0604_185914.trace#//@references.10" $end
$comment xmi  req_obstacle_9_taskComplete "model2017_0604_185914.trace#//@references.11" $end
$comment xmi  neighborTbl_5_acquireRes "model2017_0604_185914.trace#//@references.12" $end
$comment xmi  req_emcyBrakeWarning_12_taskStart "model2017_0604_185914.trace#//@references.13" $end
$comment xmi  emcyBrakeWarning_4_objSysSend "model2017_0604_185914.trace#//@references.14" $end
$comment xmi  enableBraking_1_objSysReceive "model2017_0604_185914.trace#//@references.15" $end
$comment xmi  req_enableBraking_11_send "model2017_0604_185914.trace#//@references.16" $end
$comment xmi  req_emcyBraking_13_receive "model2017_0604_185914.trace#//@references.17" $end
$comment xmi  assumption_obstacle_10_send "model2017_0604_185914.trace#//@references.18" $end
$comment xmi  req_emcyBraking_13_send "model2017_0604_185914.trace#//@references.19" $end
$comment xmi  req_emcyBrakeWarning_12_taskComplete "model2017_0604_185914.trace#//@references.20" $end
$comment xmi  PU1_7_dispatch "model2017_0604_185914.trace#//@references.21" $end
$comment xmi  req_obstacle_9_send "model2017_0604_185914.trace#//@references.22" $end
$comment xmi  assumption_obstacle_10_taskStart "model2017_0604_185914.trace#//@references.23" $end
$comment xmi  enableBraking_1_oneEvent "model2017_0604_185914.trace#//@references.24" $end
$comment xmi  emcyBraking_3_oneEvent "model2017_0604_185914.trace#//@references.25" $end
$comment xmi  emcyBrakeWarning_4_objSysTaskStart "model2017_0604_185914.trace#//@references.26" $end
$comment xmi  emcyBraking_3_objSysSend "model2017_0604_185914.trace#//@references.27" $end
$comment xmi  req_enableBraking_11_taskStart "model2017_0604_185914.trace#//@references.28" $end
$comment xmi  req_obstacle_9_receive "model2017_0604_185914.trace#//@references.29" $end
$comment xmi  req_obstacle_9_taskStart "model2017_0604_185914.trace#//@references.30" $end
$comment xmi  enableBraking_1_objSysTaskComplete "model2017_0604_185914.trace#//@references.31" $end
$comment xmi  emcyBrakeWarning_4_oneEvent "model2017_0604_185914.trace#//@references.32" $end
$comment xmi  req_obstacle_9_consume "model2017_0604_185914.trace#//@references.33" $end
$comment xmi  emcyBrakeWarning_4_objSysReceive "model2017_0604_185914.trace#//@references.34" $end
$comment xmi  req_enableBraking_11_taskComplete "model2017_0604_185914.trace#//@references.35" $end
$comment xmi  req_emcyBrakeWarning_12_send "model2017_0604_185914.trace#//@references.36" $end
$comment xmi  emcyBrakeWarning_4_objSysConsume "model2017_0604_185914.trace#//@references.37" $end
$comment xmi  obstacle_2_oneEvent "model2017_0604_185914.trace#//@references.38" $end
$comment xmi  req_emcyBrakeWarning_12_consume "model2017_0604_185914.trace#//@references.39" $end
$comment xmi  enableBraking_1_objSysSend "model2017_0604_185914.trace#//@references.40" $end
$comment xmi  obstacle_2_objSysSend "model2017_0604_185914.trace#//@references.41" $end
$comment xmi  assumption_obstacle_10_consume "model2017_0604_185914.trace#//@references.42" $end
$comment xmi  assumption_obstacle_10_receive "model2017_0604_185914.trace#//@references.43" $end
$comment xmi  obstacle_2_objSysConsume "model2017_0604_185914.trace#//@references.44" $end
$comment xmi  MSDSpec_0_globalTime "model2017_0604_185914.trace#//@references.45" $end
$comment xmi  emcyBraking_3_objSysTaskComplete "model2017_0604_185914.trace#//@references.46" $end
$comment xmi  enableBraking_1_objSysTaskStart "model2017_0604_185914.trace#//@references.47" $end
$comment xmi  emcyBrakeWarning_4_objSysTaskComplete "model2017_0604_185914.trace#//@references.48" $end
$comment xmi  req_enableBraking_11_consume "model2017_0604_185914.trace#//@references.49" $end
$comment xmi  obstacle_2_objSysTaskStart "model2017_0604_185914.trace#//@references.50" $end
$comment xmi  obstacle_2_objSysTaskComplete "model2017_0604_185914.trace#//@references.51" $end
$comment xmi  req_enableBraking_11_receive "model2017_0604_185914.trace#//@references.52" $end
$comment xmi  assumption_obstacle_10_taskComplete "model2017_0604_185914.trace#//@references.53" $end
$comment xmi  enableBraking_1_DelayFor_receiveDelayedByMin "model2017_0604_185914.trace#//@references.54" $end
$comment xmi  emcyBrakeWarning_4_DelayFor_sendDelayedByMax_e2e "model2017_0604_185914.trace#//@references.55" $end
$comment xmi  enableBraking_1_DelayFor_taskStartDelayedByMax "model2017_0604_185914.trace#//@references.56" $end
$comment xmi  comCon_6intermediate_receiveEvts1 "model2017_0604_185914.trace#//@references.57" $end
$comment xmi  obstacle_2intermediate_oneRelConsumeClock1 "model2017_0604_185914.trace#//@references.58" $end
$comment xmi  obstacle_2_Union_unionEvts "model2017_0604_185914.trace#//@references.59" $end
$comment xmi  PU2_8intermediate_relTaskStarts1 "model2017_0604_185914.trace#//@references.60" $end
$comment xmi  req_obstacle_9intermediate_deactivate51 "model2017_0604_185914.trace#//@references.62" $end
$comment xmi  enableBraking_1intermediate_oneRelTaskCompleteClock1 "model2017_0604_185914.trace#//@references.63" $end
$comment xmi  obstacle_2intermediate_oneRelSendClock1 "model2017_0604_185914.trace#//@references.64" $end
$comment xmi  timeConstraint_26_DelayFor_stimulusDelayedExpression_e2e_sE_s "model2017_0604_185914.trace#//@references.65" $end
$comment xmi  PU1_7intermediate_relTaskComplete1 "model2017_0604_185914.trace#//@references.66" $end
$comment xmi  emcyBraking_3intermediate_oneRelReceiveClock1 "model2017_0604_185914.trace#//@references.67" $end
$comment xmi  emcyBrakeWarning_4_DelayFor_sendDelayedByMin_e2e "model2017_0604_185914.trace#//@references.68" $end
$comment xmi  obstacle_2intermediate_oneRelTaskStartClock1 "model2017_0604_185914.trace#//@references.69" $end
$comment xmi  DelayFor_defer "model2017_0604_185914.trace#//@references.70" $end
$comment xmi  emcyBrakeWarning_4intermediate_oneRelReceiveClock1 "model2017_0604_185914.trace#//@references.71" $end
$comment xmi  emcyBraking_3intermediate_oneRelTaskCompleteClock1 "model2017_0604_185914.trace#//@references.72" $end
$comment xmi  EmcyBrakeTriggeringLeadingVehicle_28intermediate_oneAssumptionMsgSend1 "model2017_0604_185914.trace#//@references.73" $end
$comment xmi  neighborTbl_5intermediate_taskCompleteEvts1 "model2017_0604_185914.trace#//@references.74" $end
$comment xmi  req_obstacle_9intermediate_deactivate41 "model2017_0604_185914.trace#//@references.75" $end
$comment xmi  timeConstraint_26intermediate_constrainedTaskCompletions_upperE_s1 "model2017_0604_185914.trace#//@references.77" $end
$comment xmi  req_obstacle_9intermediate_deactivate3 "model2017_0604_185914.trace#//@references.78" $end
$comment xmi  emcyBraking_3_DelayFor_sendDelayedByMin_e2e "model2017_0604_185914.trace#//@references.79" $end
$comment xmi  obstacle_2_DelayFor_taskStartDelayedByMax "model2017_0604_185914.trace#//@references.80" $end
$comment xmi  enableBraking_1_DelayFor_receiveDelayedByMax "model2017_0604_185914.trace#//@references.81" $end
$comment xmi  enableBraking_1_DelayFor_sendDelayedByMin "model2017_0604_185914.trace#//@references.83" $end
$comment xmi  PU1_7intermediate_relTaskStarts1 "model2017_0604_185914.trace#//@references.84" $end
$comment xmi  emcyBraking_3_DelayFor_sendDelayedByMax_e2e "model2017_0604_185914.trace#//@references.85" $end
$comment xmi  enableBraking_1_DelayFor_taskStartDelayedByMin "model2017_0604_185914.trace#//@references.86" $end
$comment xmi  enableBraking_1_Union_unionEvts "model2017_0604_185914.trace#//@references.87" $end
$comment xmi  comCon_6intermediate_lu_sendEvts1 "model2017_0604_185914.trace#//@references.88" $end
$comment xmi  emcyBraking_3_Union_unionEvts "model2017_0604_185914.trace#//@references.89" $end
$comment xmi  PU2_8intermediate_relTaskComplete1 "model2017_0604_185914.trace#//@references.90" $end
$comment xmi  emcyBrakeWarning_4intermediate_oneRelSendClock1 "model2017_0604_185914.trace#//@references.91" $end
$comment xmi  req_obstacle_9intermediate_deactivate1 "model2017_0604_185914.trace#//@references.93" $end
$comment xmi  emcyBrakeWarning_4_Union_unionEvts "model2017_0604_185914.trace#//@references.95" $end
$comment xmi  enableBraking_1intermediate_oneRelSendClock1 "model2017_0604_185914.trace#//@references.96" $end
$comment xmi  obstacle_2intermediate_acquireAllResources1 "model2017_0604_185914.trace#//@references.97" $end
$comment xmi  emcyBraking_3intermediate_oneRelSendClock1 "model2017_0604_185914.trace#//@references.98" $end
$comment xmi  emcyBrakeWarning_4intermediate_oneRelConsumeClock1 "model2017_0604_185914.trace#//@references.102" $end
$comment xmi  enableBraking_1intermediate_oneRelTaskStartClock1 "model2017_0604_185914.trace#//@references.103" $end
$comment xmi  emcyBraking_3intermediate_oneRelTaskStartClock1 "model2017_0604_185914.trace#//@references.104" $end
$comment xmi  enableBraking_1_DelayFor_sendDelayedByMax "model2017_0604_185914.trace#//@references.105" $end
$comment xmi  enableBraking_1intermediate_oneRelConsumeClock1 "model2017_0604_185914.trace#//@references.106" $end
$comment xmi  emcyBrakeWarning_4intermediate_oneRelTaskStartClock1 "model2017_0604_185914.trace#//@references.108" $end
$comment xmi  obstacle_2intermediate_oneRelTaskCompleteClock1 "model2017_0604_185914.trace#//@references.109" $end
$comment xmi  timeConstraint_26intermediate_activationTaskCompletions_upperE_s1 "model2017_0604_185914.trace#//@references.110" $end
$comment xmi  req_obstacle_9intermediate_deactivate43 "model2017_0604_185914.trace#//@references.111" $end
$comment xmi  req_obstacle_9intermediate_deactivate33 "model2017_0604_185914.trace#//@references.112" $end
$comment xmi  neighborTbl_5intermediate_startTaskEvts1 "model2017_0604_185914.trace#//@references.113" $end
$comment xmi  req_obstacle_9intermediate_deactivate31 "model2017_0604_185914.trace#//@references.114" $end
$comment xmi  obstacle_2intermediate_oneRelReceiveClock1 "model2017_0604_185914.trace#//@references.115" $end
$comment xmi  emcyBraking_3intermediate_oneRelConsumeClock1 "model2017_0604_185914.trace#//@references.116" $end
$comment xmi  emcyBrakeWarning_4intermediate_oneRelTaskCompleteClock1 "model2017_0604_185914.trace#//@references.117" $end
$comment xmi  req_obstacle_9intermediate_deactivate21 "model2017_0604_185914.trace#//@references.118" $end
$comment xmi  req_obstacle_9intermediate_deactivate53 "model2017_0604_185914.trace#//@references.120" $end
$comment xmi  obstacle_2_DelayFor_taskStartDelayedByMin "model2017_0604_185914.trace#//@references.121" $end
$comment xmi  timeConstraint_26intermediate_constrainedTaskCompletions_upperE_s3 "model2017_0604_185914.trace#//@references.122" $end
$comment xmi  enableBraking_1intermediate_oneRelReceiveClock1 "model2017_0604_185914.trace#//@references.124" $end
$comment xmi  req_obstacle_9intermediate_deactivate23 "model2017_0604_185914.trace#//@references.126" $end
$scope module top $end
$var event 1 !1 DelayFor_defer $end
$var event 1 !2 EmcyBrakeTriggeringLeadingVehicle_28intermediate_oneAssumptionMsgSend1 $end
$var event 1 !3 MSDSpec_0_globalTime $end
$var event 1 !4 PU1_7_dispatch $end
$var event 1 !5 PU1_7intermediate_relTaskComplete1 $end
$var event 1 !6 PU1_7intermediate_relTaskStarts1 $end
$var event 1 !7 PU2_8_dispatch $end
$var event 1 !8 PU2_8intermediate_relTaskComplete1 $end
$var event 1 !9 PU2_8intermediate_relTaskStarts1 $end
$var event 1 !10 assumption_obstacle_10_consume $end
$var event 1 !11 assumption_obstacle_10_receive $end
$var event 1 !12 assumption_obstacle_10_send $end
$var event 1 !13 assumption_obstacle_10_taskComplete $end
$var event 1 !14 assumption_obstacle_10_taskStart $end
$var event 1 !15 comCon_6_acquireCon $end
$var event 1 !16 comCon_6intermediate_lu_sendEvts1 $end
$var event 1 !17 comCon_6intermediate_receiveEvts1 $end
$var event 1 !18 emcyBrakeWarning_4_DelayFor_sendDelayedByMax_e2e $end
$var event 1 !19 emcyBrakeWarning_4_DelayFor_sendDelayedByMin_e2e $end
$var event 1 !20 emcyBrakeWarning_4_Union_unionEvts $end
$var event 1 !21 emcyBrakeWarning_4_objSysConsume $end
$var event 1 !22 emcyBrakeWarning_4_objSysReceive $end
$var event 1 !23 emcyBrakeWarning_4_objSysSend $end
$var event 1 !24 emcyBrakeWarning_4_objSysTaskComplete $end
$var event 1 !25 emcyBrakeWarning_4_objSysTaskStart $end
$var event 1 !26 emcyBrakeWarning_4_oneEvent $end
$var event 1 !27 emcyBrakeWarning_4intermediate_oneRelConsumeClock1 $end
$var event 1 !28 emcyBrakeWarning_4intermediate_oneRelReceiveClock1 $end
$var event 1 !29 emcyBrakeWarning_4intermediate_oneRelSendClock1 $end
$var event 1 !30 emcyBrakeWarning_4intermediate_oneRelTaskCompleteClock1 $end
$var event 1 !31 emcyBrakeWarning_4intermediate_oneRelTaskStartClock1 $end
$var event 1 !32 emcyBraking_3_DelayFor_sendDelayedByMax_e2e $end
$var event 1 !33 emcyBraking_3_DelayFor_sendDelayedByMin_e2e $end
$var event 1 !34 emcyBraking_3_Union_unionEvts $end
$var event 1 !35 emcyBraking_3_objSysConsume $end
$var event 1 !36 emcyBraking_3_objSysReceive $end
$var event 1 !37 emcyBraking_3_objSysSend $end
$var event 1 !38 emcyBraking_3_objSysTaskComplete $end
$var event 1 !39 emcyBraking_3_objSysTaskStart $end
$var event 1 !40 emcyBraking_3_oneEvent $end
$var event 1 !41 emcyBraking_3intermediate_oneRelConsumeClock1 $end
$var event 1 !42 emcyBraking_3intermediate_oneRelReceiveClock1 $end
$var event 1 !43 emcyBraking_3intermediate_oneRelSendClock1 $end
$var event 1 !44 emcyBraking_3intermediate_oneRelTaskCompleteClock1 $end
$var event 1 !45 emcyBraking_3intermediate_oneRelTaskStartClock1 $end
$var event 1 !46 enableBraking_1_DelayFor_receiveDelayedByMax $end
$var event 1 !47 enableBraking_1_DelayFor_receiveDelayedByMin $end
$var event 1 !48 enableBraking_1_DelayFor_sendDelayedByMax $end
$var event 1 !49 enableBraking_1_DelayFor_sendDelayedByMin $end
$var event 1 !50 enableBraking_1_DelayFor_taskStartDelayedByMax $end
$var event 1 !51 enableBraking_1_DelayFor_taskStartDelayedByMin $end
$var event 1 !52 enableBraking_1_Union_unionEvts $end
$var event 1 !53 enableBraking_1_objSysConsume $end
$var event 1 !54 enableBraking_1_objSysReceive $end
$var event 1 !55 enableBraking_1_objSysSend $end
$var event 1 !56 enableBraking_1_objSysTaskComplete $end
$var event 1 !57 enableBraking_1_objSysTaskStart $end
$var event 1 !58 enableBraking_1_oneEvent $end
$var event 1 !59 enableBraking_1intermediate_oneRelConsumeClock1 $end
$var event 1 !60 enableBraking_1intermediate_oneRelReceiveClock1 $end
$var event 1 !61 enableBraking_1intermediate_oneRelSendClock1 $end
$var event 1 !62 enableBraking_1intermediate_oneRelTaskCompleteClock1 $end
$var event 1 !63 enableBraking_1intermediate_oneRelTaskStartClock1 $end
$var event 1 !64 neighborTbl_5_acquireRes $end
$var event 1 !65 neighborTbl_5intermediate_startTaskEvts1 $end
$var event 1 !66 neighborTbl_5intermediate_taskCompleteEvts1 $end
$var event 1 !67 obstacle_2_DelayFor_taskStartDelayedByMax $end
$var event 1 !68 obstacle_2_DelayFor_taskStartDelayedByMin $end
$var event 1 !69 obstacle_2_Union_unionEvts $end
$var event 1 !70 obstacle_2_objSysConsume $end
$var event 1 !71 obstacle_2_objSysReceive $end
$var event 1 !72 obstacle_2_objSysSend $end
$var event 1 !73 obstacle_2_objSysTaskComplete $end
$var event 1 !74 obstacle_2_objSysTaskStart $end
$var event 1 !75 obstacle_2_oneEvent $end
$var event 1 !76 obstacle_2intermediate_acquireAllResources1 $end
$var event 1 !77 obstacle_2intermediate_oneRelConsumeClock1 $end
$var event 1 !78 obstacle_2intermediate_oneRelReceiveClock1 $end
$var event 1 !79 obstacle_2intermediate_oneRelSendClock1 $end
$var event 1 !80 obstacle_2intermediate_oneRelTaskCompleteClock1 $end
$var event 1 !81 obstacle_2intermediate_oneRelTaskStartClock1 $end
$var event 1 !82 req_emcyBrakeWarning_12_consume $end
$var event 1 !83 req_emcyBrakeWarning_12_receive $end
$var event 1 !84 req_emcyBrakeWarning_12_send $end
$var event 1 !85 req_emcyBrakeWarning_12_taskComplete $end
$var event 1 !86 req_emcyBrakeWarning_12_taskStart $end
$var event 1 !87 req_emcyBraking_13_consume $end
$var event 1 !88 req_emcyBraking_13_receive $end
$var event 1 !89 req_emcyBraking_13_send $end
$var event 1 !90 req_emcyBraking_13_taskComplete $end
$var event 1 !91 req_emcyBraking_13_taskStart $end
$var event 1 !92 req_enableBraking_11_consume $end
$var event 1 !93 req_enableBraking_11_receive $end
$var event 1 !94 req_enableBraking_11_send $end
$var event 1 !95 req_enableBraking_11_taskComplete $end
$var event 1 !96 req_enableBraking_11_taskStart $end
$var event 1 !97 req_obstacle_9_consume $end
$var event 1 !98 req_obstacle_9_receive $end
$var event 1 !99 req_obstacle_9_send $end
$var event 1 !100 req_obstacle_9_taskComplete $end
$var event 1 !101 req_obstacle_9_taskStart $end
$var event 1 !102 req_obstacle_9intermediate_deactivate1 $end
$var event 1 !103 req_obstacle_9intermediate_deactivate21 $end
$var event 1 !104 req_obstacle_9intermediate_deactivate23 $end
$var event 1 !105 req_obstacle_9intermediate_deactivate3 $end
$var event 1 !106 req_obstacle_9intermediate_deactivate31 $end
$var event 1 !107 req_obstacle_9intermediate_deactivate33 $end
$var event 1 !108 req_obstacle_9intermediate_deactivate41 $end
$var event 1 !109 req_obstacle_9intermediate_deactivate43 $end
$var event 1 !110 req_obstacle_9intermediate_deactivate51 $end
$var event 1 !111 req_obstacle_9intermediate_deactivate53 $end
$var event 1 !112 timeConstraint_26_DelayFor_stimulusDelayedExpression_e2e_sE_s $end
$var event 1 !113 timeConstraint_26intermediate_activationTaskCompletions_upperE_s1 $end
$var event 1 !114 timeConstraint_26intermediate_constrainedTaskCompletions_upperE_s1 $end
$var event 1 !115 timeConstraint_26intermediate_constrainedTaskCompletions_upperE_s3 $end
$upscope $end
$enddefinitions $end

#0
1!3
#10
1!3
#20
1!3
#30
1!3
#40
1!3
#50
1!3
#60
1!3
#70
1!3
#80
1!3
#90
1!3
#100
1!3
#110
1!3
#120
1!3
#130
1!3
#140
1!3
#150
1!3
#160
1!3
#170
1!3
#180
1!3
#190
1!3
#200
1!3
#210
1!3
#220
1!3
#230
1!3
#240
1!3
#250
1!3
#260
1!3
#270
1!3
#280
1!3
#290
1!3
#300
1!3
#310
z!1
z!2
z!3
z!4
z!5
z!6
z!7
z!8
z!9
z!10
z!11
z!12
z!13
z!14
z!15
z!16
z!17
z!18
z!19
z!20
z!21
z!22
z!23
z!24
z!25
z!26
z!27
z!28
z!29
z!30
z!31
z!32
z!33
z!34
z!35
z!36
z!37
z!38
z!39
z!40
z!41
z!42
z!43
z!44
z!45
z!46
z!47
z!48
z!49
z!50
z!51
z!52
z!53
z!54
z!55
z!56
z!57
z!58
z!59
z!60
z!61
z!62
z!63
z!64
z!65
z!66
z!67
z!68
z!69
z!70
z!71
z!72
z!73
z!74
z!75
z!76
z!77
z!78
z!79
z!80
z!81
z!82
z!83
z!84
z!85
z!86
z!87
z!88
z!89
z!90
z!91
z!92
z!93
z!94
z!95
z!96
z!97
z!98
z!99
z!100
z!101
z!102
z!103
z!104
z!105
z!106
z!107
z!108
z!109
z!110
z!111
z!112
z!113
z!114
z!115
