$date
Sat Apr 28 14:04:55 CEST 2018
$end
$version
VCD Generation 2.1.0
$end
$scope module top $end
$var event 1 !1 globalTime $end
$var event 1 !2 resAccess_PU_ECU1 $end
$var event 1 !3 resRelease_PU_ECU1 $end
$var event 1 !4 resAccess_PU_ECU2 $end
$var event 1 !5 resRelease_PU_ECU2 $end
$var event 1 !6 resAccess_comConnection $end
$var event 1 !7 resRelease_comConnection $end
$var event 1 !8 resAccess_Connector1 $end
$var event 1 !9 resRelease_Connector1 $end
$var event 1 !10 resAccess_sharedMem $end
$var event 1 !11 resRelease_sharedMem $end
$var event 1 !12 resAccess_neighborTbl $end
$var event 1 !13 resRelease_neighborTbl $end
$var event 1 !14 resAccess_BrakeActuator $end
$var event 1 !15 resRelease_BrakeActuator $end
$var event 1 !16 resAccess_PU_ECU3 $end
$var event 1 !17 resRelease_PU_ECU3 $end
$upscope $end
$enddefinitions $end
#1
1!1
0!2
0!3
0!4
0!5
0!6
0!7
0!8
0!9
0!10
0!11
0!12
0!13
0!14
0!15
0!16
0!17
#2
1!1
0!2
0!3
0!4
0!5
0!6
0!7
0!8
0!9
0!10
0!11
0!12
0!13
0!14
0!15
0!16
0!17
#3
1!1
0!2
0!3
0!4
0!5
0!6
0!7
0!8
0!9
0!10
0!11
0!12
0!13
0!14
0!15
0!16
0!17
#4
1!1
0!2
0!3
0!4
0!5
0!6
0!7
0!8
0!9
0!10
0!11
0!12
0!13
0!14
0!15
0!16
0!17
#5
1!1
0!2
0!3
0!4
0!5
0!6
0!7
0!8
0!9
0!10
0!11
0!12
0!13
0!14
0!15
0!16
0!17
#6
1!1
0!2
0!3
0!4
0!5
0!6
0!7
0!8
0!9
0!10
0!11
0!12
0!13
0!14
0!15
0!16
0!17
#7
1!1
0!2
0!3
0!4
0!5
0!6
0!7
0!8
0!9
0!10
0!11
0!12
0!13
0!14
0!15
0!16
0!17
#8
1!1
0!2
0!3
0!4
0!5
0!6
0!7
0!8
0!9
0!10
0!11
0!12
0!13
0!14
0!15
0!16
0!17
#9
1!1
0!2
0!3
0!4
0!5
0!6
0!7
0!8
0!9
0!10
0!11
0!12
0!13
0!14
0!15
0!16
0!17
#10
1!1
0!2
0!3
0!4
0!5
0!6
0!7
0!8
0!9
0!10
0!11
0!12
0!13
0!14
0!15
0!16
0!17
#11
1!1
0!2
0!3
0!4
0!5
0!6
0!7
0!8
0!9
0!10
0!11
0!12
0!13
0!14
0!15
0!16
0!17
#12
1!1
0!2
0!3
0!4
0!5
0!6
0!7
0!8
0!9
0!10
0!11
0!12
0!13
0!14
0!15
0!16
0!17
#13
1!1
0!2
0!3
0!4
0!5
0!6
0!7
0!8
0!9
0!10
0!11
0!12
0!13
0!14
0!15
0!16
0!17
#14
1!1
0!2
0!3
0!4
0!5
0!6
0!7
0!8
0!9
0!10
0!11
0!12
0!13
0!14
0!15
0!16
0!17
#15
1!1
0!2
0!3
0!4
0!5
0!6
0!7
0!8
0!9
0!10
0!11
0!12
0!13
0!14
0!15
0!16
0!17
#16
1!1
0!2
0!3
0!4
0!5
0!6
0!7
0!8
0!9
0!10
0!11
0!12
0!13
0!14
0!15
0!16
0!17
#17
1!1
0!2
0!3
0!4
0!5
0!6
0!7
0!8
0!9
0!10
0!11
0!12
0!13
0!14
0!15
0!16
0!17
#18
1!1
0!2
0!3
0!4
0!5
0!6
0!7
0!8
0!9
0!10
0!11
0!12
0!13
0!14
0!15
0!16
0!17
#19
1!1
0!2
0!3
0!4
0!5
0!6
0!7
0!8
0!9
0!10
0!11
0!12
0!13
0!14
0!15
0!16
0!17
#20
1!1
0!2
0!3
0!4
0!5
0!6
0!7
0!8
0!9
0!10
0!11
0!12
0!13
0!14
0!15
0!16
0!17
#21
1!1
0!2
0!3
0!4
0!5
0!6
0!7
0!8
0!9
0!10
0!11
0!12
0!13
0!14
0!15
0!16
0!17
#22
1!1
0!2
0!3
0!4
0!5
0!6
0!7
0!8
0!9
0!10
0!11
0!12
0!13
0!14
0!15
0!16
0!17
#23
1!1
0!2
0!3
0!4
0!5
0!6
0!7
0!8
0!9
0!10
0!11
0!12
0!13
0!14
0!15
0!16
0!17
#24
1!1
0!2
0!3
0!4
0!5
0!6
0!7
0!8
0!9
0!10
0!11
0!12
0!13
0!14
0!15
0!16
0!17
#25
1!1
0!2
0!3
0!4
0!5
0!6
0!7
0!8
0!9
0!10
0!11
0!12
0!13
0!14
0!15
0!16
0!17
#26
1!1
0!2
0!3
0!4
0!5
0!6
0!7
0!8
0!9
0!10
0!11
0!12
0!13
0!14
0!15
0!16
0!17
#27
1!1
0!2
0!3
0!4
0!5
0!6
0!7
0!8
0!9
0!10
0!11
0!12
0!13
0!14
0!15
0!16
0!17
#28
1!1
0!2
0!3
0!4
0!5
0!6
0!7
0!8
0!9
0!10
0!11
0!12
0!13
0!14
0!15
0!16
0!17
#29
1!1
0!2
0!3
0!4
0!5
0!6
0!7
0!8
0!9
0!10
0!11
0!12
0!13
0!14
0!15
0!16
0!17
#30
1!1
0!2
0!3
0!4
0!5
0!6
0!7
0!8
0!9
0!10
0!11
0!12
0!13
0!14
0!15
0!16
0!17
#31
1!1
0!2
0!3
0!4
0!5
0!6
0!7
0!8
0!9
0!10
0!11
0!12
0!13
0!14
0!15
0!16
0!17
#32
1!1
0!2
0!3
0!4
0!5
0!6
0!7
0!8
0!9
0!10
0!11
0!12
0!13
0!14
0!15
0!16
0!17
#33
1!1
0!2
0!3
0!4
0!5
0!6
0!7
0!8
0!9
0!10
0!11
0!12
0!13
0!14
0!15
0!16
0!17
#34
1!1
0!2
0!3
0!4
0!5
0!6
0!7
0!8
0!9
0!10
0!11
0!12
0!13
0!14
0!15
0!16
0!17
#35
1!1
0!2
0!3
0!4
0!5
0!6
0!7
0!8
0!9
0!10
0!11
0!12
0!13
0!14
0!15
0!16
0!17
#36
1!1
0!2
0!3
0!4
0!5
0!6
0!7
0!8
0!9
0!10
0!11
0!12
0!13
0!14
0!15
0!16
0!17
#37
1!1
0!2
0!3
0!4
0!5
0!6
0!7
0!8
0!9
0!10
0!11
0!12
0!13
0!14
0!15
0!16
0!17
#38
1!1
0!2
0!3
0!4
0!5
0!6
0!7
0!8
0!9
0!10
0!11
0!12
0!13
0!14
0!15
0!16
0!17
#39
1!1
0!2
0!3
0!4
0!5
0!6
0!7
0!8
0!9
0!10
0!11
0!12
0!13
0!14
0!15
0!16
0!17
#40
1!1
0!2
0!3
0!4
0!5
0!6
0!7
0!8
0!9
0!10
0!11
0!12
0!13
0!14
0!15
0!16
0!17
#41
1!1
0!2
0!3
0!4
0!5
0!6
0!7
0!8
0!9
0!10
0!11
0!12
0!13
0!14
0!15
0!16
0!17
#42
1!1
0!2
0!3
0!4
0!5
0!6
0!7
0!8
0!9
0!10
0!11
0!12
0!13
0!14
0!15
0!16
0!17
#43
1!1
0!2
0!3
0!4
0!5
0!6
0!7
0!8
0!9
0!10
0!11
0!12
0!13
0!14
0!15
0!16
0!17
#44
1!1
0!2
0!3
0!4
0!5
0!6
0!7
0!8
0!9
0!10
0!11
0!12
0!13
0!14
0!15
0!16
0!17
#45
1!1
0!2
0!3
0!4
0!5
0!6
0!7
0!8
0!9
0!10
0!11
0!12
0!13
0!14
0!15
0!16
0!17
#46
1!1
0!2
0!3
0!4
0!5
0!6
0!7
0!8
0!9
0!10
0!11
0!12
0!13
0!14
0!15
0!16
0!17
#47
1!1
0!2
0!3
0!4
0!5
0!6
0!7
0!8
0!9
0!10
0!11
0!12
0!13
0!14
0!15
0!16
0!17
#48
1!1
0!2
0!3
0!4
0!5
0!6
0!7
0!8
0!9
0!10
0!11
0!12
0!13
0!14
0!15
0!16
0!17
#49
1!1
0!2
0!3
0!4
0!5
0!6
0!7
0!8
0!9
0!10
0!11
0!12
0!13
0!14
0!15
0!16
0!17
#50
1!1
0!2
0!3
0!4
0!5
0!6
0!7
0!8
0!9
0!10
0!11
0!12
0!13
0!14
0!15
0!16
0!17
#51
1!1
0!2
0!3
0!4
0!5
0!6
0!7
0!8
0!9
0!10
0!11
0!12
0!13
0!14
0!15
0!16
0!17
#52
1!1
0!2
0!3
0!4
0!5
0!6
0!7
0!8
0!9
0!10
0!11
0!12
0!13
0!14
0!15
0!16
0!17
#53
1!1
0!2
0!3
0!4
0!5
0!6
0!7
0!8
0!9
0!10
0!11
0!12
0!13
0!14
0!15
0!16
0!17
#54
1!1
0!2
0!3
0!4
0!5
0!6
0!7
0!8
0!9
0!10
0!11
0!12
0!13
0!14
0!15
0!16
0!17
#55
1!1
0!2
0!3
0!4
0!5
0!6
0!7
0!8
0!9
0!10
0!11
0!12
0!13
0!14
0!15
0!16
0!17
#56
1!1
0!2
0!3
0!4
0!5
0!6
0!7
0!8
0!9
0!10
0!11
0!12
0!13
0!14
0!15
0!16
0!17
#57
1!1
0!2
0!3
0!4
0!5
0!6
0!7
0!8
0!9
0!10
0!11
0!12
0!13
0!14
0!15
0!16
0!17
#58
1!1
0!2
0!3
0!4
0!5
0!6
0!7
0!8
0!9
0!10
0!11
0!12
0!13
0!14
0!15
0!16
0!17
#59
1!1
0!2
0!3
0!4
0!5
0!6
0!7
0!8
0!9
0!10
0!11
0!12
0!13
0!14
0!15
0!16
0!17
#60
1!1
0!2
0!3
0!4
0!5
0!6
0!7
0!8
0!9
0!10
0!11
0!12
0!13
0!14
0!15
0!16
0!17
#61
1!1
0!2
0!3
0!4
0!5
0!6
0!7
0!8
0!9
0!10
0!11
0!12
0!13
0!14
0!15
0!16
0!17
#62
1!1
0!2
0!3
0!4
0!5
0!6
0!7
0!8
0!9
0!10
0!11
0!12
0!13
0!14
0!15
0!16
0!17
#63
1!1
0!2
0!3
0!4
0!5
0!6
0!7
0!8
0!9
0!10
0!11
0!12
0!13
0!14
0!15
0!16
0!17
#64
1!1
0!2
0!3
0!4
0!5
0!6
0!7
0!8
0!9
0!10
0!11
0!12
0!13
0!14
0!15
0!16
0!17
#65
1!1
0!2
0!3
0!4
0!5
0!6
0!7
0!8
0!9
0!10
0!11
0!12
0!13
0!14
0!15
0!16
0!17
#66
1!1
0!2
0!3
0!4
0!5
0!6
0!7
0!8
0!9
0!10
0!11
0!12
0!13
0!14
0!15
0!16
0!17
#67
1!1
0!2
0!3
0!4
0!5
0!6
0!7
0!8
0!9
0!10
0!11
0!12
0!13
0!14
0!15
0!16
0!17
#68
1!1
0!2
0!3
0!4
0!5
0!6
0!7
0!8
0!9
0!10
0!11
0!12
0!13
0!14
0!15
0!16
0!17
#69
1!1
0!2
0!3
0!4
0!5
0!6
0!7
0!8
0!9
0!10
0!11
0!12
0!13
0!14
0!15
0!16
0!17
#70
1!1
0!2
0!3
0!4
0!5
0!6
0!7
0!8
0!9
0!10
0!11
0!12
0!13
0!14
0!15
0!16
0!17
#71
1!1
0!2
0!3
0!4
0!5
0!6
0!7
0!8
0!9
0!10
0!11
0!12
0!13
0!14
0!15
0!16
0!17
#72
1!1
0!2
0!3
0!4
0!5
0!6
0!7
0!8
0!9
0!10
0!11
0!12
0!13
0!14
0!15
0!16
0!17
#73
1!1
0!2
0!3
0!4
0!5
0!6
0!7
0!8
0!9
0!10
0!11
0!12
0!13
0!14
0!15
0!16
0!17
#74
1!1
0!2
0!3
0!4
0!5
0!6
0!7
0!8
0!9
0!10
0!11
0!12
0!13
0!14
0!15
0!16
0!17
#75
1!1
0!2
0!3
0!4
0!5
0!6
0!7
0!8
0!9
0!10
0!11
0!12
0!13
0!14
0!15
0!16
0!17
#76
1!1
0!2
0!3
0!4
0!5
0!6
0!7
0!8
0!9
0!10
0!11
0!12
0!13
0!14
0!15
0!16
0!17
#77
1!1
0!2
0!3
0!4
0!5
0!6
0!7
0!8
0!9
0!10
0!11
0!12
0!13
0!14
0!15
0!16
0!17
#78
1!1
0!2
0!3
0!4
0!5
0!6
0!7
0!8
0!9
0!10
0!11
0!12
0!13
0!14
0!15
0!16
0!17
#79
1!1
0!2
0!3
0!4
0!5
0!6
0!7
0!8
0!9
0!10
0!11
0!12
0!13
0!14
0!15
0!16
0!17
#80
1!1
0!2
0!3
0!4
0!5
0!6
0!7
0!8
0!9
0!10
0!11
0!12
0!13
0!14
0!15
0!16
0!17
#81
1!1
0!2
0!3
0!4
0!5
0!6
0!7
0!8
0!9
0!10
0!11
0!12
0!13
0!14
0!15
0!16
0!17
#82
1!1
0!2
0!3
0!4
0!5
0!6
0!7
0!8
0!9
0!10
0!11
0!12
0!13
0!14
0!15
0!16
0!17
#83
1!1
0!2
0!3
0!4
0!5
0!6
0!7
0!8
0!9
0!10
0!11
0!12
0!13
0!14
0!15
0!16
0!17
#84
1!1
0!2
0!3
0!4
0!5
0!6
0!7
0!8
0!9
0!10
0!11
0!12
0!13
0!14
0!15
0!16
0!17
#85
1!1
0!2
0!3
0!4
0!5
0!6
0!7
0!8
0!9
0!10
0!11
0!12
0!13
0!14
0!15
0!16
0!17
#86
1!1
0!2
0!3
0!4
0!5
0!6
0!7
0!8
0!9
0!10
0!11
0!12
0!13
0!14
0!15
0!16
0!17
#87
1!1
0!2
0!3
0!4
0!5
0!6
0!7
0!8
0!9
0!10
0!11
0!12
0!13
0!14
0!15
0!16
0!17
#88
1!1
0!2
0!3
0!4
0!5
0!6
0!7
0!8
0!9
0!10
0!11
0!12
0!13
0!14
0!15
0!16
0!17
#89
1!1
0!2
0!3
0!4
0!5
0!6
0!7
0!8
0!9
0!10
0!11
0!12
0!13
0!14
0!15
0!16
0!17
#90
1!1
0!2
0!3
0!4
0!5
0!6
0!7
0!8
0!9
0!10
0!11
0!12
0!13
0!14
0!15
0!16
0!17
#91
1!1
0!2
0!3
0!4
0!5
0!6
0!7
0!8
0!9
0!10
0!11
0!12
0!13
0!14
0!15
0!16
0!17
#92
1!1
0!2
0!3
0!4
0!5
0!6
0!7
0!8
0!9
0!10
0!11
0!12
0!13
0!14
0!15
0!16
0!17
#93
1!1
0!2
0!3
0!4
0!5
0!6
0!7
0!8
0!9
0!10
0!11
0!12
0!13
0!14
0!15
0!16
0!17
#94
1!1
0!2
0!3
0!4
0!5
0!6
0!7
0!8
0!9
0!10
0!11
0!12
0!13
0!14
0!15
0!16
0!17
#95
1!1
0!2
0!3
0!4
0!5
0!6
0!7
0!8
0!9
0!10
0!11
0!12
0!13
0!14
0!15
0!16
0!17
#96
1!1
0!2
0!3
0!4
0!5
0!6
0!7
0!8
0!9
0!10
0!11
0!12
0!13
0!14
0!15
0!16
0!17
#97
1!1
0!2
0!3
0!4
0!5
0!6
0!7
0!8
0!9
0!10
0!11
0!12
0!13
0!14
0!15
0!16
0!17
#98
1!1
0!2
0!3
0!4
0!5
0!6
0!7
0!8
0!9
0!10
0!11
0!12
0!13
0!14
0!15
0!16
0!17
#99
1!1
0!2
0!3
0!4
0!5
0!6
0!7
0!8
0!9
0!10
0!11
0!12
0!13
0!14
0!15
0!16
0!17
#100
1!1
0!2
0!3
0!4
0!5
0!6
0!7
0!8
0!9
0!10
0!11
0!12
0!13
0!14
0!15
0!16
0!17
#101
1!1
0!2
0!3
0!4
0!5
0!6
0!7
0!8
0!9
0!10
0!11
0!12
0!13
0!14
0!15
0!16
0!17
#102
1!1
0!2
0!3
0!4
0!5
0!6
0!7
0!8
0!9
0!10
0!11
0!12
0!13
0!14
0!15
0!16
0!17
#103
1!1
0!2
0!3
0!4
0!5
0!6
0!7
0!8
0!9
0!10
0!11
0!12
0!13
0!14
0!15
0!16
0!17
#104
1!1
0!2
0!3
0!4
0!5
0!6
0!7
0!8
0!9
0!10
0!11
0!12
0!13
0!14
0!15
0!16
0!17
#105
1!1
0!2
0!3
0!4
0!5
0!6
0!7
0!8
0!9
0!10
0!11
0!12
0!13
0!14
0!15
0!16
0!17
#106
1!1
0!2
0!3
0!4
0!5
0!6
0!7
0!8
0!9
0!10
0!11
0!12
0!13
0!14
0!15
0!16
0!17
#107
1!1
0!2
0!3
0!4
0!5
0!6
0!7
0!8
0!9
0!10
0!11
0!12
0!13
0!14
0!15
0!16
0!17
#108
1!1
0!2
0!3
0!4
0!5
0!6
0!7
0!8
0!9
0!10
0!11
0!12
0!13
0!14
0!15
0!16
0!17
#109
1!1
0!2
0!3
0!4
0!5
0!6
0!7
0!8
0!9
0!10
0!11
0!12
0!13
0!14
0!15
0!16
0!17
#110
1!1
0!2
0!3
0!4
0!5
0!6
0!7
0!8
0!9
0!10
0!11
0!12
0!13
0!14
0!15
0!16
0!17
#111
1!1
0!2
0!3
0!4
0!5
0!6
0!7
0!8
0!9
0!10
0!11
0!12
0!13
0!14
0!15
0!16
0!17
#112
1!1
0!2
0!3
0!4
0!5
0!6
0!7
0!8
0!9
0!10
0!11
0!12
0!13
0!14
0!15
0!16
0!17
#113
1!1
0!2
0!3
0!4
0!5
0!6
0!7
0!8
0!9
0!10
0!11
0!12
0!13
0!14
0!15
0!16
0!17
#114
1!1
1!2
0!3
0!4
0!5
0!6
0!7
0!8
0!9
0!10
0!11
0!12
0!13
0!14
0!15
0!16
0!17
#115
1!1
0!2
0!3
0!4
0!5
0!6
0!7
0!8
0!9
0!10
0!11
0!12
0!13
0!14
0!15
0!16
0!17
#116
1!1
0!2
0!3
0!4
0!5
0!6
0!7
0!8
0!9
0!10
0!11
0!12
0!13
0!14
0!15
0!16
0!17
#117
1!1
0!2
0!3
0!4
0!5
0!6
0!7
0!8
0!9
0!10
0!11
0!12
0!13
0!14
0!15
0!16
0!17
#118
1!1
0!2
0!3
0!4
0!5
0!6
0!7
0!8
0!9
0!10
0!11
0!12
0!13
0!14
0!15
0!16
0!17
#119
1!1
0!2
0!3
0!4
0!5
0!6
0!7
0!8
0!9
0!10
0!11
0!12
0!13
0!14
0!15
0!16
0!17
#120
1!1
0!2
0!3
0!4
0!5
0!6
0!7
0!8
0!9
0!10
0!11
0!12
0!13
0!14
0!15
0!16
0!17
#121
1!1
0!2
0!3
0!4
0!5
0!6
0!7
0!8
0!9
0!10
0!11
0!12
0!13
0!14
0!15
0!16
0!17
#122
1!1
0!2
0!3
0!4
0!5
0!6
0!7
0!8
0!9
0!10
0!11
0!12
0!13
0!14
0!15
0!16
0!17
#123
1!1
0!2
0!3
0!4
0!5
0!6
0!7
0!8
0!9
0!10
0!11
0!12
0!13
0!14
0!15
0!16
0!17
#124
1!1
0!2
0!3
0!4
0!5
0!6
0!7
0!8
0!9
0!10
0!11
0!12
0!13
0!14
0!15
0!16
0!17
#125
1!1
0!2
0!3
0!4
0!5
0!6
0!7
0!8
0!9
0!10
0!11
0!12
0!13
0!14
0!15
0!16
0!17
#126
1!1
0!2
0!3
0!4
0!5
0!6
0!7
0!8
0!9
0!10
0!11
0!12
0!13
0!14
0!15
0!16
0!17
#127
1!1
0!2
0!3
0!4
0!5
0!6
0!7
0!8
0!9
0!10
0!11
0!12
0!13
0!14
0!15
0!16
0!17
#128
1!1
0!2
0!3
0!4
0!5
0!6
0!7
0!8
0!9
0!10
0!11
0!12
0!13
0!14
0!15
0!16
0!17
#129
1!1
0!2
0!3
0!4
0!5
0!6
0!7
0!8
0!9
0!10
0!11
0!12
0!13
0!14
0!15
0!16
0!17
#130
1!1
0!2
0!3
0!4
0!5
0!6
0!7
0!8
0!9
0!10
0!11
0!12
0!13
0!14
0!15
0!16
0!17
#131
1!1
0!2
0!3
0!4
0!5
0!6
0!7
0!8
0!9
0!10
0!11
0!12
0!13
0!14
0!15
0!16
0!17
#132
1!1
0!2
0!3
0!4
0!5
0!6
0!7
0!8
0!9
0!10
0!11
0!12
0!13
0!14
0!15
0!16
0!17
#133
1!1
0!2
0!3
0!4
0!5
0!6
0!7
0!8
0!9
0!10
0!11
0!12
0!13
0!14
0!15
0!16
0!17
#134
1!1
0!2
0!3
0!4
0!5
0!6
0!7
0!8
0!9
0!10
0!11
0!12
0!13
0!14
0!15
0!16
0!17
#135
1!1
0!2
0!3
0!4
0!5
0!6
0!7
0!8
0!9
0!10
0!11
0!12
0!13
0!14
0!15
0!16
0!17
#136
1!1
0!2
0!3
0!4
0!5
0!6
0!7
0!8
0!9
0!10
0!11
0!12
0!13
0!14
0!15
0!16
0!17
#137
1!1
0!2
0!3
0!4
0!5
0!6
0!7
0!8
0!9
0!10
0!11
0!12
0!13
0!14
0!15
0!16
0!17
#138
1!1
0!2
0!3
0!4
0!5
0!6
0!7
0!8
0!9
0!10
0!11
0!12
0!13
0!14
0!15
0!16
0!17
#139
1!1
0!2
0!3
0!4
0!5
0!6
0!7
0!8
0!9
0!10
0!11
0!12
0!13
0!14
0!15
0!16
0!17
#140
1!1
0!2
0!3
0!4
0!5
0!6
0!7
0!8
0!9
0!10
0!11
0!12
0!13
0!14
0!15
0!16
0!17
#141
1!1
0!2
0!3
0!4
0!5
0!6
0!7
0!8
0!9
0!10
0!11
0!12
0!13
0!14
0!15
0!16
0!17
#142
1!1
0!2
0!3
0!4
0!5
0!6
0!7
0!8
0!9
0!10
0!11
0!12
0!13
0!14
0!15
0!16
0!17
#143
1!1
0!2
0!3
0!4
0!5
0!6
0!7
0!8
0!9
0!10
0!11
0!12
0!13
0!14
0!15
0!16
0!17
#144
1!1
0!2
0!3
0!4
0!5
0!6
0!7
0!8
0!9
0!10
0!11
0!12
0!13
0!14
0!15
0!16
0!17
#145
1!1
0!2
0!3
0!4
0!5
0!6
0!7
0!8
0!9
0!10
0!11
0!12
0!13
0!14
0!15
0!16
0!17
#146
1!1
0!2
0!3
0!4
0!5
0!6
0!7
0!8
0!9
0!10
0!11
0!12
0!13
0!14
0!15
0!16
0!17
#147
1!1
0!2
0!3
0!4
0!5
0!6
0!7
0!8
0!9
0!10
0!11
0!12
0!13
0!14
0!15
0!16
0!17
#148
1!1
0!2
0!3
0!4
0!5
0!6
0!7
0!8
0!9
0!10
0!11
0!12
0!13
0!14
0!15
0!16
0!17
#149
1!1
0!2
0!3
0!4
0!5
0!6
0!7
0!8
0!9
0!10
0!11
0!12
0!13
0!14
0!15
0!16
0!17
#150
1!1
0!2
0!3
0!4
0!5
0!6
0!7
0!8
0!9
0!10
0!11
0!12
0!13
0!14
0!15
0!16
0!17
#151
1!1
0!2
1!3
0!4
0!5
0!6
0!7
0!8
0!9
0!10
0!11
0!12
0!13
0!14
0!15
0!16
0!17
#152
1!1
0!2
0!3
0!4
0!5
1!6
0!7
0!8
0!9
0!10
0!11
0!12
0!13
0!14
0!15
0!16
0!17
#153
1!1
0!2
0!3
0!4
0!5
0!6
1!7
0!8
0!9
0!10
0!11
0!12
0!13
0!14
0!15
0!16
0!17
#154
1!1
1!2
0!3
0!4
0!5
0!6
0!7
0!8
0!9
0!10
0!11
0!12
0!13
0!14
0!15
0!16
0!17
#155
1!1
0!2
0!3
1!4
0!5
0!6
0!7
0!8
0!9
0!10
0!11
0!12
0!13
0!14
0!15
0!16
0!17
#156
1!1
0!2
0!3
0!4
1!5
0!6
0!7
0!8
0!9
0!10
0!11
0!12
0!13
0!14
0!15
0!16
0!17
#157
1!1
0!2
0!3
0!4
0!5
0!6
0!7
0!8
0!9
0!10
0!11
0!12
0!13
0!14
0!15
0!16
0!17
#158
1!1
0!2
0!3
0!4
0!5
0!6
0!7
0!8
0!9
0!10
0!11
0!12
0!13
0!14
0!15
0!16
0!17
#159
1!1
0!2
0!3
0!4
0!5
0!6
0!7
0!8
0!9
0!10
0!11
0!12
0!13
0!14
0!15
0!16
0!17
#160
1!1
0!2
0!3
0!4
0!5
0!6
0!7
0!8
0!9
0!10
0!11
0!12
0!13
0!14
0!15
0!16
0!17
#161
1!1
0!2
0!3
0!4
0!5
0!6
0!7
0!8
0!9
0!10
0!11
0!12
0!13
0!14
0!15
0!16
0!17
#162
1!1
0!2
0!3
0!4
0!5
0!6
0!7
0!8
0!9
0!10
0!11
0!12
0!13
0!14
0!15
0!16
0!17
#163
1!1
0!2
0!3
0!4
0!5
0!6
0!7
0!8
0!9
0!10
0!11
0!12
0!13
0!14
0!15
0!16
0!17
#164
1!1
0!2
1!3
0!4
0!5
0!6
0!7
0!8
0!9
0!10
0!11
0!12
0!13
0!14
0!15
0!16
0!17
#165
1!1
0!2
0!3
0!4
0!5
0!6
0!7
0!8
0!9
0!10
0!11
0!12
0!13
0!14
0!15
0!16
0!17
#166
1!1
0!2
0!3
0!4
0!5
0!6
0!7
0!8
0!9
0!10
0!11
0!12
0!13
0!14
0!15
0!16
0!17
#167
1!1
0!2
0!3
0!4
0!5
0!6
0!7
0!8
0!9
0!10
0!11
0!12
0!13
0!14
0!15
0!16
0!17
#168
1!1
0!2
0!3
0!4
0!5
0!6
0!7
0!8
0!9
0!10
0!11
0!12
0!13
0!14
0!15
0!16
0!17
#169
1!1
0!2
0!3
0!4
0!5
0!6
0!7
0!8
0!9
0!10
0!11
0!12
0!13
0!14
0!15
0!16
0!17
#170
1!1
0!2
0!3
0!4
0!5
0!6
0!7
0!8
0!9
0!10
0!11
0!12
0!13
0!14
0!15
0!16
0!17
#171
1!1
0!2
0!3
0!4
0!5
0!6
0!7
0!8
0!9
0!10
0!11
0!12
0!13
0!14
0!15
0!16
0!17
#172
1!1
0!2
0!3
0!4
0!5
0!6
0!7
0!8
0!9
0!10
0!11
0!12
0!13
0!14
0!15
0!16
0!17
#173
1!1
0!2
0!3
0!4
0!5
0!6
0!7
0!8
0!9
0!10
0!11
0!12
0!13
0!14
0!15
0!16
0!17
#174
1!1
0!2
0!3
0!4
0!5
0!6
0!7
0!8
0!9
0!10
0!11
0!12
0!13
0!14
0!15
0!16
0!17
#175
1!1
0!2
0!3
0!4
0!5
0!6
0!7
0!8
0!9
0!10
0!11
0!12
0!13
0!14
0!15
0!16
0!17
#176
1!1
0!2
0!3
0!4
0!5
0!6
0!7
0!8
0!9
0!10
0!11
0!12
0!13
0!14
0!15
0!16
0!17
#177
1!1
0!2
0!3
0!4
0!5
0!6
0!7
0!8
0!9
0!10
0!11
0!12
0!13
0!14
0!15
0!16
0!17
#178
1!1
0!2
0!3
0!4
0!5
0!6
0!7
0!8
0!9
0!10
0!11
0!12
0!13
0!14
0!15
0!16
0!17
#179
1!1
0!2
0!3
0!4
0!5
0!6
0!7
0!8
0!9
0!10
0!11
0!12
0!13
0!14
0!15
0!16
0!17
#180
1!1
0!2
0!3
0!4
0!5
0!6
0!7
0!8
0!9
0!10
0!11
0!12
0!13
0!14
0!15
0!16
0!17
#181
1!1
0!2
0!3
0!4
0!5
1!6
0!7
0!8
0!9
0!10
0!11
0!12
0!13
0!14
0!15
0!16
0!17
#182
1!1
0!2
0!3
0!4
0!5
0!6
0!7
0!8
0!9
0!10
0!11
0!12
0!13
0!14
0!15
0!16
0!17
#183
1!1
0!2
0!3
0!4
0!5
0!6
0!7
0!8
0!9
0!10
0!11
0!12
0!13
0!14
0!15
0!16
0!17
#184
1!1
0!2
0!3
0!4
0!5
0!6
0!7
0!8
0!9
0!10
0!11
0!12
0!13
0!14
0!15
0!16
0!17
#185
1!1
0!2
0!3
0!4
0!5
0!6
0!7
0!8
0!9
0!10
0!11
0!12
0!13
0!14
0!15
0!16
0!17
#186
1!1
0!2
0!3
0!4
0!5
0!6
0!7
0!8
0!9
0!10
0!11
0!12
0!13
0!14
0!15
0!16
0!17
#187
1!1
0!2
0!3
0!4
0!5
0!6
1!7
0!8
0!9
0!10
0!11
0!12
0!13
0!14
0!15
0!16
0!17
#188
1!1
0!2
0!3
0!4
0!5
0!6
0!7
0!8
0!9
0!10
0!11
0!12
0!13
0!14
0!15
0!16
0!17
#189
1!1
0!2
0!3
0!4
0!5
0!6
0!7
0!8
0!9
0!10
0!11
0!12
0!13
0!14
0!15
0!16
0!17
#190
1!1
0!2
0!3
0!4
0!5
0!6
0!7
0!8
0!9
0!10
0!11
0!12
0!13
0!14
0!15
0!16
0!17
#191
1!1
0!2
0!3
0!4
0!5
0!6
0!7
0!8
0!9
0!10
0!11
0!12
0!13
0!14
0!15
0!16
0!17
#192
1!1
0!2
0!3
0!4
0!5
0!6
0!7
0!8
0!9
0!10
0!11
0!12
0!13
0!14
0!15
0!16
0!17
#193
1!1
0!2
0!3
1!4
0!5
0!6
0!7
0!8
0!9
0!10
0!11
0!12
0!13
0!14
0!15
0!16
0!17
#194
1!1
0!2
0!3
0!4
0!5
0!6
0!7
0!8
0!9
0!10
0!11
0!12
0!13
0!14
0!15
0!16
0!17
#195
1!1
0!2
0!3
0!4
0!5
0!6
0!7
0!8
0!9
0!10
0!11
0!12
0!13
0!14
0!15
0!16
0!17
#196
1!1
0!2
0!3
0!4
0!5
0!6
0!7
0!8
0!9
0!10
0!11
0!12
0!13
0!14
0!15
0!16
0!17
#197
1!1
0!2
0!3
0!4
0!5
0!6
0!7
0!8
0!9
0!10
0!11
0!12
0!13
0!14
0!15
0!16
0!17
#198
1!1
0!2
0!3
0!4
1!5
0!6
0!7
0!8
0!9
0!10
0!11
0!12
0!13
0!14
0!15
0!16
0!17
#199
1!1
0!2
0!3
0!4
0!5
0!6
0!7
0!8
0!9
0!10
0!11
0!12
0!13
0!14
0!15
0!16
0!17
#200
1!1
0!2
0!3
0!4
0!5
0!6
0!7
0!8
0!9
0!10
0!11
0!12
0!13
0!14
0!15
0!16
0!17
#201
1!1
0!2
0!3
0!4
0!5
0!6
0!7
0!8
0!9
0!10
0!11
0!12
0!13
0!14
0!15
0!16
0!17
#202
1!1
0!2
0!3
1!4
0!5
0!6
0!7
0!8
0!9
0!10
0!11
0!12
0!13
0!14
0!15
0!16
0!17
#203
1!1
0!2
0!3
0!4
1!5
0!6
0!7
0!8
0!9
0!10
0!11
0!12
0!13
0!14
0!15
0!16
0!17
#204
1!1
0!2
0!3
0!4
0!5
0!6
0!7
0!8
0!9
0!10
0!11
0!12
0!13
0!14
0!15
0!16
0!17
#205
1!1
0!2
0!3
0!4
0!5
0!6
0!7
0!8
0!9
0!10
0!11
0!12
0!13
0!14
0!15
0!16
0!17
#206
1!1
0!2
0!3
0!4
0!5
0!6
0!7
0!8
0!9
0!10
0!11
0!12
0!13
0!14
0!15
0!16
0!17
#207
1!1
1!2
0!3
0!4
0!5
0!6
0!7
0!8
0!9
0!10
0!11
0!12
0!13
0!14
0!15
0!16
0!17
#208
1!1
0!2
0!3
0!4
0!5
0!6
0!7
0!8
0!9
0!10
0!11
0!12
0!13
0!14
0!15
0!16
0!17
#209
1!1
0!2
0!3
0!4
0!5
0!6
0!7
0!8
0!9
0!10
0!11
0!12
0!13
0!14
0!15
0!16
0!17
#210
1!1
0!2
0!3
0!4
0!5
0!6
0!7
0!8
0!9
0!10
0!11
0!12
0!13
0!14
0!15
0!16
0!17
#211
1!1
0!2
0!3
0!4
0!5
0!6
0!7
0!8
0!9
0!10
0!11
0!12
0!13
0!14
0!15
0!16
0!17
#212
1!1
0!2
0!3
0!4
0!5
0!6
0!7
0!8
0!9
0!10
0!11
0!12
0!13
0!14
0!15
0!16
0!17
#213
1!1
0!2
0!3
0!4
0!5
0!6
0!7
0!8
0!9
0!10
0!11
0!12
0!13
0!14
0!15
0!16
0!17
#214
1!1
0!2
0!3
0!4
0!5
0!6
0!7
0!8
0!9
0!10
0!11
0!12
0!13
0!14
0!15
0!16
0!17
#215
1!1
0!2
0!3
0!4
0!5
0!6
0!7
0!8
0!9
0!10
0!11
0!12
0!13
0!14
0!15
0!16
0!17
#216
1!1
0!2
0!3
0!4
0!5
0!6
0!7
0!8
0!9
0!10
0!11
0!12
0!13
0!14
0!15
0!16
0!17
#217
1!1
0!2
0!3
0!4
0!5
0!6
0!7
0!8
0!9
0!10
0!11
0!12
0!13
0!14
0!15
0!16
0!17
#218
1!1
0!2
0!3
0!4
0!5
0!6
0!7
0!8
0!9
0!10
0!11
0!12
0!13
0!14
0!15
0!16
0!17
#219
1!1
0!2
0!3
0!4
0!5
0!6
0!7
0!8
0!9
0!10
0!11
0!12
0!13
0!14
0!15
0!16
0!17
#220
1!1
0!2
0!3
0!4
0!5
0!6
0!7
0!8
0!9
0!10
0!11
0!12
0!13
0!14
0!15
0!16
0!17
#221
1!1
0!2
0!3
0!4
0!5
0!6
0!7
0!8
0!9
0!10
0!11
0!12
0!13
0!14
0!15
0!16
0!17
#222
1!1
0!2
0!3
0!4
0!5
0!6
0!7
0!8
0!9
0!10
0!11
0!12
0!13
0!14
0!15
0!16
0!17
#223
1!1
0!2
0!3
0!4
0!5
0!6
0!7
0!8
0!9
0!10
0!11
0!12
0!13
0!14
0!15
0!16
0!17
#224
1!1
0!2
0!3
0!4
0!5
0!6
0!7
0!8
0!9
0!10
0!11
0!12
0!13
0!14
0!15
0!16
0!17
#225
1!1
0!2
0!3
0!4
0!5
0!6
0!7
0!8
0!9
0!10
0!11
0!12
0!13
0!14
0!15
0!16
0!17
#226
1!1
0!2
0!3
0!4
0!5
0!6
0!7
0!8
0!9
0!10
0!11
0!12
0!13
0!14
0!15
0!16
0!17
#227
1!1
0!2
0!3
0!4
0!5
0!6
0!7
0!8
0!9
0!10
0!11
0!12
0!13
0!14
0!15
0!16
0!17
#228
1!1
1!2
1!3
0!4
0!5
0!6
0!7
0!8
0!9
0!10
0!11
0!12
0!13
0!14
0!15
0!16
0!17
#229
1!1
0!2
0!3
0!4
0!5
0!6
0!7
0!8
0!9
0!10
0!11
0!12
0!13
0!14
0!15
0!16
0!17
#230
1!1
0!2
0!3
0!4
0!5
0!6
0!7
0!8
0!9
0!10
0!11
0!12
0!13
0!14
0!15
0!16
0!17
#231
1!1
0!2
0!3
0!4
0!5
0!6
0!7
0!8
0!9
0!10
0!11
0!12
0!13
0!14
0!15
0!16
0!17
#232
1!1
0!2
0!3
0!4
0!5
0!6
0!7
0!8
0!9
0!10
0!11
0!12
0!13
0!14
0!15
0!16
0!17
#233
1!1
0!2
0!3
0!4
0!5
0!6
0!7
0!8
0!9
0!10
0!11
0!12
0!13
0!14
0!15
0!16
0!17
#234
1!1
0!2
0!3
0!4
0!5
0!6
0!7
0!8
0!9
0!10
0!11
0!12
0!13
0!14
0!15
0!16
0!17
#235
1!1
0!2
0!3
0!4
0!5
0!6
0!7
0!8
0!9
0!10
0!11
0!12
0!13
0!14
0!15
0!16
0!17
#236
1!1
0!2
0!3
0!4
0!5
0!6
0!7
0!8
0!9
0!10
0!11
0!12
0!13
0!14
0!15
0!16
0!17
#237
1!1
0!2
0!3
0!4
0!5
0!6
0!7
0!8
0!9
0!10
0!11
0!12
0!13
0!14
0!15
0!16
0!17
#238
1!1
0!2
0!3
0!4
0!5
0!6
0!7
0!8
0!9
0!10
0!11
0!12
0!13
0!14
0!15
0!16
0!17
#239
1!1
0!2
0!3
0!4
0!5
0!6
0!7
0!8
0!9
0!10
0!11
0!12
0!13
0!14
0!15
0!16
0!17
#240
1!1
0!2
0!3
0!4
0!5
0!6
0!7
0!8
0!9
0!10
0!11
0!12
0!13
0!14
0!15
0!16
0!17
#241
1!1
0!2
0!3
0!4
0!5
0!6
0!7
0!8
0!9
0!10
0!11
0!12
0!13
0!14
0!15
0!16
0!17
#242
1!1
0!2
0!3
0!4
0!5
0!6
0!7
0!8
0!9
0!10
0!11
0!12
0!13
0!14
0!15
0!16
0!17
#243
1!1
0!2
0!3
0!4
0!5
0!6
0!7
0!8
0!9
0!10
0!11
0!12
0!13
0!14
0!15
0!16
0!17
#244
1!1
0!2
0!3
0!4
0!5
0!6
0!7
0!8
0!9
0!10
0!11
0!12
0!13
0!14
0!15
0!16
0!17
#245
1!1
0!2
0!3
0!4
0!5
0!6
0!7
0!8
0!9
0!10
0!11
0!12
0!13
0!14
0!15
0!16
0!17
#246
1!1
0!2
0!3
0!4
0!5
0!6
0!7
0!8
0!9
0!10
0!11
0!12
0!13
0!14
0!15
0!16
0!17
#247
1!1
0!2
0!3
0!4
0!5
0!6
0!7
0!8
0!9
0!10
0!11
0!12
0!13
0!14
0!15
0!16
0!17
#248
1!1
0!2
0!3
0!4
0!5
0!6
0!7
0!8
0!9
0!10
0!11
0!12
0!13
0!14
0!15
0!16
0!17
#249
1!1
0!2
0!3
0!4
0!5
0!6
0!7
0!8
0!9
0!10
0!11
0!12
0!13
0!14
0!15
0!16
0!17
#250
1!1
0!2
0!3
0!4
0!5
0!6
0!7
0!8
0!9
0!10
0!11
0!12
0!13
0!14
0!15
0!16
0!17
#251
1!1
0!2
0!3
0!4
0!5
0!6
0!7
0!8
0!9
0!10
0!11
0!12
0!13
0!14
0!15
0!16
0!17
#252
1!1
0!2
0!3
0!4
0!5
0!6
0!7
0!8
0!9
0!10
0!11
0!12
0!13
0!14
0!15
0!16
0!17
#253
1!1
0!2
0!3
0!4
0!5
0!6
0!7
0!8
0!9
0!10
0!11
0!12
0!13
0!14
0!15
0!16
0!17
#254
1!1
0!2
0!3
0!4
0!5
0!6
0!7
0!8
0!9
0!10
0!11
0!12
0!13
0!14
0!15
0!16
0!17
#255
1!1
0!2
0!3
0!4
0!5
0!6
0!7
0!8
0!9
0!10
0!11
0!12
0!13
0!14
0!15
0!16
0!17
#256
1!1
0!2
0!3
0!4
0!5
0!6
0!7
0!8
0!9
0!10
0!11
0!12
0!13
0!14
0!15
0!16
0!17
#257
1!1
0!2
0!3
0!4
0!5
0!6
0!7
0!8
0!9
0!10
0!11
0!12
0!13
0!14
0!15
0!16
0!17
#258
1!1
0!2
0!3
0!4
0!5
0!6
0!7
0!8
0!9
0!10
0!11
0!12
0!13
0!14
0!15
0!16
0!17
#259
1!1
0!2
0!3
0!4
0!5
0!6
0!7
0!8
0!9
0!10
0!11
0!12
0!13
0!14
0!15
0!16
0!17
#260
1!1
0!2
0!3
0!4
0!5
0!6
0!7
0!8
0!9
0!10
0!11
0!12
0!13
0!14
0!15
0!16
0!17
#261
1!1
0!2
0!3
0!4
0!5
0!6
0!7
0!8
0!9
0!10
0!11
0!12
0!13
0!14
0!15
0!16
0!17
#262
1!1
0!2
0!3
0!4
0!5
0!6
0!7
0!8
0!9
0!10
0!11
0!12
0!13
0!14
0!15
0!16
0!17
#263
1!1
0!2
0!3
0!4
0!5
0!6
0!7
0!8
0!9
0!10
0!11
0!12
0!13
0!14
0!15
0!16
0!17
#264
1!1
0!2
0!3
0!4
0!5
0!6
0!7
0!8
0!9
0!10
0!11
0!12
0!13
0!14
0!15
0!16
0!17
#265
1!1
0!2
1!3
0!4
0!5
0!6
0!7
0!8
0!9
0!10
0!11
0!12
0!13
0!14
0!15
0!16
0!17
#266
1!1
0!2
0!3
0!4
0!5
1!6
0!7
0!8
0!9
0!10
0!11
0!12
0!13
0!14
0!15
0!16
0!17
#267
1!1
0!2
0!3
0!4
0!5
0!6
1!7
0!8
0!9
0!10
0!11
0!12
0!13
0!14
0!15
0!16
0!17
#268
1!1
0!2
0!3
0!4
0!5
0!6
0!7
0!8
0!9
0!10
0!11
0!12
0!13
0!14
0!15
0!16
0!17
#269
1!1
0!2
0!3
1!4
0!5
0!6
0!7
0!8
0!9
0!10
0!11
0!12
0!13
0!14
0!15
0!16
0!17
#270
1!1
0!2
0!3
0!4
1!5
0!6
0!7
0!8
0!9
0!10
0!11
0!12
0!13
0!14
0!15
0!16
0!17
#271
1!1
0!2
0!3
0!4
0!5
0!6
0!7
0!8
0!9
0!10
0!11
0!12
0!13
0!14
0!15
0!16
0!17
#272
1!1
0!2
0!3
0!4
0!5
0!6
0!7
0!8
0!9
0!10
0!11
0!12
0!13
0!14
0!15
0!16
0!17
#273
1!1
0!2
0!3
0!4
0!5
0!6
0!7
0!8
0!9
0!10
0!11
0!12
0!13
0!14
0!15
0!16
0!17
#274
1!1
0!2
0!3
0!4
0!5
0!6
0!7
0!8
0!9
0!10
0!11
0!12
0!13
0!14
0!15
0!16
0!17
#275
1!1
0!2
0!3
0!4
0!5
0!6
0!7
0!8
0!9
0!10
0!11
0!12
0!13
0!14
0!15
0!16
0!17
#276
1!1
0!2
0!3
0!4
0!5
0!6
0!7
0!8
0!9
0!10
0!11
0!12
0!13
0!14
0!15
0!16
0!17
#277
1!1
0!2
0!3
0!4
0!5
0!6
0!7
0!8
0!9
0!10
0!11
0!12
0!13
0!14
0!15
0!16
0!17
#278
1!1
0!2
0!3
0!4
0!5
0!6
0!7
0!8
0!9
0!10
0!11
0!12
0!13
0!14
0!15
0!16
0!17
#279
1!1
0!2
0!3
0!4
0!5
0!6
0!7
0!8
0!9
0!10
0!11
0!12
0!13
0!14
0!15
0!16
0!17
#280
1!1
0!2
0!3
0!4
0!5
0!6
0!7
0!8
0!9
0!10
0!11
0!12
0!13
0!14
0!15
0!16
0!17
#281
1!1
0!2
0!3
0!4
0!5
0!6
0!7
0!8
0!9
0!10
0!11
0!12
0!13
0!14
0!15
0!16
0!17
#282
1!1
0!2
0!3
0!4
0!5
0!6
0!7
0!8
0!9
0!10
0!11
0!12
0!13
0!14
0!15
0!16
0!17
#283
1!1
0!2
0!3
0!4
0!5
0!6
0!7
0!8
0!9
0!10
0!11
0!12
0!13
0!14
0!15
0!16
0!17
#284
1!1
0!2
0!3
0!4
0!5
0!6
0!7
0!8
0!9
0!10
0!11
0!12
0!13
0!14
0!15
0!16
0!17
#285
1!1
0!2
0!3
0!4
0!5
0!6
0!7
0!8
0!9
0!10
0!11
0!12
0!13
0!14
0!15
0!16
0!17
#286
1!1
0!2
0!3
0!4
0!5
0!6
0!7
0!8
0!9
0!10
0!11
0!12
0!13
0!14
0!15
0!16
0!17
#287
1!1
0!2
0!3
0!4
0!5
0!6
0!7
0!8
0!9
0!10
0!11
0!12
0!13
0!14
0!15
0!16
0!17
#288
1!1
0!2
0!3
0!4
0!5
0!6
0!7
0!8
0!9
0!10
0!11
0!12
0!13
0!14
0!15
0!16
0!17
#289
1!1
0!2
0!3
0!4
0!5
0!6
0!7
0!8
0!9
0!10
0!11
0!12
0!13
0!14
0!15
0!16
0!17
#290
1!1
0!2
0!3
0!4
0!5
0!6
0!7
0!8
0!9
0!10
0!11
0!12
0!13
0!14
0!15
0!16
0!17
#291
1!1
0!2
0!3
0!4
0!5
0!6
0!7
0!8
0!9
0!10
0!11
0!12
0!13
0!14
0!15
0!16
0!17
#292
1!1
0!2
0!3
0!4
0!5
0!6
0!7
0!8
0!9
0!10
0!11
0!12
0!13
0!14
0!15
0!16
0!17
#293
1!1
0!2
0!3
0!4
0!5
0!6
0!7
0!8
0!9
0!10
0!11
0!12
0!13
0!14
0!15
0!16
0!17
#294
1!1
0!2
0!3
0!4
0!5
0!6
0!7
0!8
0!9
0!10
0!11
0!12
0!13
0!14
0!15
0!16
0!17
#295
1!1
0!2
0!3
0!4
0!5
0!6
0!7
0!8
0!9
0!10
0!11
0!12
0!13
0!14
0!15
0!16
0!17
#296
1!1
0!2
0!3
0!4
0!5
0!6
0!7
0!8
0!9
0!10
0!11
0!12
0!13
0!14
0!15
0!16
0!17
#297
1!1
0!2
0!3
0!4
0!5
0!6
0!7
0!8
0!9
0!10
0!11
0!12
0!13
0!14
0!15
0!16
0!17
#298
1!1
0!2
0!3
0!4
0!5
0!6
0!7
0!8
0!9
0!10
0!11
0!12
0!13
0!14
0!15
0!16
0!17
#299
1!1
0!2
0!3
0!4
0!5
0!6
0!7
0!8
0!9
0!10
0!11
0!12
0!13
0!14
0!15
0!16
0!17
#300
1!1
0!2
0!3
0!4
0!5
0!6
0!7
0!8
0!9
0!10
0!11
0!12
0!13
0!14
0!15
0!16
0!17
#301
1!1
0!2
0!3
0!4
0!5
0!6
0!7
0!8
0!9
0!10
0!11
0!12
0!13
0!14
0!15
0!16
0!17
#302
1!1
0!2
0!3
0!4
0!5
0!6
0!7
0!8
0!9
0!10
0!11
0!12
0!13
0!14
0!15
0!16
0!17
#303
1!1
0!2
0!3
0!4
0!5
0!6
0!7
0!8
0!9
0!10
0!11
0!12
0!13
0!14
0!15
0!16
0!17
#304
1!1
1!2
0!3
0!4
0!5
0!6
0!7
0!8
0!9
0!10
0!11
0!12
0!13
0!14
0!15
0!16
0!17
#305
1!1
0!2
0!3
0!4
0!5
0!6
0!7
0!8
0!9
0!10
0!11
0!12
0!13
0!14
0!15
0!16
0!17
#306
1!1
0!2
0!3
0!4
0!5
0!6
0!7
0!8
0!9
0!10
0!11
0!12
0!13
0!14
0!15
0!16
0!17
#307
1!1
0!2
0!3
0!4
0!5
0!6
0!7
0!8
0!9
0!10
0!11
0!12
0!13
0!14
0!15
0!16
0!17
#308
1!1
0!2
0!3
0!4
0!5
0!6
0!7
0!8
0!9
0!10
0!11
0!12
0!13
0!14
0!15
0!16
0!17
#309
1!1
0!2
0!3
0!4
0!5
0!6
0!7
0!8
0!9
0!10
0!11
0!12
0!13
0!14
0!15
0!16
0!17
#310
1!1
0!2
0!3
0!4
0!5
0!6
0!7
0!8
0!9
0!10
0!11
0!12
0!13
0!14
0!15
0!16
0!17
#311
1!1
0!2
0!3
0!4
0!5
0!6
0!7
0!8
0!9
0!10
0!11
0!12
0!13
0!14
0!15
0!16
0!17
#312
1!1
0!2
0!3
0!4
0!5
0!6
0!7
0!8
0!9
0!10
0!11
0!12
0!13
0!14
0!15
0!16
0!17
#313
1!1
0!2
0!3
0!4
0!5
0!6
0!7
0!8
0!9
0!10
0!11
0!12
0!13
0!14
0!15
0!16
0!17
#314
1!1
0!2
1!3
0!4
0!5
0!6
0!7
0!8
0!9
0!10
0!11
0!12
0!13
0!14
0!15
0!16
0!17
#315
1!1
0!2
0!3
0!4
0!5
0!6
0!7
0!8
0!9
0!10
0!11
0!12
0!13
0!14
0!15
0!16
0!17
#316
1!1
0!2
0!3
0!4
0!5
0!6
0!7
0!8
0!9
0!10
0!11
0!12
0!13
0!14
0!15
0!16
0!17
#317
1!1
0!2
0!3
0!4
0!5
0!6
0!7
0!8
0!9
0!10
0!11
0!12
0!13
0!14
0!15
0!16
0!17
#318
1!1
0!2
0!3
0!4
0!5
0!6
0!7
0!8
0!9
0!10
0!11
0!12
0!13
0!14
0!15
0!16
0!17
#319
1!1
0!2
0!3
0!4
0!5
0!6
0!7
0!8
0!9
0!10
0!11
0!12
0!13
0!14
0!15
0!16
0!17
#320
1!1
0!2
0!3
0!4
0!5
0!6
0!7
0!8
0!9
0!10
0!11
0!12
0!13
0!14
0!15
0!16
0!17
#321
1!1
0!2
0!3
0!4
0!5
0!6
0!7
0!8
0!9
0!10
0!11
0!12
0!13
0!14
0!15
0!16
0!17
#322
1!1
0!2
0!3
0!4
0!5
0!6
0!7
0!8
0!9
0!10
0!11
0!12
0!13
0!14
0!15
0!16
0!17
#323
1!1
0!2
0!3
0!4
0!5
0!6
0!7
0!8
0!9
0!10
0!11
0!12
0!13
0!14
0!15
0!16
0!17
#324
1!1
0!2
0!3
0!4
0!5
0!6
0!7
0!8
0!9
0!10
0!11
0!12
0!13
0!14
0!15
0!16
0!17
#325
1!1
0!2
0!3
0!4
0!5
0!6
0!7
0!8
0!9
0!10
0!11
0!12
0!13
0!14
0!15
0!16
0!17
#326
1!1
0!2
0!3
0!4
0!5
0!6
0!7
0!8
0!9
0!10
0!11
0!12
0!13
0!14
0!15
0!16
0!17
#327
1!1
0!2
0!3
0!4
0!5
0!6
0!7
0!8
0!9
0!10
0!11
0!12
0!13
0!14
0!15
0!16
0!17
#328
1!1
0!2
0!3
0!4
0!5
0!6
0!7
0!8
0!9
0!10
0!11
0!12
0!13
0!14
0!15
0!16
0!17
#329
1!1
0!2
0!3
0!4
0!5
0!6
0!7
0!8
0!9
0!10
0!11
0!12
0!13
0!14
0!15
0!16
0!17
#330
1!1
0!2
0!3
0!4
0!5
0!6
0!7
0!8
0!9
0!10
0!11
0!12
0!13
0!14
0!15
0!16
0!17
#331
1!1
0!2
0!3
0!4
0!5
1!6
0!7
0!8
0!9
0!10
0!11
0!12
0!13
0!14
0!15
0!16
0!17
#332
1!1
0!2
0!3
0!4
0!5
0!6
0!7
0!8
0!9
0!10
0!11
0!12
0!13
0!14
0!15
0!16
0!17
#333
1!1
0!2
0!3
0!4
0!5
0!6
0!7
0!8
0!9
0!10
0!11
0!12
0!13
0!14
0!15
0!16
0!17
#334
1!1
1!2
0!3
0!4
0!5
0!6
0!7
0!8
0!9
0!10
0!11
0!12
0!13
0!14
0!15
0!16
0!17
#335
1!1
0!2
0!3
0!4
0!5
0!6
0!7
0!8
0!9
0!10
0!11
0!12
0!13
0!14
0!15
0!16
0!17
#336
1!1
0!2
0!3
0!4
0!5
0!6
0!7
0!8
0!9
0!10
0!11
0!12
0!13
0!14
0!15
0!16
0!17
#337
1!1
0!2
0!3
0!4
0!5
0!6
1!7
0!8
0!9
0!10
0!11
0!12
0!13
0!14
0!15
0!16
0!17
#338
1!1
0!2
0!3
0!4
0!5
0!6
0!7
0!8
0!9
0!10
0!11
0!12
0!13
0!14
0!15
0!16
0!17
#339
1!1
0!2
0!3
0!4
0!5
0!6
0!7
0!8
0!9
0!10
0!11
0!12
0!13
0!14
0!15
0!16
0!17
#340
1!1
0!2
0!3
0!4
0!5
0!6
0!7
0!8
0!9
0!10
0!11
0!12
0!13
0!14
0!15
0!16
0!17
#341
1!1
0!2
0!3
0!4
0!5
0!6
0!7
0!8
0!9
0!10
0!11
0!12
0!13
0!14
0!15
0!16
0!17
#342
1!1
0!2
0!3
0!4
0!5
0!6
0!7
0!8
0!9
0!10
0!11
0!12
0!13
0!14
0!15
0!16
0!17
#343
1!1
0!2
0!3
1!4
0!5
0!6
0!7
0!8
0!9
0!10
0!11
0!12
0!13
0!14
0!15
0!16
0!17
#344
1!1
0!2
0!3
0!4
0!5
0!6
0!7
0!8
0!9
0!10
0!11
0!12
0!13
0!14
0!15
0!16
0!17
#345
1!1
0!2
0!3
0!4
0!5
0!6
0!7
0!8
0!9
0!10
0!11
0!12
0!13
0!14
0!15
0!16
0!17
#346
1!1
0!2
0!3
0!4
0!5
0!6
0!7
0!8
0!9
0!10
0!11
0!12
0!13
0!14
0!15
0!16
0!17
#347
1!1
0!2
0!3
0!4
0!5
0!6
0!7
0!8
0!9
0!10
0!11
0!12
0!13
0!14
0!15
0!16
0!17
#348
1!1
0!2
0!3
0!4
1!5
0!6
0!7
0!8
0!9
0!10
0!11
0!12
0!13
0!14
0!15
0!16
0!17
#349
1!1
0!2
0!3
0!4
0!5
0!6
0!7
0!8
0!9
0!10
0!11
0!12
0!13
0!14
0!15
0!16
0!17
#350
1!1
0!2
0!3
0!4
0!5
0!6
0!7
0!8
0!9
0!10
0!11
0!12
0!13
0!14
0!15
0!16
0!17
#351
1!1
0!2
0!3
0!4
0!5
0!6
0!7
0!8
0!9
0!10
0!11
0!12
0!13
0!14
0!15
0!16
0!17
#352
1!1
0!2
0!3
1!4
0!5
0!6
0!7
0!8
0!9
0!10
0!11
0!12
0!13
0!14
0!15
0!16
0!17
#353
1!1
0!2
0!3
0!4
1!5
0!6
0!7
0!8
0!9
0!10
0!11
0!12
0!13
0!14
0!15
0!16
0!17
#354
1!1
0!2
0!3
0!4
0!5
0!6
0!7
0!8
0!9
0!10
0!11
0!12
0!13
0!14
0!15
0!16
0!17
#355
1!1
0!2
0!3
0!4
0!5
0!6
0!7
0!8
0!9
0!10
0!11
0!12
0!13
0!14
0!15
0!16
0!17
#356
1!1
0!2
0!3
0!4
0!5
0!6
0!7
0!8
0!9
0!10
0!11
0!12
0!13
0!14
0!15
0!16
0!17
#357
1!1
0!2
0!3
0!4
0!5
0!6
0!7
0!8
0!9
0!10
0!11
0!12
0!13
0!14
0!15
0!16
0!17
#358
1!1
0!2
0!3
0!4
0!5
0!6
0!7
0!8
0!9
0!10
0!11
0!12
0!13
0!14
0!15
0!16
0!17
#359
1!1
0!2
0!3
0!4
0!5
0!6
0!7
0!8
0!9
0!10
0!11
0!12
0!13
0!14
0!15
0!16
0!17
#360
1!1
0!2
0!3
0!4
0!5
0!6
0!7
0!8
0!9
0!10
0!11
0!12
0!13
0!14
0!15
0!16
0!17
#361
1!1
0!2
0!3
0!4
0!5
0!6
0!7
0!8
0!9
0!10
0!11
0!12
0!13
0!14
0!15
0!16
0!17
#362
1!1
0!2
0!3
0!4
0!5
0!6
0!7
0!8
0!9
0!10
0!11
0!12
0!13
0!14
0!15
0!16
0!17
#363
1!1
0!2
0!3
0!4
0!5
0!6
0!7
0!8
0!9
0!10
0!11
0!12
0!13
0!14
0!15
0!16
0!17
#364
1!1
0!2
0!3
0!4
0!5
0!6
0!7
0!8
0!9
0!10
0!11
0!12
0!13
0!14
0!15
0!16
0!17
#365
1!1
0!2
0!3
0!4
0!5
0!6
0!7
0!8
0!9
0!10
0!11
0!12
0!13
0!14
0!15
0!16
0!17
#366
1!1
0!2
0!3
0!4
0!5
0!6
0!7
0!8
0!9
0!10
0!11
0!12
0!13
0!14
0!15
0!16
0!17
#367
1!1
0!2
0!3
0!4
0!5
0!6
0!7
0!8
0!9
0!10
0!11
0!12
0!13
0!14
0!15
0!16
0!17
#368
1!1
0!2
0!3
0!4
0!5
0!6
0!7
0!8
0!9
0!10
0!11
0!12
0!13
0!14
0!15
0!16
0!17
#369
1!1
0!2
0!3
0!4
0!5
0!6
0!7
0!8
0!9
0!10
0!11
0!12
0!13
0!14
0!15
0!16
0!17
#370
1!1
0!2
0!3
0!4
0!5
0!6
0!7
0!8
0!9
0!10
0!11
0!12
0!13
0!14
0!15
0!16
0!17
#371
1!1
1!2
1!3
0!4
0!5
0!6
0!7
0!8
0!9
0!10
0!11
0!12
0!13
0!14
0!15
0!16
0!17
#372
1!1
0!2
0!3
0!4
0!5
1!6
0!7
0!8
0!9
0!10
0!11
0!12
0!13
0!14
0!15
0!16
0!17
#373
1!1
0!2
0!3
0!4
0!5
0!6
1!7
0!8
0!9
0!10
0!11
0!12
0!13
0!14
0!15
0!16
0!17
#374
1!1
0!2
0!3
0!4
0!5
0!6
0!7
0!8
0!9
0!10
0!11
0!12
0!13
0!14
0!15
0!16
0!17
#375
1!1
0!2
0!3
1!4
0!5
0!6
0!7
0!8
0!9
0!10
0!11
0!12
0!13
0!14
0!15
0!16
0!17
#376
1!1
0!2
0!3
0!4
1!5
0!6
0!7
0!8
0!9
0!10
0!11
0!12
0!13
0!14
0!15
0!16
0!17
#377
1!1
0!2
0!3
0!4
0!5
0!6
0!7
0!8
0!9
0!10
0!11
0!12
0!13
0!14
0!15
0!16
0!17
#378
1!1
0!2
1!3
0!4
0!5
0!6
0!7
0!8
0!9
0!10
0!11
0!12
0!13
0!14
0!15
0!16
0!17
#379
1!1
0!2
0!3
0!4
0!5
0!6
0!7
0!8
0!9
0!10
0!11
0!12
0!13
0!14
0!15
0!16
0!17
#380
1!1
0!2
0!3
0!4
0!5
0!6
0!7
0!8
0!9
0!10
0!11
0!12
0!13
0!14
0!15
0!16
0!17
#381
1!1
0!2
0!3
0!4
0!5
0!6
0!7
0!8
0!9
0!10
0!11
0!12
0!13
0!14
0!15
0!16
0!17
#382
1!1
0!2
0!3
0!4
0!5
0!6
0!7
0!8
0!9
0!10
0!11
0!12
0!13
0!14
0!15
0!16
0!17
#383
1!1
0!2
0!3
0!4
0!5
0!6
0!7
0!8
0!9
0!10
0!11
0!12
0!13
0!14
0!15
0!16
0!17
#384
1!1
0!2
0!3
0!4
0!5
0!6
0!7
0!8
0!9
0!10
0!11
0!12
0!13
0!14
0!15
0!16
0!17
#385
1!1
0!2
0!3
0!4
0!5
0!6
0!7
0!8
0!9
0!10
0!11
0!12
0!13
0!14
0!15
0!16
0!17
#386
1!1
0!2
0!3
0!4
0!5
0!6
0!7
0!8
0!9
0!10
0!11
0!12
0!13
0!14
0!15
0!16
0!17
#387
1!1
0!2
0!3
0!4
0!5
0!6
0!7
0!8
0!9
0!10
0!11
0!12
0!13
0!14
0!15
0!16
0!17
#388
1!1
0!2
0!3
0!4
0!5
0!6
0!7
0!8
0!9
0!10
0!11
0!12
0!13
0!14
0!15
0!16
0!17
#389
1!1
0!2
0!3
0!4
0!5
0!6
0!7
0!8
0!9
0!10
0!11
0!12
0!13
0!14
0!15
0!16
0!17
#390
1!1
0!2
0!3
0!4
0!5
0!6
0!7
0!8
0!9
0!10
0!11
0!12
0!13
0!14
0!15
0!16
0!17
#391
1!1
0!2
0!3
0!4
0!5
0!6
0!7
0!8
0!9
0!10
0!11
0!12
0!13
0!14
0!15
0!16
0!17
#392
1!1
0!2
0!3
0!4
0!5
0!6
0!7
0!8
0!9
0!10
0!11
0!12
0!13
0!14
0!15
0!16
0!17
#393
1!1
0!2
0!3
0!4
0!5
0!6
0!7
0!8
0!9
0!10
0!11
0!12
0!13
0!14
0!15
0!16
0!17
#394
1!1
0!2
0!3
0!4
0!5
0!6
0!7
0!8
0!9
0!10
0!11
0!12
0!13
0!14
0!15
0!16
0!17
#395
1!1
0!2
0!3
0!4
0!5
0!6
0!7
0!8
0!9
0!10
0!11
0!12
0!13
0!14
0!15
0!16
0!17
#396
1!1
0!2
0!3
0!4
0!5
0!6
0!7
0!8
0!9
0!10
0!11
0!12
0!13
0!14
0!15
0!16
0!17
#397
1!1
0!2
0!3
0!4
0!5
0!6
0!7
0!8
0!9
0!10
0!11
0!12
0!13
0!14
0!15
0!16
0!17
#398
1!1
0!2
0!3
0!4
0!5
0!6
0!7
0!8
0!9
0!10
0!11
0!12
0!13
0!14
0!15
0!16
0!17
#399
1!1
0!2
0!3
0!4
0!5
0!6
0!7
0!8
0!9
0!10
0!11
0!12
0!13
0!14
0!15
0!16
0!17
#400
1!1
0!2
0!3
0!4
0!5
0!6
0!7
0!8
0!9
0!10
0!11
0!12
0!13
0!14
0!15
0!16
0!17
#401
1!1
0!2
0!3
0!4
0!5
0!6
0!7
0!8
0!9
0!10
0!11
0!12
0!13
0!14
0!15
0!16
0!17
#402
1!1
0!2
0!3
0!4
0!5
0!6
0!7
0!8
0!9
0!10
0!11
0!12
0!13
0!14
0!15
0!16
0!17
#403
1!1
0!2
0!3
0!4
0!5
0!6
0!7
0!8
0!9
0!10
0!11
0!12
0!13
0!14
0!15
0!16
0!17
#404
1!1
0!2
0!3
0!4
0!5
0!6
0!7
0!8
0!9
0!10
0!11
0!12
0!13
0!14
0!15
0!16
0!17
#405
1!1
0!2
0!3
0!4
0!5
0!6
0!7
0!8
0!9
0!10
0!11
0!12
0!13
0!14
0!15
0!16
0!17
#406
1!1
0!2
0!3
0!4
0!5
0!6
0!7
0!8
0!9
0!10
0!11
0!12
0!13
0!14
0!15
0!16
0!17
#407
1!1
0!2
0!3
0!4
0!5
0!6
0!7
0!8
0!9
0!10
0!11
0!12
0!13
0!14
0!15
0!16
0!17
#408
1!1
0!2
0!3
0!4
0!5
0!6
0!7
0!8
0!9
0!10
0!11
0!12
0!13
0!14
0!15
0!16
0!17
#409
1!1
0!2
0!3
0!4
0!5
0!6
0!7
0!8
0!9
0!10
0!11
0!12
0!13
0!14
0!15
0!16
0!17
#410
1!1
0!2
0!3
0!4
0!5
0!6
0!7
0!8
0!9
0!10
0!11
0!12
0!13
0!14
0!15
0!16
0!17
#411
1!1
0!2
0!3
0!4
0!5
0!6
0!7
0!8
0!9
0!10
0!11
0!12
0!13
0!14
0!15
0!16
0!17
#412
1!1
0!2
0!3
0!4
0!5
0!6
0!7
0!8
0!9
0!10
0!11
0!12
0!13
0!14
0!15
0!16
0!17
#413
1!1
0!2
0!3
0!4
0!5
0!6
0!7
0!8
0!9
0!10
0!11
0!12
0!13
0!14
0!15
0!16
0!17
#414
1!1
0!2
0!3
0!4
0!5
0!6
0!7
0!8
0!9
0!10
0!11
0!12
0!13
0!14
0!15
0!16
0!17
#415
1!1
0!2
0!3
0!4
0!5
0!6
0!7
0!8
0!9
0!10
0!11
0!12
0!13
0!14
0!15
0!16
0!17
#416
1!1
0!2
0!3
0!4
0!5
0!6
0!7
0!8
0!9
0!10
0!11
0!12
0!13
0!14
0!15
0!16
0!17
#417
1!1
0!2
0!3
0!4
0!5
0!6
0!7
0!8
0!9
0!10
0!11
0!12
0!13
0!14
0!15
0!16
0!17
#418
1!1
0!2
0!3
0!4
0!5
0!6
0!7
0!8
0!9
0!10
0!11
0!12
0!13
0!14
0!15
0!16
0!17
#419
1!1
0!2
0!3
0!4
0!5
0!6
0!7
0!8
0!9
0!10
0!11
0!12
0!13
0!14
0!15
0!16
0!17
#420
1!1
0!2
0!3
0!4
0!5
0!6
0!7
0!8
0!9
0!10
0!11
0!12
0!13
0!14
0!15
0!16
0!17
#421
1!1
0!2
0!3
0!4
0!5
0!6
0!7
0!8
0!9
0!10
0!11
0!12
0!13
0!14
0!15
0!16
0!17
#422
1!1
0!2
0!3
0!4
0!5
0!6
0!7
0!8
0!9
0!10
0!11
0!12
0!13
0!14
0!15
0!16
0!17
#423
1!1
0!2
0!3
0!4
0!5
0!6
0!7
0!8
0!9
0!10
0!11
0!12
0!13
0!14
0!15
0!16
0!17
#424
1!1
0!2
0!3
0!4
0!5
0!6
0!7
0!8
0!9
0!10
0!11
0!12
0!13
0!14
0!15
0!16
0!17
#425
1!1
0!2
0!3
0!4
0!5
0!6
0!7
0!8
0!9
0!10
0!11
0!12
0!13
0!14
0!15
0!16
0!17
#426
1!1
0!2
0!3
0!4
0!5
0!6
0!7
0!8
0!9
0!10
0!11
0!12
0!13
0!14
0!15
0!16
0!17
#427
1!1
0!2
0!3
0!4
0!5
0!6
0!7
0!8
0!9
0!10
0!11
0!12
0!13
0!14
0!15
0!16
0!17
#428
1!1
0!2
0!3
0!4
0!5
0!6
0!7
0!8
0!9
0!10
0!11
0!12
0!13
0!14
0!15
0!16
0!17
#429
1!1
0!2
0!3
0!4
0!5
0!6
0!7
0!8
0!9
0!10
0!11
0!12
0!13
0!14
0!15
0!16
0!17
#430
1!1
0!2
0!3
0!4
0!5
0!6
0!7
0!8
0!9
0!10
0!11
0!12
0!13
0!14
0!15
0!16
0!17
#431
1!1
0!2
0!3
0!4
0!5
0!6
0!7
0!8
0!9
0!10
0!11
0!12
0!13
0!14
0!15
0!16
0!17
#432
1!1
0!2
0!3
0!4
0!5
0!6
0!7
0!8
0!9
0!10
0!11
0!12
0!13
0!14
0!15
0!16
0!17
#433
1!1
0!2
0!3
0!4
0!5
0!6
0!7
0!8
0!9
0!10
0!11
0!12
0!13
0!14
0!15
0!16
0!17
#434
1!1
0!2
0!3
0!4
0!5
0!6
0!7
0!8
0!9
0!10
0!11
0!12
0!13
0!14
0!15
0!16
0!17
#435
1!1
0!2
0!3
0!4
0!5
0!6
0!7
0!8
0!9
0!10
0!11
0!12
0!13
0!14
0!15
0!16
0!17
#436
1!1
0!2
0!3
0!4
0!5
0!6
0!7
0!8
0!9
0!10
0!11
0!12
0!13
0!14
0!15
0!16
0!17
#437
1!1
0!2
0!3
0!4
0!5
0!6
0!7
0!8
0!9
0!10
0!11
0!12
0!13
0!14
0!15
0!16
0!17
#438
1!1
0!2
0!3
0!4
0!5
0!6
0!7
0!8
0!9
0!10
0!11
0!12
0!13
0!14
0!15
0!16
0!17
#439
1!1
0!2
0!3
0!4
0!5
0!6
0!7
0!8
0!9
0!10
0!11
0!12
0!13
0!14
0!15
0!16
0!17
#440
1!1
0!2
0!3
0!4
0!5
0!6
0!7
0!8
0!9
0!10
0!11
0!12
0!13
0!14
0!15
0!16
0!17
#441
1!1
0!2
0!3
0!4
0!5
0!6
0!7
0!8
0!9
0!10
0!11
0!12
0!13
0!14
0!15
0!16
0!17
#442
1!1
0!2
0!3
0!4
0!5
0!6
0!7
0!8
0!9
0!10
0!11
0!12
0!13
0!14
0!15
0!16
0!17
#443
1!1
0!2
0!3
0!4
0!5
0!6
0!7
0!8
0!9
0!10
0!11
0!12
0!13
0!14
0!15
0!16
0!17
#444
1!1
1!2
0!3
0!4
0!5
0!6
0!7
0!8
0!9
0!10
0!11
0!12
0!13
0!14
0!15
0!16
0!17
#445
1!1
0!2
0!3
0!4
0!5
0!6
0!7
0!8
0!9
0!10
0!11
0!12
0!13
0!14
0!15
0!16
0!17
#446
1!1
0!2
0!3
0!4
0!5
0!6
0!7
0!8
0!9
0!10
0!11
0!12
0!13
0!14
0!15
0!16
0!17
#447
1!1
0!2
0!3
0!4
0!5
0!6
0!7
0!8
0!9
0!10
0!11
0!12
0!13
0!14
0!15
0!16
0!17
#448
1!1
0!2
0!3
0!4
0!5
0!6
0!7
0!8
0!9
0!10
0!11
0!12
0!13
0!14
0!15
0!16
0!17
#449
1!1
0!2
0!3
0!4
0!5
0!6
0!7
0!8
0!9
0!10
0!11
0!12
0!13
0!14
0!15
0!16
0!17
#450
1!1
0!2
0!3
0!4
0!5
0!6
0!7
0!8
0!9
0!10
0!11
0!12
0!13
0!14
0!15
0!16
0!17
#451
1!1
0!2
0!3
0!4
0!5
0!6
0!7
0!8
0!9
0!10
0!11
0!12
0!13
0!14
0!15
0!16
0!17
#452
1!1
0!2
0!3
0!4
0!5
0!6
0!7
0!8
0!9
0!10
0!11
0!12
0!13
0!14
0!15
0!16
0!17
#453
1!1
0!2
0!3
0!4
0!5
0!6
0!7
0!8
0!9
0!10
0!11
0!12
0!13
0!14
0!15
0!16
0!17
#454
1!1
0!2
0!3
0!4
0!5
0!6
0!7
0!8
0!9
0!10
0!11
0!12
0!13
0!14
0!15
0!16
0!17
#455
1!1
0!2
0!3
0!4
0!5
0!6
0!7
0!8
0!9
0!10
0!11
0!12
0!13
0!14
0!15
0!16
0!17
#456
1!1
0!2
0!3
0!4
0!5
0!6
0!7
0!8
0!9
0!10
0!11
0!12
0!13
0!14
0!15
0!16
0!17
#457
1!1
0!2
0!3
0!4
0!5
0!6
0!7
0!8
0!9
0!10
0!11
0!12
0!13
0!14
0!15
0!16
0!17
#458
1!1
0!2
0!3
0!4
0!5
0!6
0!7
0!8
0!9
0!10
0!11
0!12
0!13
0!14
0!15
0!16
0!17
#459
1!1
0!2
0!3
0!4
0!5
0!6
0!7
0!8
0!9
0!10
0!11
0!12
0!13
0!14
0!15
0!16
0!17
#460
1!1
0!2
0!3
0!4
0!5
0!6
0!7
0!8
0!9
0!10
0!11
0!12
0!13
0!14
0!15
0!16
0!17
#461
1!1
0!2
0!3
0!4
0!5
0!6
0!7
0!8
0!9
0!10
0!11
0!12
0!13
0!14
0!15
0!16
0!17
#462
1!1
0!2
0!3
0!4
0!5
0!6
0!7
0!8
0!9
0!10
0!11
0!12
0!13
0!14
0!15
0!16
0!17
#463
1!1
0!2
0!3
0!4
0!5
0!6
0!7
0!8
0!9
0!10
0!11
0!12
0!13
0!14
0!15
0!16
0!17
#464
1!1
0!2
0!3
0!4
0!5
0!6
0!7
0!8
0!9
0!10
0!11
0!12
0!13
0!14
0!15
0!16
0!17
#465
1!1
0!2
0!3
0!4
0!5
0!6
0!7
0!8
0!9
0!10
0!11
0!12
0!13
0!14
0!15
0!16
0!17
#466
1!1
0!2
0!3
0!4
0!5
0!6
0!7
0!8
0!9
0!10
0!11
0!12
0!13
0!14
0!15
0!16
0!17
#467
1!1
0!2
0!3
0!4
0!5
0!6
0!7
0!8
0!9
0!10
0!11
0!12
0!13
0!14
0!15
0!16
0!17
#468
1!1
0!2
0!3
0!4
0!5
0!6
0!7
0!8
0!9
0!10
0!11
0!12
0!13
0!14
0!15
0!16
0!17
#469
1!1
0!2
0!3
0!4
0!5
0!6
0!7
0!8
0!9
0!10
0!11
0!12
0!13
0!14
0!15
0!16
0!17
#470
1!1
0!2
0!3
0!4
0!5
0!6
0!7
0!8
0!9
0!10
0!11
0!12
0!13
0!14
0!15
0!16
0!17
#471
1!1
0!2
0!3
0!4
0!5
0!6
0!7
0!8
0!9
0!10
0!11
0!12
0!13
0!14
0!15
0!16
0!17
#472
1!1
0!2
0!3
0!4
0!5
0!6
0!7
0!8
0!9
0!10
0!11
0!12
0!13
0!14
0!15
0!16
0!17
#473
1!1
0!2
0!3
0!4
0!5
0!6
0!7
0!8
0!9
0!10
0!11
0!12
0!13
0!14
0!15
0!16
0!17
#474
1!1
0!2
0!3
0!4
0!5
0!6
0!7
0!8
0!9
0!10
0!11
0!12
0!13
0!14
0!15
0!16
0!17
#475
1!1
0!2
0!3
0!4
0!5
0!6
0!7
0!8
0!9
0!10
0!11
0!12
0!13
0!14
0!15
0!16
0!17
#476
1!1
0!2
0!3
0!4
0!5
0!6
0!7
0!8
0!9
0!10
0!11
0!12
0!13
0!14
0!15
0!16
0!17
#477
1!1
0!2
0!3
0!4
0!5
0!6
0!7
0!8
0!9
0!10
0!11
0!12
0!13
0!14
0!15
0!16
0!17
#478
1!1
0!2
0!3
0!4
0!5
0!6
0!7
0!8
0!9
0!10
0!11
0!12
0!13
0!14
0!15
0!16
0!17
#479
1!1
0!2
0!3
0!4
0!5
0!6
0!7
0!8
0!9
0!10
0!11
0!12
0!13
0!14
0!15
0!16
0!17
#480
1!1
0!2
0!3
0!4
0!5
0!6
0!7
0!8
0!9
0!10
0!11
0!12
0!13
0!14
0!15
0!16
0!17
#481
1!1
1!2
1!3
0!4
0!5
0!6
0!7
0!8
0!9
0!10
0!11
0!12
0!13
0!14
0!15
0!16
0!17
#482
1!1
0!2
0!3
0!4
0!5
1!6
0!7
0!8
0!9
0!10
0!11
0!12
0!13
0!14
0!15
0!16
0!17
#483
1!1
0!2
0!3
0!4
0!5
0!6
1!7
0!8
0!9
0!10
0!11
0!12
0!13
0!14
0!15
0!16
0!17
#484
1!1
0!2
0!3
0!4
0!5
0!6
0!7
0!8
0!9
0!10
0!11
0!12
0!13
0!14
0!15
0!16
0!17
#485
1!1
0!2
0!3
1!4
0!5
0!6
0!7
0!8
0!9
0!10
0!11
0!12
0!13
0!14
0!15
0!16
0!17
#486
1!1
0!2
0!3
0!4
1!5
0!6
0!7
0!8
0!9
0!10
0!11
0!12
0!13
0!14
0!15
0!16
0!17
#487
1!1
0!2
0!3
0!4
0!5
0!6
0!7
0!8
0!9
0!10
0!11
0!12
0!13
0!14
0!15
0!16
0!17
#488
1!1
0!2
0!3
0!4
0!5
0!6
0!7
0!8
0!9
0!10
0!11
0!12
0!13
0!14
0!15
0!16
0!17
#489
1!1
0!2
0!3
0!4
0!5
0!6
0!7
0!8
0!9
0!10
0!11
0!12
0!13
0!14
0!15
0!16
0!17
#490
1!1
0!2
0!3
0!4
0!5
0!6
0!7
0!8
0!9
0!10
0!11
0!12
0!13
0!14
0!15
0!16
0!17
#491
1!1
0!2
1!3
0!4
0!5
0!6
0!7
0!8
0!9
0!10
0!11
0!12
0!13
0!14
0!15
0!16
0!17
#492
1!1
0!2
0!3
0!4
0!5
0!6
0!7
0!8
0!9
0!10
0!11
0!12
0!13
0!14
0!15
0!16
0!17
#493
1!1
0!2
0!3
0!4
0!5
0!6
0!7
0!8
0!9
0!10
0!11
0!12
0!13
0!14
0!15
0!16
0!17
#494
1!1
0!2
0!3
0!4
0!5
0!6
0!7
0!8
0!9
0!10
0!11
0!12
0!13
0!14
0!15
0!16
0!17
#495
1!1
0!2
0!3
0!4
0!5
0!6
0!7
0!8
0!9
0!10
0!11
0!12
0!13
0!14
0!15
0!16
0!17
#496
1!1
0!2
0!3
0!4
0!5
0!6
0!7
0!8
0!9
0!10
0!11
0!12
0!13
0!14
0!15
0!16
0!17
#497
1!1
0!2
0!3
0!4
0!5
0!6
0!7
0!8
0!9
0!10
0!11
0!12
0!13
0!14
0!15
0!16
0!17
#498
1!1
0!2
0!3
0!4
0!5
0!6
0!7
0!8
0!9
0!10
0!11
0!12
0!13
0!14
0!15
0!16
0!17
#499
1!1
0!2
0!3
0!4
0!5
0!6
0!7
0!8
0!9
0!10
0!11
0!12
0!13
0!14
0!15
0!16
0!17
#500
1!1
0!2
0!3
0!4
0!5
0!6
0!7
0!8
0!9
0!10
0!11
0!12
0!13
0!14
0!15
0!16
0!17
#501
1!1
0!2
0!3
0!4
0!5
0!6
0!7
0!8
0!9
0!10
0!11
0!12
0!13
0!14
0!15
0!16
0!17
#502
1!1
0!2
0!3
0!4
0!5
0!6
0!7
0!8
0!9
0!10
0!11
0!12
0!13
0!14
0!15
0!16
0!17
#503
1!1
0!2
0!3
0!4
0!5
0!6
0!7
0!8
0!9
0!10
0!11
0!12
0!13
0!14
0!15
0!16
0!17
#504
1!1
0!2
0!3
0!4
0!5
0!6
0!7
0!8
0!9
0!10
0!11
0!12
0!13
0!14
0!15
0!16
0!17
#505
1!1
0!2
0!3
0!4
0!5
0!6
0!7
0!8
0!9
0!10
0!11
0!12
0!13
0!14
0!15
0!16
0!17
#506
1!1
0!2
0!3
0!4
0!5
0!6
0!7
0!8
0!9
0!10
0!11
0!12
0!13
0!14
0!15
0!16
0!17
#507
1!1
0!2
0!3
0!4
0!5
0!6
0!7
0!8
0!9
0!10
0!11
0!12
0!13
0!14
0!15
0!16
0!17
#508
1!1
0!2
0!3
0!4
0!5
1!6
0!7
0!8
0!9
0!10
0!11
0!12
0!13
0!14
0!15
0!16
0!17
#509
1!1
0!2
0!3
0!4
0!5
0!6
0!7
0!8
0!9
0!10
0!11
0!12
0!13
0!14
0!15
0!16
0!17
#510
1!1
0!2
0!3
0!4
0!5
0!6
0!7
0!8
0!9
0!10
0!11
0!12
0!13
0!14
0!15
0!16
0!17
#511
1!1
0!2
0!3
0!4
0!5
0!6
0!7
0!8
0!9
0!10
0!11
0!12
0!13
0!14
0!15
0!16
0!17
#512
1!1
0!2
0!3
0!4
0!5
0!6
0!7
0!8
0!9
0!10
0!11
0!12
0!13
0!14
0!15
0!16
0!17
#513
1!1
0!2
0!3
0!4
0!5
0!6
0!7
0!8
0!9
0!10
0!11
0!12
0!13
0!14
0!15
0!16
0!17
#514
1!1
0!2
0!3
0!4
0!5
0!6
1!7
0!8
0!9
0!10
0!11
0!12
0!13
0!14
0!15
0!16
0!17
#515
1!1
0!2
0!3
0!4
0!5
0!6
0!7
0!8
0!9
0!10
0!11
0!12
0!13
0!14
0!15
0!16
0!17
#516
1!1
0!2
0!3
0!4
0!5
0!6
0!7
0!8
0!9
0!10
0!11
0!12
0!13
0!14
0!15
0!16
0!17
#517
1!1
0!2
0!3
0!4
0!5
0!6
0!7
0!8
0!9
0!10
0!11
0!12
0!13
0!14
0!15
0!16
0!17
#518
1!1
0!2
0!3
0!4
0!5
0!6
0!7
0!8
0!9
0!10
0!11
0!12
0!13
0!14
0!15
0!16
0!17
#519
1!1
0!2
0!3
0!4
0!5
0!6
0!7
0!8
0!9
0!10
0!11
0!12
0!13
0!14
0!15
0!16
0!17
#520
1!1
0!2
0!3
1!4
0!5
0!6
0!7
0!8
0!9
0!10
0!11
0!12
0!13
0!14
0!15
0!16
0!17
#521
1!1
0!2
0!3
0!4
0!5
0!6
0!7
0!8
0!9
0!10
0!11
0!12
0!13
0!14
0!15
0!16
0!17
#522
1!1
0!2
0!3
0!4
0!5
0!6
0!7
0!8
0!9
0!10
0!11
0!12
0!13
0!14
0!15
0!16
0!17
#523
1!1
0!2
0!3
0!4
0!5
0!6
0!7
0!8
0!9
0!10
0!11
0!12
0!13
0!14
0!15
0!16
0!17
#524
1!1
0!2
0!3
0!4
0!5
0!6
0!7
0!8
0!9
0!10
0!11
0!12
0!13
0!14
0!15
0!16
0!17
#525
1!1
0!2
0!3
0!4
1!5
0!6
0!7
0!8
0!9
0!10
0!11
0!12
0!13
0!14
0!15
0!16
0!17
#526
1!1
0!2
0!3
0!4
0!5
0!6
0!7
0!8
0!9
0!10
0!11
0!12
0!13
0!14
0!15
0!16
0!17
#527
1!1
0!2
0!3
0!4
0!5
0!6
0!7
0!8
0!9
0!10
0!11
0!12
0!13
0!14
0!15
0!16
0!17
#528
1!1
0!2
0!3
0!4
0!5
0!6
0!7
0!8
0!9
0!10
0!11
0!12
0!13
0!14
0!15
0!16
0!17
#529
1!1
0!2
0!3
1!4
0!5
0!6
0!7
0!8
0!9
0!10
0!11
0!12
0!13
0!14
0!15
0!16
0!17
#530
1!1
0!2
0!3
0!4
1!5
0!6
0!7
0!8
0!9
0!10
0!11
0!12
0!13
0!14
0!15
0!16
0!17
#531
1!1
0!2
0!3
0!4
0!5
0!6
0!7
0!8
0!9
0!10
0!11
0!12
0!13
0!14
0!15
0!16
0!17
#532
1!1
0!2
0!3
0!4
0!5
0!6
0!7
0!8
0!9
0!10
0!11
0!12
0!13
0!14
0!15
0!16
0!17
#533
1!1
0!2
0!3
0!4
0!5
0!6
0!7
0!8
0!9
0!10
0!11
0!12
0!13
0!14
0!15
0!16
0!17
#534
1!1
1!2
0!3
0!4
0!5
0!6
0!7
0!8
0!9
0!10
0!11
0!12
0!13
0!14
0!15
0!16
0!17
#535
1!1
0!2
0!3
0!4
0!5
0!6
0!7
0!8
0!9
0!10
0!11
0!12
0!13
0!14
0!15
0!16
0!17
#536
1!1
0!2
0!3
0!4
0!5
0!6
0!7
0!8
0!9
0!10
0!11
0!12
0!13
0!14
0!15
0!16
0!17
#537
1!1
0!2
0!3
0!4
0!5
0!6
0!7
0!8
0!9
0!10
0!11
0!12
0!13
0!14
0!15
0!16
0!17
#538
1!1
0!2
0!3
0!4
0!5
0!6
0!7
0!8
0!9
0!10
0!11
0!12
0!13
0!14
0!15
0!16
0!17
#539
1!1
0!2
0!3
0!4
0!5
0!6
0!7
0!8
0!9
0!10
0!11
0!12
0!13
0!14
0!15
0!16
0!17
#540
1!1
0!2
0!3
0!4
0!5
0!6
0!7
0!8
0!9
0!10
0!11
0!12
0!13
0!14
0!15
0!16
0!17
#541
1!1
0!2
0!3
0!4
0!5
0!6
0!7
0!8
0!9
0!10
0!11
0!12
0!13
0!14
0!15
0!16
0!17
#542
1!1
0!2
0!3
0!4
0!5
0!6
0!7
0!8
0!9
0!10
0!11
0!12
0!13
0!14
0!15
0!16
0!17
#543
1!1
0!2
0!3
0!4
0!5
0!6
0!7
0!8
0!9
0!10
0!11
0!12
0!13
0!14
0!15
0!16
0!17
#544
1!1
0!2
0!3
0!4
0!5
0!6
0!7
0!8
0!9
0!10
0!11
0!12
0!13
0!14
0!15
0!16
0!17
#545
1!1
0!2
0!3
0!4
0!5
0!6
0!7
0!8
0!9
0!10
0!11
0!12
0!13
0!14
0!15
0!16
0!17
#546
1!1
0!2
0!3
0!4
0!5
0!6
0!7
0!8
0!9
0!10
0!11
0!12
0!13
0!14
0!15
0!16
0!17
#547
1!1
0!2
0!3
0!4
0!5
0!6
0!7
0!8
0!9
0!10
0!11
0!12
0!13
0!14
0!15
0!16
0!17
#548
1!1
0!2
0!3
0!4
0!5
0!6
0!7
0!8
0!9
0!10
0!11
0!12
0!13
0!14
0!15
0!16
0!17
#549
1!1
0!2
0!3
0!4
0!5
0!6
0!7
0!8
0!9
0!10
0!11
0!12
0!13
0!14
0!15
0!16
0!17
#550
1!1
0!2
0!3
0!4
0!5
0!6
0!7
0!8
0!9
0!10
0!11
0!12
0!13
0!14
0!15
0!16
0!17
#551
1!1
0!2
0!3
0!4
0!5
0!6
0!7
0!8
0!9
0!10
0!11
0!12
0!13
0!14
0!15
0!16
0!17
#552
1!1
0!2
0!3
0!4
0!5
0!6
0!7
0!8
0!9
0!10
0!11
0!12
0!13
0!14
0!15
0!16
0!17
#553
1!1
0!2
0!3
0!4
0!5
0!6
0!7
0!8
0!9
0!10
0!11
0!12
0!13
0!14
0!15
0!16
0!17
#554
1!1
0!2
0!3
0!4
0!5
0!6
0!7
0!8
0!9
0!10
0!11
0!12
0!13
0!14
0!15
0!16
0!17
#555
1!1
0!2
0!3
0!4
0!5
0!6
0!7
0!8
0!9
0!10
0!11
0!12
0!13
0!14
0!15
0!16
0!17
#556
1!1
0!2
0!3
0!4
0!5
0!6
0!7
0!8
0!9
0!10
0!11
0!12
0!13
0!14
0!15
0!16
0!17
#557
1!1
0!2
0!3
0!4
0!5
0!6
0!7
0!8
0!9
0!10
0!11
0!12
0!13
0!14
0!15
0!16
0!17
#558
1!1
0!2
0!3
0!4
0!5
0!6
0!7
0!8
0!9
0!10
0!11
0!12
0!13
0!14
0!15
0!16
0!17
#559
1!1
0!2
0!3
0!4
0!5
0!6
0!7
0!8
0!9
0!10
0!11
0!12
0!13
0!14
0!15
0!16
0!17
#560
1!1
0!2
0!3
0!4
0!5
0!6
0!7
0!8
0!9
0!10
0!11
0!12
0!13
0!14
0!15
0!16
0!17
#561
1!1
0!2
0!3
0!4
0!5
0!6
0!7
0!8
0!9
0!10
0!11
0!12
0!13
0!14
0!15
0!16
0!17
#562
1!1
0!2
0!3
0!4
0!5
0!6
0!7
0!8
0!9
0!10
0!11
0!12
0!13
0!14
0!15
0!16
0!17
#563
1!1
0!2
0!3
0!4
0!5
0!6
0!7
0!8
0!9
0!10
0!11
0!12
0!13
0!14
0!15
0!16
0!17
#564
1!1
0!2
0!3
0!4
0!5
0!6
0!7
0!8
0!9
0!10
0!11
0!12
0!13
0!14
0!15
0!16
0!17
#565
1!1
0!2
0!3
0!4
0!5
0!6
0!7
0!8
0!9
0!10
0!11
0!12
0!13
0!14
0!15
0!16
0!17
#566
1!1
0!2
0!3
0!4
0!5
0!6
0!7
0!8
0!9
0!10
0!11
0!12
0!13
0!14
0!15
0!16
0!17
#567
1!1
0!2
0!3
0!4
0!5
0!6
0!7
0!8
0!9
0!10
0!11
0!12
0!13
0!14
0!15
0!16
0!17
#568
1!1
0!2
0!3
0!4
0!5
0!6
0!7
0!8
0!9
0!10
0!11
0!12
0!13
0!14
0!15
0!16
0!17
#569
1!1
0!2
0!3
0!4
0!5
0!6
0!7
0!8
0!9
0!10
0!11
0!12
0!13
0!14
0!15
0!16
0!17
#570
1!1
0!2
0!3
0!4
0!5
0!6
0!7
0!8
0!9
0!10
0!11
0!12
0!13
0!14
0!15
0!16
0!17
#571
1!1
0!2
0!3
0!4
0!5
0!6
0!7
0!8
0!9
0!10
0!11
0!12
0!13
0!14
0!15
0!16
0!17
#572
1!1
0!2
0!3
0!4
0!5
0!6
0!7
0!8
0!9
0!10
0!11
0!12
0!13
0!14
0!15
0!16
0!17
#573
1!1
0!2
0!3
0!4
0!5
0!6
0!7
0!8
0!9
0!10
0!11
0!12
0!13
0!14
0!15
0!16
0!17
#574
1!1
0!2
0!3
0!4
0!5
0!6
0!7
0!8
0!9
0!10
0!11
0!12
0!13
0!14
0!15
0!16
0!17
#575
1!1
0!2
0!3
0!4
0!5
0!6
0!7
0!8
0!9
0!10
0!11
0!12
0!13
0!14
0!15
0!16
0!17
#576
1!1
0!2
0!3
0!4
0!5
0!6
0!7
0!8
0!9
0!10
0!11
0!12
0!13
0!14
0!15
0!16
0!17
#577
1!1
0!2
0!3
0!4
0!5
0!6
0!7
0!8
0!9
0!10
0!11
0!12
0!13
0!14
0!15
0!16
0!17
#578
1!1
0!2
0!3
0!4
0!5
0!6
0!7
0!8
0!9
0!10
0!11
0!12
0!13
0!14
0!15
0!16
0!17
#579
1!1
0!2
0!3
0!4
0!5
0!6
0!7
0!8
0!9
0!10
0!11
0!12
0!13
0!14
0!15
0!16
0!17
#580
1!1
0!2
0!3
0!4
0!5
0!6
0!7
0!8
0!9
0!10
0!11
0!12
0!13
0!14
0!15
0!16
0!17
#581
1!1
0!2
0!3
0!4
0!5
0!6
0!7
0!8
0!9
0!10
0!11
0!12
0!13
0!14
0!15
0!16
0!17
#582
1!1
0!2
0!3
0!4
0!5
0!6
0!7
0!8
0!9
0!10
0!11
0!12
0!13
0!14
0!15
0!16
0!17
#583
1!1
0!2
0!3
0!4
0!5
0!6
0!7
0!8
0!9
0!10
0!11
0!12
0!13
0!14
0!15
0!16
0!17
#584
1!1
0!2
0!3
0!4
0!5
0!6
0!7
0!8
0!9
0!10
0!11
0!12
0!13
0!14
0!15
0!16
0!17
#585
1!1
0!2
0!3
0!4
0!5
0!6
0!7
0!8
0!9
0!10
0!11
0!12
0!13
0!14
0!15
0!16
0!17
#586
1!1
0!2
0!3
0!4
0!5
0!6
0!7
0!8
0!9
0!10
0!11
0!12
0!13
0!14
0!15
0!16
0!17
#587
1!1
0!2
0!3
0!4
0!5
0!6
0!7
0!8
0!9
0!10
0!11
0!12
0!13
0!14
0!15
0!16
0!17
#588
1!1
0!2
0!3
0!4
0!5
0!6
0!7
0!8
0!9
0!10
0!11
0!12
0!13
0!14
0!15
0!16
0!17
#589
1!1
0!2
0!3
0!4
0!5
0!6
0!7
0!8
0!9
0!10
0!11
0!12
0!13
0!14
0!15
0!16
0!17
#590
1!1
0!2
0!3
0!4
0!5
0!6
0!7
0!8
0!9
0!10
0!11
0!12
0!13
0!14
0!15
0!16
0!17
#591
1!1
0!2
0!3
0!4
0!5
0!6
0!7
0!8
0!9
0!10
0!11
0!12
0!13
0!14
0!15
0!16
0!17
#592
1!1
0!2
0!3
0!4
0!5
0!6
0!7
0!8
0!9
0!10
0!11
0!12
0!13
0!14
0!15
0!16
0!17
#593
1!1
0!2
0!3
0!4
0!5
0!6
0!7
0!8
0!9
0!10
0!11
0!12
0!13
0!14
0!15
0!16
0!17
#594
1!1
0!2
0!3
0!4
0!5
0!6
0!7
0!8
0!9
0!10
0!11
0!12
0!13
0!14
0!15
0!16
0!17
#595
1!1
0!2
0!3
0!4
0!5
0!6
0!7
0!8
0!9
0!10
0!11
0!12
0!13
0!14
0!15
0!16
0!17
#596
1!1
0!2
0!3
0!4
0!5
0!6
0!7
0!8
0!9
0!10
0!11
0!12
0!13
0!14
0!15
0!16
0!17
#597
1!1
0!2
0!3
0!4
0!5
0!6
0!7
0!8
0!9
0!10
0!11
0!12
0!13
0!14
0!15
0!16
0!17
#598
1!1
0!2
0!3
0!4
0!5
0!6
0!7
0!8
0!9
0!10
0!11
0!12
0!13
0!14
0!15
0!16
0!17
#599
1!1
0!2
0!3
0!4
0!5
0!6
0!7
0!8
0!9
0!10
0!11
0!12
0!13
0!14
0!15
0!16
0!17
#600
1!1
0!2
0!3
0!4
0!5
0!6
0!7
0!8
0!9
0!10
0!11
0!12
0!13
0!14
0!15
0!16
0!17
#601
1!1
0!2
0!3
0!4
0!5
0!6
0!7
0!8
0!9
0!10
0!11
0!12
0!13
0!14
0!15
0!16
0!17
#602
1!1
0!2
0!3
0!4
0!5
0!6
0!7
0!8
0!9
0!10
0!11
0!12
0!13
0!14
0!15
0!16
0!17
#603
1!1
0!2
0!3
0!4
0!5
0!6
0!7
0!8
0!9
0!10
0!11
0!12
0!13
0!14
0!15
0!16
0!17
#604
1!1
0!2
0!3
0!4
0!5
0!6
0!7
0!8
0!9
0!10
0!11
0!12
0!13
0!14
0!15
0!16
0!17
#605
1!1
0!2
0!3
0!4
0!5
0!6
0!7
0!8
0!9
0!10
0!11
0!12
0!13
0!14
0!15
0!16
0!17
#606
1!1
0!2
0!3
0!4
0!5
0!6
0!7
0!8
0!9
0!10
0!11
0!12
0!13
0!14
0!15
0!16
0!17
#607
1!1
0!2
0!3
0!4
0!5
0!6
0!7
0!8
0!9
0!10
0!11
0!12
0!13
0!14
0!15
0!16
0!17
#608
1!1
0!2
0!3
0!4
0!5
0!6
0!7
0!8
0!9
0!10
0!11
0!12
0!13
0!14
0!15
0!16
0!17
#609
1!1
0!2
0!3
0!4
0!5
0!6
0!7
0!8
0!9
0!10
0!11
0!12
0!13
0!14
0!15
0!16
0!17
#610
1!1
0!2
0!3
0!4
0!5
0!6
0!7
0!8
0!9
0!10
0!11
0!12
0!13
0!14
0!15
0!16
0!17
#611
1!1
0!2
0!3
0!4
0!5
0!6
0!7
0!8
0!9
0!10
0!11
0!12
0!13
0!14
0!15
0!16
0!17
#612
1!1
0!2
0!3
0!4
0!5
0!6
0!7
0!8
0!9
0!10
0!11
0!12
0!13
0!14
0!15
0!16
0!17
#613
1!1
0!2
0!3
0!4
0!5
0!6
0!7
0!8
0!9
0!10
0!11
0!12
0!13
0!14
0!15
0!16
0!17
#614
1!1
0!2
0!3
0!4
0!5
0!6
0!7
0!8
0!9
0!10
0!11
0!12
0!13
0!14
0!15
0!16
0!17
#615
1!1
0!2
0!3
0!4
0!5
0!6
0!7
0!8
0!9
0!10
0!11
0!12
0!13
0!14
0!15
0!16
0!17
#616
1!1
0!2
0!3
0!4
0!5
0!6
0!7
0!8
0!9
0!10
0!11
0!12
0!13
0!14
0!15
0!16
0!17
#617
1!1
0!2
0!3
0!4
0!5
0!6
0!7
0!8
0!9
0!10
0!11
0!12
0!13
0!14
0!15
0!16
0!17
#618
1!1
0!2
0!3
0!4
0!5
0!6
0!7
0!8
0!9
0!10
0!11
0!12
0!13
0!14
0!15
0!16
0!17
#619
1!1
0!2
0!3
0!4
0!5
0!6
0!7
0!8
0!9
0!10
0!11
0!12
0!13
0!14
0!15
0!16
0!17
#620
1!1
0!2
0!3
0!4
0!5
0!6
0!7
0!8
0!9
0!10
0!11
0!12
0!13
0!14
0!15
0!16
0!17
#621
1!1
0!2
0!3
0!4
0!5
0!6
0!7
0!8
0!9
0!10
0!11
0!12
0!13
0!14
0!15
0!16
0!17
#622
1!1
0!2
0!3
0!4
0!5
0!6
0!7
0!8
0!9
0!10
0!11
0!12
0!13
0!14
0!15
0!16
0!17
#623
1!1
0!2
0!3
0!4
0!5
0!6
0!7
0!8
0!9
0!10
0!11
0!12
0!13
0!14
0!15
0!16
0!17
#624
1!1
0!2
0!3
0!4
0!5
0!6
0!7
0!8
0!9
0!10
0!11
0!12
0!13
0!14
0!15
0!16
0!17
#625
1!1
0!2
0!3
0!4
0!5
0!6
0!7
0!8
0!9
0!10
0!11
0!12
0!13
0!14
0!15
0!16
0!17
#626
1!1
0!2
0!3
0!4
0!5
0!6
0!7
0!8
0!9
0!10
0!11
0!12
0!13
0!14
0!15
0!16
0!17
#627
1!1
0!2
0!3
0!4
0!5
0!6
0!7
0!8
0!9
0!10
0!11
0!12
0!13
0!14
0!15
0!16
0!17
#628
1!1
0!2
0!3
0!4
0!5
0!6
0!7
0!8
0!9
0!10
0!11
0!12
0!13
0!14
0!15
0!16
0!17
#629
1!1
0!2
0!3
0!4
0!5
0!6
0!7
0!8
0!9
0!10
0!11
0!12
0!13
0!14
0!15
0!16
0!17
#630
1!1
0!2
0!3
0!4
0!5
0!6
0!7
0!8
0!9
0!10
0!11
0!12
0!13
0!14
0!15
0!16
0!17
#631
1!1
0!2
0!3
0!4
0!5
0!6
0!7
0!8
0!9
0!10
0!11
0!12
0!13
0!14
0!15
0!16
0!17
#632
1!1
0!2
0!3
0!4
0!5
0!6
0!7
0!8
0!9
0!10
0!11
0!12
0!13
0!14
0!15
0!16
0!17
#633
1!1
0!2
0!3
0!4
0!5
0!6
0!7
0!8
0!9
0!10
0!11
0!12
0!13
0!14
0!15
0!16
0!17
