$date 
Wed May 17 10:02:40 CEST 2017
$end

$version 
VCD Generation 2.1.0
$end

$comment alias newfile__main__delayedTest "newfile::main::delayedTest" $end
$comment hide newfile__main__delayedTest__DelayForDef__DelayFor_defer $end
$comment alias newfile__main__delayedTest__DelayForDef__DelayFor_defer "newfile::main::delayedTest::DelayForDef::DelayFor_defer" $end
$comment alias newfile__main__globalClock "newfile::main::globalClock" $end
$comment alias newfile__main__test "newfile::main::test" $end
$comment scale 0.1  $end
$comment relation   "newfile2017_0517_100240.ccslrelationmodel" $end
$comment xmi  newfile__main__globalClock "newfile2017_0517_100240.trace#//@references.0" $end
$comment xmi  newfile__main__test "newfile2017_0517_100240.trace#//@references.1" $end
$comment xmi  newfile__main__delayedTest "newfile2017_0517_100240.trace#//@references.2" $end
$comment xmi  newfile__main__delayedTest__DelayForDef__DelayFor_defer "newfile2017_0517_100240.trace#//@references.3" $end
$scope module top $end
$var event 1 !1 newfile__main__delayedTest $end
$var event 1 !2 newfile__main__delayedTest__DelayForDef__DelayFor_defer $end
$var event 1 !3 newfile__main__globalClock $end
$var event 1 !4 newfile__main__test $end
$upscope $end
$enddefinitions $end

#0
1!3
#10
1!3
#20
1!3
#30
1!3
#40
1!3
#50
1!3
#60
1!3
#70
1!3
#80
1!3
#90
1!3
#100
1!3
#110
1!3
#120
1!3
#130
1!3
#140
1!3
#150
1!3
#160
1!3
#170
1!3
#180
1!3
#190
1!3
#200
1!3
#210
1!3
#220
1!3
#230
1!3
#240
1!3
#250
1!3
#260
1!3
#270
1!3
#280
1!3
#290
1!3
#300
1!3
#310
1!3
#320
1!3
#330
1!3
#340
1!3
#350
1!3
#360
1!3
#370
1!3
#380
1!3
#390
1!3
#400
1!3
#410
1!3
#420
1!3
#430
1!3
#440
1!3
#450
1!3
#460
1!3
#470
1!3
#480
1!3
#490
1!3
#500
1!3
#510
1!3
#520
1!3
#530
1!3
#540
1!3
#550
1!3
#560
1!3
#570
1!3
#580
1!3
#590
1!3
#600
1!3
#610
1!3
#620
1!3
#630
1!3
#640
1!3
#650
1!3
#660
1!3
#670
1!3
#680
1!3
#690
1!3
#700
1!3
#710
1!3
#720
1!3
#730
1!3
#740
1!3
#750
1!3
#760
1!3
#770
1!3
#780
1!3
#790
1!3
#800
1!3
#810
1!3
#820
1!3
#830
1!3
#840
1!3
#850
1!3
#860
1!3
#870
1!3
#880
1!3
#890
1!3
#900
1!3
#910
1!3
#920
1!3
#930
1!3
#940
1!3
#950
1!3
#960
1!3
#970
1!3
#980
1!3
#990
1!3
#1000
z!1
z!2
z!3
z!4
