$date 
Mon Jun 05 01:02:07 CEST 2017
$end

$version 
VCD Generation 2.1.0
$end

$comment hide DelayFor_defer $end
$comment hide PeriodicOffsetPDef_concatOffsetPeriod $end
$comment hide PeriodicOffsetPDef_waitPeriod $end
$comment scale 0.1  $end
$comment relation   "model2017_0605_010206.ccslrelationmodel" $end
$comment xmi  MSDSpec_0_globalTime "model2017_0605_010206.trace#//@references.0" $end
$comment xmi  emcyBrakeWarning_3_oneEvent "model2017_0605_010206.trace#//@references.1" $end
$comment xmi  assumption_obstacle_13_receive "model2017_0605_010206.trace#//@references.2" $end
$comment xmi  emcyBraking_2_objSysReceive "model2017_0605_010206.trace#//@references.3" $end
$comment xmi  obstacle_4_objSysSend "model2017_0605_010206.trace#//@references.4" $end
$comment xmi  req_obstacle_14_taskComplete "model2017_0605_010206.trace#//@references.5" $end
$comment xmi  obstacle_4_objSysReceive "model2017_0605_010206.trace#//@references.6" $end
$comment xmi  req_obstacle_14_send "model2017_0605_010206.trace#//@references.7" $end
$comment xmi  emcyBrakeWarning_3_objSysConsume "model2017_0605_010206.trace#//@references.8" $end
$comment xmi  req_emcyBrakeWarning_12_receive "model2017_0605_010206.trace#//@references.9" $end
$comment xmi  req_emcyBraking_10_taskStart "model2017_0605_010206.trace#//@references.10" $end
$comment xmi  emcyBraking_2_objSysSend "model2017_0605_010206.trace#//@references.11" $end
$comment xmi  emcyBraking_2_oneEvent "model2017_0605_010206.trace#//@references.12" $end
$comment xmi  emcyBraking_2_objSysTaskComplete "model2017_0605_010206.trace#//@references.13" $end
$comment xmi  enableBraking_1_objSysSend "model2017_0605_010206.trace#//@references.14" $end
$comment xmi  PU2_8_dispatch "model2017_0605_010206.trace#//@references.15" $end
$comment xmi  req_enableBraking_11_receive "model2017_0605_010206.trace#//@references.16" $end
$comment xmi  req_emcyBrakeWarning_12_taskStart "model2017_0605_010206.trace#//@references.17" $end
$comment xmi  req_emcyBrakeWarning_12_consume "model2017_0605_010206.trace#//@references.18" $end
$comment xmi  req_emcyBraking_10_taskComplete "model2017_0605_010206.trace#//@references.19" $end
$comment xmi  emcyBrakeWarning_3_objSysTaskComplete "model2017_0605_010206.trace#//@references.20" $end
$comment xmi  enableBraking_1_objSysTaskStart "model2017_0605_010206.trace#//@references.21" $end
$comment xmi  enableBraking_1_objSysReceive "model2017_0605_010206.trace#//@references.22" $end
$comment xmi  obstacle_4_objSysConsume "model2017_0605_010206.trace#//@references.23" $end
$comment xmi  PU1_9_dispatch "model2017_0605_010206.trace#//@references.24" $end
$comment xmi  emcyBrakeWarning_3_objSysSend "model2017_0605_010206.trace#//@references.25" $end
$comment xmi  obstacle_4_objSysTaskComplete "model2017_0605_010206.trace#//@references.26" $end
$comment xmi  enableBraking_1_objSysTaskComplete "model2017_0605_010206.trace#//@references.27" $end
$comment xmi  req_obstacle_14_receive "model2017_0605_010206.trace#//@references.28" $end
$comment xmi  assumption_obstacle_13_send "model2017_0605_010206.trace#//@references.29" $end
$comment xmi  emcyBraking_2_objSysTaskStart "model2017_0605_010206.trace#//@references.30" $end
$comment xmi  req_obstacle_14_taskStart "model2017_0605_010206.trace#//@references.31" $end
$comment xmi  req_emcyBraking_10_send "model2017_0605_010206.trace#//@references.32" $end
$comment xmi  assumption_obstacle_13_taskStart "model2017_0605_010206.trace#//@references.33" $end
$comment xmi  enableBraking_1_objSysConsume "model2017_0605_010206.trace#//@references.34" $end
$comment xmi  emcyBrakeWarning_3_objSysTaskStart "model2017_0605_010206.trace#//@references.35" $end
$comment xmi  assumption_obstacle_13_consume "model2017_0605_010206.trace#//@references.36" $end
$comment xmi  assumption_obstacle_13_taskComplete "model2017_0605_010206.trace#//@references.37" $end
$comment xmi  req_obstacle_14_consume "model2017_0605_010206.trace#//@references.38" $end
$comment xmi  req_enableBraking_11_taskStart "model2017_0605_010206.trace#//@references.39" $end
$comment xmi  req_emcyBrakeWarning_12_send "model2017_0605_010206.trace#//@references.40" $end
$comment xmi  obstacle_4_oneEvent "model2017_0605_010206.trace#//@references.41" $end
$comment xmi  obstacle_4_objSysTaskStart "model2017_0605_010206.trace#//@references.42" $end
$comment xmi  neighborTbl_5_acquireRes "model2017_0605_010206.trace#//@references.43" $end
$comment xmi  comConnection_6_acquireCon "model2017_0605_010206.trace#//@references.44" $end
$comment xmi  req_enableBraking_11_send "model2017_0605_010206.trace#//@references.45" $end
$comment xmi  req_enableBraking_11_taskComplete "model2017_0605_010206.trace#//@references.46" $end
$comment xmi  enableBraking_1_oneEvent "model2017_0605_010206.trace#//@references.47" $end
$comment xmi  req_emcyBraking_10_consume "model2017_0605_010206.trace#//@references.48" $end
$comment xmi  sharedMem_7_acquireCon "model2017_0605_010206.trace#//@references.49" $end
$comment xmi  req_emcyBrakeWarning_12_taskComplete "model2017_0605_010206.trace#//@references.50" $end
$comment xmi  req_emcyBraking_10_receive "model2017_0605_010206.trace#//@references.51" $end
$comment xmi  emcyBraking_2_objSysConsume "model2017_0605_010206.trace#//@references.52" $end
$comment xmi  req_enableBraking_11_consume "model2017_0605_010206.trace#//@references.53" $end
$comment xmi  emcyBrakeWarning_3_objSysReceive "model2017_0605_010206.trace#//@references.54" $end
$comment xmi  PU2_8intermediate_relTaskComplete1 "model2017_0605_010206.trace#//@references.57" $end
$comment xmi  PU2_8intermediate_relTaskStarts1 "model2017_0605_010206.trace#//@references.58" $end
$comment xmi  enableBraking_1_DelayFor_sendDelayedByMax "model2017_0605_010206.trace#//@references.59" $end
$comment xmi  emcyBraking_2_DelayFor_sendDelayedByMax_e2e "model2017_0605_010206.trace#//@references.60" $end
$comment xmi  emcyBrakeWarning_3_DelayFor_sendDelayedByMin_e2e "model2017_0605_010206.trace#//@references.62" $end
$comment xmi  emcyBraking_2_Union_unionEvts "model2017_0605_010206.trace#//@references.64" $end
$comment xmi  req_obstacle_14intermediate_deactivate3 "model2017_0605_010206.trace#//@references.66" $end
$comment xmi  emcyBraking_2intermediate_oneRelTaskStartClock1 "model2017_0605_010206.trace#//@references.67" $end
$comment xmi  enableBraking_1_Union_unionEvts "model2017_0605_010206.trace#//@references.68" $end
$comment xmi  obstacle_4_Union_unionEvts "model2017_0605_010206.trace#//@references.69" $end
$comment xmi  obstacle_4intermediate_acquireAllResources1 "model2017_0605_010206.trace#//@references.70" $end
$comment xmi  emcyBrakeWarning_3intermediate_oneRelConsumeClock1 "model2017_0605_010206.trace#//@references.71" $end
$comment xmi  req_obstacle_14intermediate_deactivate23 "model2017_0605_010206.trace#//@references.72" $end
$comment xmi  obstacle_4_DelayFor_taskStartDelayedByMax "model2017_0605_010206.trace#//@references.73" $end
$comment xmi  AssumptionEmcyBake_30_PeriodicOffsetP_periodicActivation_sMin "model2017_0605_010206.trace#//@references.75" $end
$comment xmi  enableBraking_1_DelayFor_receiveDelayedByMin "model2017_0605_010206.trace#//@references.76" $end
$comment xmi  emcyBrakeWarning_3intermediate_oneRelSendClock1 "model2017_0605_010206.trace#//@references.77" $end
$comment xmi  req_obstacle_14intermediate_deactivate53 "model2017_0605_010206.trace#//@references.79" $end
$comment xmi  enableBraking_1intermediate_oneRelTaskCompleteClock1 "model2017_0605_010206.trace#//@references.80" $end
$comment xmi  emcyBraking_2intermediate_oneRelConsumeClock1 "model2017_0605_010206.trace#//@references.81" $end
$comment xmi  obstacle_4intermediate_oneRelTaskStartClock1 "model2017_0605_010206.trace#//@references.82" $end
$comment xmi  PU1_9intermediate_relTaskComplete1 "model2017_0605_010206.trace#//@references.83" $end
$comment xmi  req_obstacle_14intermediate_deactivate41 "model2017_0605_010206.trace#//@references.84" $end
$comment xmi  obstacle_4intermediate_oneRelTaskCompleteClock1 "model2017_0605_010206.trace#//@references.85" $end
$comment xmi  emcyBraking_2intermediate_oneRelReceiveClock1 "model2017_0605_010206.trace#//@references.86" $end
$comment xmi  neighborTbl_5intermediate_taskCompleteEvts1 "model2017_0605_010206.trace#//@references.88" $end
$comment xmi  enableBraking_1_DelayFor_sendDelayedByMin "model2017_0605_010206.trace#//@references.89" $end
$comment xmi  timeConstraint_27intermediate_activationmsgReceive_upperE_s1 "model2017_0605_010206.trace#//@references.90" $end
$comment xmi  enableBraking_1intermediate_oneRelReceiveClock1 "model2017_0605_010206.trace#//@references.91" $end
$comment xmi  req_obstacle_14intermediate_deactivate43 "model2017_0605_010206.trace#//@references.92" $end
$comment xmi  EmcyBrakeTriggeringLeadingVehicle_29intermediate_oneAssumptionMsgSend1 "model2017_0605_010206.trace#//@references.93" $end
$comment xmi  obstacle_4intermediate_oneRelConsumeClock1 "model2017_0605_010206.trace#//@references.94" $end
$comment xmi  obstacle_4_DelayFor_taskStartDelayedByMin "model2017_0605_010206.trace#//@references.95" $end
$comment xmi  emcyBrakeWarning_3intermediate_oneRelTaskCompleteClock1 "model2017_0605_010206.trace#//@references.96" $end
$comment xmi  PeriodicOffsetPDef_concatOffsetPeriod "model2017_0605_010206.trace#//@references.97" $end
$comment xmi  emcyBrakeWarning_3intermediate_oneRelReceiveClock1 "model2017_0605_010206.trace#//@references.99" $end
$comment xmi  req_obstacle_14intermediate_deactivate21 "model2017_0605_010206.trace#//@references.100" $end
$comment xmi  neighborTbl_5intermediate_startTaskEvts1 "model2017_0605_010206.trace#//@references.101" $end
$comment xmi  timeConstraint_27intermediate_constrainedTaskCompletions_upperE_s3 "model2017_0605_010206.trace#//@references.102" $end
$comment xmi  enableBraking_1_DelayFor_receiveDelayedByMax "model2017_0605_010206.trace#//@references.103" $end
$comment xmi  comConnection_6intermediate_receiveEvts1 "model2017_0605_010206.trace#//@references.104" $end
$comment xmi  enableBraking_1_DelayFor_taskStartDelayedByMax "model2017_0605_010206.trace#//@references.105" $end
$comment xmi  timeConstraint_27intermediate_constrainedTaskCompletions_upperE_s1 "model2017_0605_010206.trace#//@references.106" $end
$comment xmi  obstacle_4intermediate_oneRelReceiveClock1 "model2017_0605_010206.trace#//@references.107" $end
$comment xmi  PeriodicOffsetPDef_waitPeriod "model2017_0605_010206.trace#//@references.108" $end
$comment xmi  enableBraking_1_DelayFor_taskStartDelayedByMin "model2017_0605_010206.trace#//@references.110" $end
$comment xmi  emcyBrakeWarning_3intermediate_oneRelTaskStartClock1 "model2017_0605_010206.trace#//@references.111" $end
$comment xmi  comConnection_6intermediate_lu_sendEvts1 "model2017_0605_010206.trace#//@references.112" $end
$comment xmi  req_obstacle_14intermediate_deactivate1 "model2017_0605_010206.trace#//@references.113" $end
$comment xmi  DelayFor_defer "model2017_0605_010206.trace#//@references.116" $end
$comment xmi  req_obstacle_14intermediate_deactivate51 "model2017_0605_010206.trace#//@references.117" $end
$comment xmi  emcyBraking_2intermediate_oneRelSendClock1 "model2017_0605_010206.trace#//@references.118" $end
$comment xmi  emcyBraking_2intermediate_oneRelTaskCompleteClock1 "model2017_0605_010206.trace#//@references.119" $end
$comment xmi  emcyBrakeWarning_3_DelayFor_sendDelayedByMax_e2e "model2017_0605_010206.trace#//@references.120" $end
$comment xmi  req_obstacle_14intermediate_deactivate33 "model2017_0605_010206.trace#//@references.121" $end
$comment xmi  PU1_9intermediate_relTaskStarts1 "model2017_0605_010206.trace#//@references.122" $end
$comment xmi  enableBraking_1intermediate_oneRelSendClock1 "model2017_0605_010206.trace#//@references.123" $end
$comment xmi  emcyBrakeWarning_3_Union_unionEvts "model2017_0605_010206.trace#//@references.124" $end
$comment xmi  obstacle_4intermediate_oneRelSendClock1 "model2017_0605_010206.trace#//@references.125" $end
$comment xmi  enableBraking_1intermediate_oneRelConsumeClock1 "model2017_0605_010206.trace#//@references.126" $end
$comment xmi  emcyBraking_2_DelayFor_sendDelayedByMin_e2e "model2017_0605_010206.trace#//@references.127" $end
$comment xmi  timeConstraint_27_DelayFor_stimulusDelayedExpression_e2e_sE_s "model2017_0605_010206.trace#//@references.128" $end
$comment xmi  req_obstacle_14intermediate_deactivate31 "model2017_0605_010206.trace#//@references.129" $end
$comment xmi  enableBraking_1intermediate_oneRelTaskStartClock1 "model2017_0605_010206.trace#//@references.130" $end
$scope module top $end
$var event 1 !1 MSDSpec_0_globalTime $end
$var event 1 !2 enableBraking_1_DelayFor_receiveDelayedByMax $end
$var event 1 !3 enableBraking_1_DelayFor_receiveDelayedByMin $end
$var event 1 !4 enableBraking_1_DelayFor_sendDelayedByMax $end
$var event 1 !5 enableBraking_1_DelayFor_sendDelayedByMin $end
$var event 1 !6 enableBraking_1_DelayFor_taskStartDelayedByMax $end
$var event 1 !7 enableBraking_1_DelayFor_taskStartDelayedByMin $end
$var event 1 !8 enableBraking_1_Union_unionEvts $end
$var event 1 !9 enableBraking_1_objSysConsume $end
$var event 1 !10 enableBraking_1_objSysReceive $end
$var event 1 !11 enableBraking_1_objSysSend $end
$var event 1 !12 enableBraking_1_objSysTaskComplete $end
$var event 1 !13 enableBraking_1_objSysTaskStart $end
$var event 1 !14 enableBraking_1_oneEvent $end
$var event 1 !15 enableBraking_1intermediate_oneRelConsumeClock1 $end
$var event 1 !16 enableBraking_1intermediate_oneRelReceiveClock1 $end
$var event 1 !17 enableBraking_1intermediate_oneRelSendClock1 $end
$var event 1 !18 enableBraking_1intermediate_oneRelTaskCompleteClock1 $end
$var event 1 !19 enableBraking_1intermediate_oneRelTaskStartClock1 $end
$var event 1 !20 AssumptionEmcyBake_30_PeriodicOffsetP_periodicActivation_sMin $end
$var event 1 !21 DelayFor_defer $end
$var event 1 !22 EmcyBrakeTriggeringLeadingVehicle_29intermediate_oneAssumptionMsgSend1 $end
$var event 1 !23 PU1_9_dispatch $end
$var event 1 !24 PU1_9intermediate_relTaskComplete1 $end
$var event 1 !25 PU1_9intermediate_relTaskStarts1 $end
$var event 1 !26 PU2_8_dispatch $end
$var event 1 !27 PU2_8intermediate_relTaskComplete1 $end
$var event 1 !28 PU2_8intermediate_relTaskStarts1 $end
$var event 1 !29 PeriodicOffsetPDef_concatOffsetPeriod $end
$var event 1 !30 PeriodicOffsetPDef_waitPeriod $end
$var event 1 !31 assumption_obstacle_13_consume $end
$var event 1 !32 assumption_obstacle_13_receive $end
$var event 1 !33 assumption_obstacle_13_send $end
$var event 1 !34 assumption_obstacle_13_taskComplete $end
$var event 1 !35 assumption_obstacle_13_taskStart $end
$var event 1 !36 comConnection_6_acquireCon $end
$var event 1 !37 comConnection_6intermediate_lu_sendEvts1 $end
$var event 1 !38 comConnection_6intermediate_receiveEvts1 $end
$var event 1 !39 emcyBrakeWarning_3_DelayFor_sendDelayedByMax_e2e $end
$var event 1 !40 emcyBrakeWarning_3_DelayFor_sendDelayedByMin_e2e $end
$var event 1 !41 emcyBrakeWarning_3_Union_unionEvts $end
$var event 1 !42 emcyBrakeWarning_3_objSysConsume $end
$var event 1 !43 emcyBrakeWarning_3_objSysReceive $end
$var event 1 !44 emcyBrakeWarning_3_objSysSend $end
$var event 1 !45 emcyBrakeWarning_3_objSysTaskComplete $end
$var event 1 !46 emcyBrakeWarning_3_objSysTaskStart $end
$var event 1 !47 emcyBrakeWarning_3_oneEvent $end
$var event 1 !48 emcyBrakeWarning_3intermediate_oneRelConsumeClock1 $end
$var event 1 !49 emcyBrakeWarning_3intermediate_oneRelReceiveClock1 $end
$var event 1 !50 emcyBrakeWarning_3intermediate_oneRelSendClock1 $end
$var event 1 !51 emcyBrakeWarning_3intermediate_oneRelTaskCompleteClock1 $end
$var event 1 !52 emcyBrakeWarning_3intermediate_oneRelTaskStartClock1 $end
$var event 1 !53 emcyBraking_2_DelayFor_sendDelayedByMax_e2e $end
$var event 1 !54 emcyBraking_2_DelayFor_sendDelayedByMin_e2e $end
$var event 1 !55 emcyBraking_2_Union_unionEvts $end
$var event 1 !56 emcyBraking_2_objSysConsume $end
$var event 1 !57 emcyBraking_2_objSysReceive $end
$var event 1 !58 emcyBraking_2_objSysSend $end
$var event 1 !59 emcyBraking_2_objSysTaskComplete $end
$var event 1 !60 emcyBraking_2_objSysTaskStart $end
$var event 1 !61 emcyBraking_2_oneEvent $end
$var event 1 !62 emcyBraking_2intermediate_oneRelConsumeClock1 $end
$var event 1 !63 emcyBraking_2intermediate_oneRelReceiveClock1 $end
$var event 1 !64 emcyBraking_2intermediate_oneRelSendClock1 $end
$var event 1 !65 emcyBraking_2intermediate_oneRelTaskCompleteClock1 $end
$var event 1 !66 emcyBraking_2intermediate_oneRelTaskStartClock1 $end
$var event 1 !67 neighborTbl_5_acquireRes $end
$var event 1 !68 neighborTbl_5intermediate_startTaskEvts1 $end
$var event 1 !69 neighborTbl_5intermediate_taskCompleteEvts1 $end
$var event 1 !70 obstacle_4_DelayFor_taskStartDelayedByMax $end
$var event 1 !71 obstacle_4_DelayFor_taskStartDelayedByMin $end
$var event 1 !72 obstacle_4_Union_unionEvts $end
$var event 1 !73 obstacle_4_objSysConsume $end
$var event 1 !74 obstacle_4_objSysReceive $end
$var event 1 !75 obstacle_4_objSysSend $end
$var event 1 !76 obstacle_4_objSysTaskComplete $end
$var event 1 !77 obstacle_4_objSysTaskStart $end
$var event 1 !78 obstacle_4_oneEvent $end
$var event 1 !79 obstacle_4intermediate_acquireAllResources1 $end
$var event 1 !80 obstacle_4intermediate_oneRelConsumeClock1 $end
$var event 1 !81 obstacle_4intermediate_oneRelReceiveClock1 $end
$var event 1 !82 obstacle_4intermediate_oneRelSendClock1 $end
$var event 1 !83 obstacle_4intermediate_oneRelTaskCompleteClock1 $end
$var event 1 !84 obstacle_4intermediate_oneRelTaskStartClock1 $end
$var event 1 !85 req_emcyBrakeWarning_12_consume $end
$var event 1 !86 req_emcyBrakeWarning_12_receive $end
$var event 1 !87 req_emcyBrakeWarning_12_send $end
$var event 1 !88 req_emcyBrakeWarning_12_taskComplete $end
$var event 1 !89 req_emcyBrakeWarning_12_taskStart $end
$var event 1 !90 req_emcyBraking_10_consume $end
$var event 1 !91 req_emcyBraking_10_receive $end
$var event 1 !92 req_emcyBraking_10_send $end
$var event 1 !93 req_emcyBraking_10_taskComplete $end
$var event 1 !94 req_emcyBraking_10_taskStart $end
$var event 1 !95 req_enableBraking_11_consume $end
$var event 1 !96 req_enableBraking_11_receive $end
$var event 1 !97 req_enableBraking_11_send $end
$var event 1 !98 req_enableBraking_11_taskComplete $end
$var event 1 !99 req_enableBraking_11_taskStart $end
$var event 1 !100 req_obstacle_14_consume $end
$var event 1 !101 req_obstacle_14_receive $end
$var event 1 !102 req_obstacle_14_send $end
$var event 1 !103 req_obstacle_14_taskComplete $end
$var event 1 !104 req_obstacle_14_taskStart $end
$var event 1 !105 req_obstacle_14intermediate_deactivate1 $end
$var event 1 !106 req_obstacle_14intermediate_deactivate21 $end
$var event 1 !107 req_obstacle_14intermediate_deactivate23 $end
$var event 1 !108 req_obstacle_14intermediate_deactivate3 $end
$var event 1 !109 req_obstacle_14intermediate_deactivate31 $end
$var event 1 !110 req_obstacle_14intermediate_deactivate33 $end
$var event 1 !111 req_obstacle_14intermediate_deactivate41 $end
$var event 1 !112 req_obstacle_14intermediate_deactivate43 $end
$var event 1 !113 req_obstacle_14intermediate_deactivate51 $end
$var event 1 !114 req_obstacle_14intermediate_deactivate53 $end
$var event 1 !115 sharedMem_7_acquireCon $end
$var event 1 !116 timeConstraint_27_DelayFor_stimulusDelayedExpression_e2e_sE_s $end
$var event 1 !117 timeConstraint_27intermediate_activationmsgReceive_upperE_s1 $end
$var event 1 !118 timeConstraint_27intermediate_constrainedTaskCompletions_upperE_s1 $end
$var event 1 !119 timeConstraint_27intermediate_constrainedTaskCompletions_upperE_s3 $end
$upscope $end
$enddefinitions $end

#0
1!1
1!115
#10
1!1
1!115
#20
1!1
1!115
#30
1!1
1!115
#40
1!1
1!115
#50
1!1
1!115
#60
1!1
1!115
#70
1!1
1!115
#80
1!1
1!115
#90
1!1
1!115
#100
1!1
1!115
#110
1!1
1!115
#120
1!1
1!115
#130
1!1
1!115
#140
1!1
1!115
#150
1!1
1!115
#160
1!1
1!115
#170
1!1
1!115
#180
1!1
1!115
#190
1!1
1!115
#200
1!1
1!115
#210
1!1
1!115
#220
1!1
1!115
#230
1!1
1!115
#240
1!1
1!115
#250
1!1
1!115
#260
1!1
1!115
#270
1!1
1!115
#280
1!1
1!115
#290
1!1
1!115
#300
1!1
1!115
#310
1!1
1!115
#320
1!1
1!115
#330
1!1
1!115
#340
1!1
1!115
#350
1!1
1!115
#360
1!1
1!115
#370
1!1
1!115
#380
1!1
1!115
#390
1!1
1!115
#400
1!1
1!115
#410
1!1
1!115
#420
1!1
1!115
#430
1!1
1!115
#440
1!1
1!115
#450
1!1
1!115
#460
1!1
1!115
#470
1!1
1!115
#480
1!1
1!115
#490
1!1
1!75
1!102
1!33
1!78
1!115
1!72
1!20
1!22
1!29
1!30
1!82
#500
1!1
1!32
1!74
1!101
1!78
1!115
1!72
1!117
1!81
#510
1!1
1!73
1!31
1!100
1!115
1!80
#520
1!1
1!23
1!104
1!35
1!77
1!67
1!115
1!79
1!84
1!68
1!25
#530
1!1
1!115
#540
1!1
1!115
#550
1!1
1!115
#560
1!1
1!115
#570
1!1
1!115
#580
1!1
1!115
#590
1!1
1!115
#600
1!1
1!103
1!76
1!34
1!115
1!70
1!24
1!83
1!69
1!71
#610
1!1
1!47
1!44
1!87
1!115
1!108
1!107
1!50
1!114
1!111
1!112
1!106
1!105
1!113
1!110
1!41
1!109
#620
1!1
1!47
1!86
1!115
1!43
1!108
1!107
1!114
1!111
1!112
1!49
1!106
1!105
1!113
1!110
1!41
1!109
#630
1!1
1!42
1!85
1!115
1!48
#640
1!1
1!89
1!46
1!115
1!52
#650
1!1
1!115
#660
1!1
1!115
#670
1!1
1!115
#680
1!1
1!115
#690
1!1
1!115
#700
1!1
1!115
#710
1!1
1!45
1!115
1!88
1!40
1!51
1!39
#720
1!1
1!11
1!36
1!97
1!14
1!115
1!108
1!8
1!107
1!114
1!111
1!112
1!106
1!37
1!105
1!113
1!110
1!17
1!109
#730
1!1
1!115
#740
1!1
1!115
#750
1!1
1!115
#760
1!1
1!115
#770
1!1
1!115
#780
1!1
1!96
1!10
1!14
1!115
1!4
1!108
1!8
1!107
1!114
1!111
1!5
1!16
1!112
1!106
1!38
1!105
1!113
1!110
1!109
#790
1!1
1!115
#800
1!1
1!9
1!115
1!95
1!3
1!2
1!15
#810
1!1
1!26
1!13
1!99
1!115
1!28
1!19
#820
1!1
1!115
#830
1!1
1!115
#840
1!1
1!12
1!98
1!115
1!27
1!18
1!6
1!118
1!7
1!21
#850
1!1
1!58
1!61
1!92
1!115
1!55
1!108
1!107
1!114
1!112
1!64
1!110
#860
1!1
1!57
1!61
1!115
1!91
1!55
1!108
1!107
1!114
1!63
1!112
1!110
#870
1!1
1!90
1!115
1!56
1!62
#880
1!1
1!94
1!60
1!115
1!66
#890
1!1
1!115
#900
1!1
1!115
#910
1!1
1!115
#920
1!1
1!115
#930
1!1
1!115
#940
1!1
1!115
#950
1!1
1!59
1!93
1!115
1!53
1!119
1!65
1!54
#960
1!1
1!115
#970
1!1
1!115
#980
1!1
1!115
#990
1!1
1!75
1!102
1!33
1!78
1!115
1!72
1!20
1!22
1!29
1!30
1!82
#1000
1!1
1!32
1!74
1!101
1!78
1!115
1!72
1!117
1!81
1!116
#1010
1!1
1!73
1!31
1!100
1!115
1!80
#1020
1!1
1!23
1!104
1!35
1!77
1!67
1!115
1!79
1!84
1!68
1!25
#1030
1!1
1!115
#1040
1!1
1!115
#1050
1!1
1!115
#1060
1!1
1!115
#1070
1!1
1!115
#1080
1!1
1!115
#1090
1!1
1!115
#1100
1!1
1!103
1!76
1!34
1!115
1!70
1!24
1!83
1!69
1!71
#1110
1!1
1!47
1!44
1!87
1!115
1!108
1!107
1!50
1!114
1!111
1!112
1!106
1!105
1!113
1!110
1!41
1!109
#1120
1!1
1!47
1!86
1!115
1!43
1!108
1!107
1!114
1!111
1!112
1!49
1!106
1!105
1!113
1!110
1!41
1!109
#1130
1!1
1!42
1!85
1!115
1!48
#1140
1!1
1!89
1!46
1!115
1!52
#1150
1!1
1!115
#1160
1!1
1!115
#1170
1!1
1!115
#1180
1!1
1!115
#1190
1!1
1!115
#1200
1!1
1!115
#1210
1!1
1!45
1!115
1!88
1!40
1!51
1!39
#1220
1!1
1!11
1!36
1!97
1!14
1!115
1!108
1!8
1!107
1!114
1!111
1!112
1!106
1!37
1!105
1!113
1!110
1!17
1!109
#1230
1!1
1!115
#1240
1!1
1!115
#1250
1!1
1!115
#1260
1!1
1!115
#1270
1!1
1!115
#1280
1!1
1!96
1!10
1!14
1!115
1!4
1!108
1!8
1!107
1!114
1!111
1!5
1!16
1!112
1!106
1!38
1!105
1!113
1!110
1!109
#1290
1!1
1!115
#1300
1!1
1!9
1!115
1!95
1!3
1!2
1!15
#1310
1!1
1!26
1!13
1!99
1!115
1!28
1!19
#1320
1!1
1!115
#1330
1!1
1!115
#1340
1!1
1!12
1!98
1!115
1!27
1!18
1!6
1!118
1!7
1!21
#1350
1!1
1!58
1!61
1!92
1!115
1!55
1!108
1!107
1!114
1!112
1!64
1!110
#1360
1!1
1!57
1!61
1!115
1!91
1!55
1!108
1!107
1!114
1!63
1!112
1!110
#1370
1!1
1!90
1!115
1!56
1!62
#1380
1!1
1!94
1!60
1!115
1!66
#1390
1!1
1!115
#1400
1!1
1!115
#1410
1!1
1!115
#1420
1!1
1!115
#1430
1!1
1!115
#1440
1!1
1!115
#1450
1!1
1!59
1!93
1!115
1!53
1!119
1!65
1!54
#1460
1!1
1!115
#1470
1!1
1!115
#1480
1!1
1!115
#1490
1!1
1!75
1!102
1!33
1!78
1!115
1!72
1!20
1!22
1!29
1!30
1!82
#1500
1!1
1!32
1!74
1!101
1!78
1!115
1!72
1!117
1!81
1!116
#1510
1!1
1!73
1!31
1!100
1!115
1!80
#1520
1!1
1!23
1!104
1!35
1!77
1!67
1!115
1!79
1!84
1!68
1!25
#1530
1!1
1!115
#1540
1!1
1!115
#1550
1!1
1!115
#1560
1!1
1!115
#1570
1!1
1!115
#1580
1!1
1!115
#1590
1!1
1!115
#1600
1!1
1!103
1!76
1!34
1!115
1!70
1!24
1!83
1!69
1!71
#1610
1!1
1!47
1!44
1!87
1!115
1!108
1!107
1!50
1!114
1!111
1!112
1!106
1!105
1!113
1!110
1!41
1!109
#1620
1!1
1!47
1!86
1!115
1!43
1!108
1!107
1!114
1!111
1!112
1!49
1!106
1!105
1!113
1!110
1!41
1!109
#1630
1!1
1!42
1!85
1!115
1!48
#1640
1!1
1!89
1!46
1!115
1!52
#1650
1!1
1!115
#1660
1!1
1!115
#1670
1!1
1!115
#1680
1!1
1!115
#1690
1!1
1!115
#1700
1!1
1!115
#1710
1!1
1!45
1!115
1!88
1!40
1!51
1!39
#1720
1!1
1!11
1!36
1!97
1!14
1!115
1!108
1!8
1!107
1!114
1!111
1!112
1!106
1!37
1!105
1!113
1!110
1!17
1!109
#1730
1!1
1!115
#1740
1!1
1!115
#1750
1!1
1!115
#1760
1!1
1!115
#1770
1!1
1!115
#1780
1!1
1!96
1!10
1!14
1!115
1!4
1!108
1!8
1!107
1!114
1!111
1!5
1!16
1!112
1!106
1!38
1!105
1!113
1!110
1!109
#1790
1!1
1!115
#1800
1!1
1!9
1!115
1!95
1!3
1!2
1!15
#1810
1!1
1!26
1!13
1!99
1!115
1!28
1!19
#1820
1!1
1!115
#1830
1!1
1!115
#1840
1!1
1!12
1!98
1!115
1!27
1!18
1!6
1!118
1!7
1!21
#1850
1!1
1!58
1!61
1!92
1!115
1!55
1!108
1!107
1!114
1!112
1!64
1!110
#1860
1!1
1!57
1!61
1!115
1!91
1!55
1!108
1!107
1!114
1!63
1!112
1!110
#1870
1!1
1!90
1!115
1!56
1!62
#1880
1!1
1!94
1!60
1!115
1!66
#1890
1!1
1!115
#1900
1!1
1!115
#1910
1!1
1!115
#1920
1!1
1!115
#1930
1!1
1!115
#1940
1!1
1!115
#1950
1!1
1!59
1!93
1!115
1!53
1!119
1!65
1!54
#1960
1!1
1!115
#1970
1!1
1!115
#1980
1!1
1!115
#1990
1!1
1!75
1!102
1!33
1!78
1!115
1!72
1!20
1!22
1!29
1!30
1!82
#2000
1!1
1!32
1!74
1!101
1!78
1!115
1!72
1!117
1!81
1!116
#2010
1!1
1!73
1!31
1!100
1!115
1!80
#2020
1!1
1!23
1!104
1!35
1!77
1!67
1!115
1!79
1!84
1!68
1!25
#2030
1!1
1!115
#2040
1!1
1!115
#2050
1!1
1!115
#2060
1!1
1!115
#2070
1!1
1!115
#2080
1!1
1!115
#2090
1!1
1!115
#2100
1!1
1!103
1!76
1!34
1!115
1!70
1!24
1!83
1!69
1!71
#2110
1!1
1!47
1!44
1!87
1!115
1!108
1!107
1!50
1!114
1!111
1!112
1!106
1!105
1!113
1!110
1!41
1!109
#2120
1!1
1!47
1!86
1!115
1!43
1!108
1!107
1!114
1!111
1!112
1!49
1!106
1!105
1!113
1!110
1!41
1!109
#2130
1!1
1!42
1!85
1!115
1!48
#2140
1!1
1!89
1!46
1!115
1!52
#2150
1!1
1!115
#2160
1!1
1!115
#2170
1!1
1!115
#2180
1!1
1!115
#2190
1!1
1!115
#2200
1!1
1!115
#2210
1!1
1!45
1!115
1!88
1!40
1!51
1!39
#2220
1!1
1!11
1!36
1!97
1!14
1!115
1!108
1!8
1!107
1!114
1!111
1!112
1!106
1!37
1!105
1!113
1!110
1!17
1!109
#2230
1!1
1!115
#2240
1!1
1!115
#2250
1!1
1!115
#2260
1!1
1!115
#2270
1!1
1!115
#2280
1!1
1!96
1!10
1!14
1!115
1!4
1!108
1!8
1!107
1!114
1!111
1!5
1!16
1!112
1!106
1!38
1!105
1!113
1!110
1!109
#2290
1!1
1!115
#2300
1!1
1!9
1!115
1!95
1!3
1!2
1!15
#2310
1!1
1!26
1!13
1!99
1!115
1!28
1!19
#2320
1!1
1!115
#2330
1!1
1!115
#2340
1!1
1!12
1!98
1!115
1!27
1!18
1!6
1!118
1!7
1!21
#2350
1!1
1!58
1!61
1!92
1!115
1!55
1!108
1!107
1!114
1!112
1!64
1!110
#2360
1!1
1!57
1!61
1!115
1!91
1!55
1!108
1!107
1!114
1!63
1!112
1!110
#2370
1!1
1!90
1!115
1!56
1!62
#2380
1!1
1!94
1!60
1!115
1!66
#2390
1!1
1!115
#2400
1!1
1!115
#2410
1!1
1!115
#2420
1!1
1!115
#2430
1!1
1!115
#2440
1!1
1!115
#2450
1!1
1!59
1!93
1!115
1!53
1!119
1!65
1!54
#2460
1!1
1!115
#2470
1!1
1!115
#2480
1!1
1!115
#2490
1!1
1!75
1!102
1!33
1!78
1!115
1!72
1!20
1!22
1!29
1!30
1!82
#2500
1!1
1!32
1!74
1!101
1!78
1!115
1!72
1!117
1!81
1!116
#2510
1!1
1!73
1!31
1!100
1!115
1!80
#2520
1!1
1!23
1!104
1!35
1!77
1!67
1!115
1!79
1!84
1!68
1!25
#2530
1!1
1!115
#2540
1!1
1!115
#2550
1!1
1!115
#2560
1!1
1!115
#2570
1!1
1!115
#2580
1!1
1!115
#2590
1!1
1!115
#2600
1!1
1!103
1!76
1!34
1!115
1!70
1!24
1!83
1!69
1!71
#2610
1!1
1!47
1!44
1!87
1!115
1!108
1!107
1!50
1!114
1!111
1!112
1!106
1!105
1!113
1!110
1!41
1!109
#2620
1!1
1!47
1!86
1!115
1!43
1!108
1!107
1!114
1!111
1!112
1!49
1!106
1!105
1!113
1!110
1!41
1!109
#2630
1!1
1!42
1!85
1!115
1!48
#2640
1!1
1!89
1!46
1!115
1!52
#2650
1!1
1!115
#2660
1!1
1!115
#2670
1!1
1!115
#2680
1!1
1!115
#2690
1!1
1!115
#2700
1!1
1!115
#2710
1!1
1!45
1!115
1!88
1!40
1!51
1!39
#2720
1!1
1!11
1!36
1!97
1!14
1!115
1!108
1!8
1!107
1!114
1!111
1!112
1!106
1!37
1!105
1!113
1!110
1!17
1!109
#2730
1!1
1!115
#2740
1!1
1!115
#2750
1!1
1!115
#2760
1!1
1!115
#2770
1!1
1!115
#2780
1!1
1!96
1!10
1!14
1!115
1!4
1!108
1!8
1!107
1!114
1!111
1!5
1!16
1!112
1!106
1!38
1!105
1!113
1!110
1!109
#2790
1!1
1!115
#2800
1!1
1!9
1!115
1!95
1!3
1!2
1!15
#2810
1!1
1!26
1!13
1!99
1!115
1!28
1!19
#2820
1!1
1!115
#2830
1!1
1!115
#2840
1!1
1!12
1!98
1!115
1!27
1!18
1!6
1!118
1!7
1!21
#2850
1!1
1!58
1!61
1!92
1!115
1!55
1!108
1!107
1!114
1!112
1!64
1!110
#2860
1!1
1!57
1!61
1!115
1!91
1!55
1!108
1!107
1!114
1!63
1!112
1!110
#2870
1!1
1!90
1!115
1!56
1!62
#2880
1!1
1!94
1!60
1!115
1!66
#2890
1!1
1!115
#2900
1!1
1!115
#2910
1!1
1!115
#2920
1!1
1!115
#2930
1!1
1!115
#2940
1!1
1!115
#2950
1!1
1!59
1!93
1!115
1!53
1!119
1!65
1!54
#2960
1!1
1!115
#2970
1!1
1!115
#2980
1!1
1!115
#2990
1!1
1!75
1!102
1!33
1!78
1!115
1!72
1!20
1!22
1!29
1!30
1!82
#3000
1!1
1!32
1!74
1!101
1!78
1!115
1!72
1!117
1!81
1!116
#3010
1!1
1!73
1!31
1!100
1!115
1!80
#3020
1!1
1!23
1!104
1!35
1!77
1!67
1!115
1!79
1!84
1!68
1!25
#3030
1!1
1!115
#3040
1!1
1!115
#3050
1!1
1!115
#3060
1!1
1!115
#3070
1!1
1!115
#3080
1!1
1!115
#3090
1!1
1!115
#3100
1!1
1!103
1!76
1!34
1!115
1!70
1!24
1!83
1!69
1!71
#3110
1!1
1!47
1!44
1!87
1!115
1!108
1!107
1!50
1!114
1!111
1!112
1!106
1!105
1!113
1!110
1!41
1!109
#3120
1!1
1!47
1!86
1!115
1!43
1!108
1!107
1!114
1!111
1!112
1!49
1!106
1!105
1!113
1!110
1!41
1!109
#3130
1!1
1!42
1!85
1!115
1!48
#3140
1!1
1!89
1!46
1!115
1!52
#3150
1!1
1!115
#3160
1!1
1!115
#3170
1!1
1!115
#3180
1!1
1!115
#3190
1!1
1!115
#3200
1!1
1!115
#3210
1!1
1!45
1!115
1!88
1!40
1!51
1!39
#3220
1!1
1!11
1!36
1!97
1!14
1!115
1!108
1!8
1!107
1!114
1!111
1!112
1!106
1!37
1!105
1!113
1!110
1!17
1!109
#3230
1!1
1!115
#3240
1!1
1!115
#3250
1!1
1!115
#3260
1!1
1!115
#3270
1!1
1!115
#3280
1!1
1!96
1!10
1!14
1!115
1!4
1!108
1!8
1!107
1!114
1!111
1!5
1!16
1!112
1!106
1!38
1!105
1!113
1!110
1!109
#3290
1!1
1!115
#3300
1!1
1!9
1!115
1!95
1!3
1!2
1!15
#3310
1!1
1!26
1!13
1!99
1!115
1!28
1!19
#3320
1!1
1!115
#3330
1!1
1!115
#3340
1!1
1!12
1!98
1!115
1!27
1!18
1!6
1!118
1!7
1!21
#3350
1!1
1!58
1!61
1!92
1!115
1!55
1!108
1!107
1!114
1!112
1!64
1!110
#3360
1!1
1!57
1!61
1!115
1!91
1!55
1!108
1!107
1!114
1!63
1!112
1!110
#3370
1!1
1!90
1!115
1!56
1!62
#3380
1!1
1!94
1!60
1!115
1!66
#3390
1!1
1!115
#3400
z!1
z!2
z!3
z!4
z!5
z!6
z!7
z!8
z!9
z!10
z!11
z!12
z!13
z!14
z!15
z!16
z!17
z!18
z!19
z!20
z!21
z!22
z!23
z!24
z!25
z!26
z!27
z!28
z!29
z!30
z!31
z!32
z!33
z!34
z!35
z!36
z!37
z!38
z!39
z!40
z!41
z!42
z!43
z!44
z!45
z!46
z!47
z!48
z!49
z!50
z!51
z!52
z!53
z!54
z!55
z!56
z!57
z!58
z!59
z!60
z!61
z!62
z!63
z!64
z!65
z!66
z!67
z!68
z!69
z!70
z!71
z!72
z!73
z!74
z!75
z!76
z!77
z!78
z!79
z!80
z!81
z!82
z!83
z!84
z!85
z!86
z!87
z!88
z!89
z!90
z!91
z!92
z!93
z!94
z!95
z!96
z!97
z!98
z!99
z!100
z!101
z!102
z!103
z!104
z!105
z!106
z!107
z!108
z!109
z!110
z!111
z!112
z!113
z!114
z!115
z!116
z!117
z!118
z!119
