$date 
Mon Jun 05 01:58:44 CEST 2017
$end

$version 
VCD Generation 2.1.0
$end

$comment hide DelayFor_defer $end
$comment hide PeriodicOffsetPDef_concatOffsetPeriod $end
$comment hide PeriodicOffsetPDef_waitPeriod $end
$comment scale 0.1  $end
$comment relation   "model2017_0605_015843.ccslrelationmodel" $end
$comment xmi  emcyBraking_6_objSysTaskComplete "model2017_0605_015843.trace#//@references.0" $end
$comment xmi  req_emcyBraking_13_taskStart "model2017_0605_015843.trace#//@references.1" $end
$comment xmi  req_emcyBrakeWarning_15_send "model2017_0605_015843.trace#//@references.2" $end
$comment xmi  emcyBraking_6_objSysConsume "model2017_0605_015843.trace#//@references.3" $end
$comment xmi  req_emcyBraking_13_taskComplete "model2017_0605_015843.trace#//@references.4" $end
$comment xmi  periodicBeacon_4_objSysTaskStart "model2017_0605_015843.trace#//@references.5" $end
$comment xmi  update_2_objSysTaskStart "model2017_0605_015843.trace#//@references.6" $end
$comment xmi  periodicBeacon_4_oneEvent "model2017_0605_015843.trace#//@references.7" $end
$comment xmi  update_2_objSysSend "model2017_0605_015843.trace#//@references.8" $end
$comment xmi  enableBraking_5_oneEvent "model2017_0605_015843.trace#//@references.9" $end
$comment xmi  assumption_obstacle_19_taskComplete "model2017_0605_015843.trace#//@references.10" $end
$comment xmi  PU1_10_dispatch "model2017_0605_015843.trace#//@references.11" $end
$comment xmi  emcyBraking_6_objSysReceive "model2017_0605_015843.trace#//@references.12" $end
$comment xmi  assumption_obstacle_19_consume "model2017_0605_015843.trace#//@references.13" $end
$comment xmi  sharedMem_8_acquireCon "model2017_0605_015843.trace#//@references.14" $end
$comment xmi  req_obstacle_12_consume "model2017_0605_015843.trace#//@references.15" $end
$comment xmi  emcyBrakeWarning_1_objSysTaskComplete "model2017_0605_015843.trace#//@references.16" $end
$comment xmi  obstacle_3_objSysTaskStart "model2017_0605_015843.trace#//@references.17" $end
$comment xmi  emcyBrakeWarning_1_objSysSend "model2017_0605_015843.trace#//@references.18" $end
$comment xmi  obstacle_3_objSysTaskComplete "model2017_0605_015843.trace#//@references.19" $end
$comment xmi  update_2_oneEvent "model2017_0605_015843.trace#//@references.20" $end
$comment xmi  update_2_objSysReceive "model2017_0605_015843.trace#//@references.21" $end
$comment xmi  emcyBraking_6_objSysSend "model2017_0605_015843.trace#//@references.22" $end
$comment xmi  periodicBeacon_4_objSysTaskComplete "model2017_0605_015843.trace#//@references.23" $end
$comment xmi  req_emcyBraking_13_consume "model2017_0605_015843.trace#//@references.24" $end
$comment xmi  assumption_beacon_18_send "model2017_0605_015843.trace#//@references.25" $end
$comment xmi  obstacle_3_objSysSend "model2017_0605_015843.trace#//@references.26" $end
$comment xmi  emcyBrakeWarning_1_objSysTaskStart "model2017_0605_015843.trace#//@references.27" $end
$comment xmi  req_update_17_taskStart "model2017_0605_015843.trace#//@references.28" $end
$comment xmi  req_enableBraking_16_consume "model2017_0605_015843.trace#//@references.29" $end
$comment xmi  periodicBeacon_4_objSysConsume "model2017_0605_015843.trace#//@references.30" $end
$comment xmi  req_update_17_receive "model2017_0605_015843.trace#//@references.31" $end
$comment xmi  req_beacon_14_taskStart "model2017_0605_015843.trace#//@references.32" $end
$comment xmi  assumption_obstacle_19_send "model2017_0605_015843.trace#//@references.33" $end
$comment xmi  req_emcyBrakeWarning_15_receive "model2017_0605_015843.trace#//@references.34" $end
$comment xmi  req_obstacle_12_send "model2017_0605_015843.trace#//@references.35" $end
$comment xmi  update_2_objSysConsume "model2017_0605_015843.trace#//@references.36" $end
$comment xmi  req_update_17_taskComplete "model2017_0605_015843.trace#//@references.37" $end
$comment xmi  req_enableBraking_16_taskStart "model2017_0605_015843.trace#//@references.38" $end
$comment xmi  assumption_beacon_18_taskStart "model2017_0605_015843.trace#//@references.39" $end
$comment xmi  req_emcyBrakeWarning_15_taskStart "model2017_0605_015843.trace#//@references.40" $end
$comment xmi  PU2_11_dispatch "model2017_0605_015843.trace#//@references.41" $end
$comment xmi  enableBraking_5_objSysTaskStart "model2017_0605_015843.trace#//@references.42" $end
$comment xmi  req_obstacle_12_taskComplete "model2017_0605_015843.trace#//@references.43" $end
$comment xmi  assumption_beacon_18_receive "model2017_0605_015843.trace#//@references.44" $end
$comment xmi  emcyBrakeWarning_1_objSysReceive "model2017_0605_015843.trace#//@references.45" $end
$comment xmi  req_update_17_send "model2017_0605_015843.trace#//@references.46" $end
$comment xmi  req_emcyBraking_13_send "model2017_0605_015843.trace#//@references.47" $end
$comment xmi  obstacle_3_objSysConsume "model2017_0605_015843.trace#//@references.48" $end
$comment xmi  req_update_17_consume "model2017_0605_015843.trace#//@references.49" $end
$comment xmi  req_beacon_14_consume "model2017_0605_015843.trace#//@references.50" $end
$comment xmi  req_emcyBraking_13_receive "model2017_0605_015843.trace#//@references.51" $end
$comment xmi  enableBraking_5_objSysSend "model2017_0605_015843.trace#//@references.52" $end
$comment xmi  req_obstacle_12_taskStart "model2017_0605_015843.trace#//@references.53" $end
$comment xmi  req_emcyBrakeWarning_15_taskComplete "model2017_0605_015843.trace#//@references.54" $end
$comment xmi  emcyBrakeWarning_1_objSysConsume "model2017_0605_015843.trace#//@references.55" $end
$comment xmi  emcyBraking_6_oneEvent "model2017_0605_015843.trace#//@references.56" $end
$comment xmi  MSDSpec_0_globalTime "model2017_0605_015843.trace#//@references.57" $end
$comment xmi  periodicBeacon_4_objSysSend "model2017_0605_015843.trace#//@references.58" $end
$comment xmi  neighborTbl_7_acquireRes "model2017_0605_015843.trace#//@references.59" $end
$comment xmi  assumption_obstacle_19_receive "model2017_0605_015843.trace#//@references.60" $end
$comment xmi  req_enableBraking_16_taskComplete "model2017_0605_015843.trace#//@references.61" $end
$comment xmi  req_beacon_14_send "model2017_0605_015843.trace#//@references.62" $end
$comment xmi  update_2_objSysTaskComplete "model2017_0605_015843.trace#//@references.63" $end
$comment xmi  assumption_obstacle_19_taskStart "model2017_0605_015843.trace#//@references.64" $end
$comment xmi  req_obstacle_12_receive "model2017_0605_015843.trace#//@references.65" $end
$comment xmi  req_emcyBrakeWarning_15_consume "model2017_0605_015843.trace#//@references.66" $end
$comment xmi  req_beacon_14_receive "model2017_0605_015843.trace#//@references.67" $end
$comment xmi  periodicBeacon_4_objSysReceive "model2017_0605_015843.trace#//@references.68" $end
$comment xmi  obstacle_3_objSysReceive "model2017_0605_015843.trace#//@references.69" $end
$comment xmi  emcyBrakeWarning_1_oneEvent "model2017_0605_015843.trace#//@references.70" $end
$comment xmi  emcyBraking_6_objSysTaskStart "model2017_0605_015843.trace#//@references.71" $end
$comment xmi  req_enableBraking_16_receive "model2017_0605_015843.trace#//@references.72" $end
$comment xmi  obstacle_3_oneEvent "model2017_0605_015843.trace#//@references.73" $end
$comment xmi  req_beacon_14_taskComplete "model2017_0605_015843.trace#//@references.74" $end
$comment xmi  comConnection_9_acquireCon "model2017_0605_015843.trace#//@references.75" $end
$comment xmi  enableBraking_5_objSysConsume "model2017_0605_015843.trace#//@references.76" $end
$comment xmi  assumption_beacon_18_taskComplete "model2017_0605_015843.trace#//@references.77" $end
$comment xmi  assumption_beacon_18_consume "model2017_0605_015843.trace#//@references.78" $end
$comment xmi  enableBraking_5_objSysReceive "model2017_0605_015843.trace#//@references.79" $end
$comment xmi  req_enableBraking_16_send "model2017_0605_015843.trace#//@references.80" $end
$comment xmi  enableBraking_5_objSysTaskComplete "model2017_0605_015843.trace#//@references.81" $end
$comment xmi  req_obstacle_12intermediate_deactivate3 "model2017_0605_015843.trace#//@references.82" $end
$comment xmi  obstacle_3_DelayFor_taskStartDelayedByMin "model2017_0605_015843.trace#//@references.83" $end
$comment xmi  emcyBraking_6_DelayFor_sendDelayedByMax_e2e "model2017_0605_015843.trace#//@references.84" $end
$comment xmi  enableBraking_5intermediate_oneRelTaskCompleteClock1 "model2017_0605_015843.trace#//@references.85" $end
$comment xmi  emcyBrakeWarning_1intermediate_oneRelTaskCompleteClock1 "model2017_0605_015843.trace#//@references.86" $end
$comment xmi  enableBraking_5_DelayFor_sendDelayedByMax "model2017_0605_015843.trace#//@references.87" $end
$comment xmi  req_obstacle_12intermediate_deactivate41 "model2017_0605_015843.trace#//@references.88" $end
$comment xmi  periodicBeacon_4intermediate_oneRelConsumeClock1 "model2017_0605_015843.trace#//@references.89" $end
$comment xmi  enableBraking_5intermediate_oneRelConsumeClock1 "model2017_0605_015843.trace#//@references.90" $end
$comment xmi  req_obstacle_12intermediate_deactivate21 "model2017_0605_015843.trace#//@references.91" $end
$comment xmi  req_obstacle_12intermediate_deactivate43 "model2017_0605_015843.trace#//@references.93" $end
$comment xmi  update_2intermediate_oneRelConsumeClock1 "model2017_0605_015843.trace#//@references.94" $end
$comment xmi  UpdateSa_39intermediate_oneAssumptionMsgSend1 "model2017_0605_015843.trace#//@references.95" $end
$comment xmi  update_2intermediate_acquireAllResources1 "model2017_0605_015843.trace#//@references.96" $end
$comment xmi  PU1_10intermediate_relTaskComplete3 "model2017_0605_015843.trace#//@references.97" $end
$comment xmi  req_obstacle_12intermediate_deactivate31 "model2017_0605_015843.trace#//@references.98" $end
$comment xmi  update_2_DelayFor_taskStartDelayedByMin "model2017_0605_015843.trace#//@references.99" $end
$comment xmi  emcyBrakeWarning_1_DelayFor_sendDelayedByMax_e2e "model2017_0605_015843.trace#//@references.100" $end
$comment xmi  obstacle_3intermediate_acquireAllResources1 "model2017_0605_015843.trace#//@references.103" $end
$comment xmi  enableBraking_5_DelayFor_taskStartDelayedByMin "model2017_0605_015843.trace#//@references.106" $end
$comment xmi  comConnection_9intermediate_receiveEvts1 "model2017_0605_015843.trace#//@references.107" $end
$comment xmi  enableBraking_5intermediate_oneRelSendClock1 "model2017_0605_015843.trace#//@references.108" $end
$comment xmi  obstacle_3_DelayFor_taskStartDelayedByMax "model2017_0605_015843.trace#//@references.109" $end
$comment xmi  req_beacon_14intermediate_deactivate41 "model2017_0605_015843.trace#//@references.110" $end
$comment xmi  neighborTbl_7intermediate_taskCompleteEvts1 "model2017_0605_015843.trace#//@references.112" $end
$comment xmi  update_2intermediate_oneRelTaskCompleteClock1 "model2017_0605_015843.trace#//@references.113" $end
$comment xmi  emcyBrakeWarning_1intermediate_oneRelReceiveClock1 "model2017_0605_015843.trace#//@references.114" $end
$comment xmi  PeriodicOffsetPDef_waitPeriod "model2017_0605_015843.trace#//@references.115" $end
$comment xmi  obstacle_3intermediate_oneRelReceiveClock1 "model2017_0605_015843.trace#//@references.116" $end
$comment xmi  update_2_DelayFor_taskStartDelayedByMax "model2017_0605_015843.trace#//@references.117" $end
$comment xmi  req_obstacle_12intermediate_deactivate33 "model2017_0605_015843.trace#//@references.118" $end
$comment xmi  req_beacon_14intermediate_deactivate51 "model2017_0605_015843.trace#//@references.119" $end
$comment xmi  AssumptionUpdate_40_PeriodicOffsetP_periodicActivation "model2017_0605_015843.trace#//@references.120" $end
$comment xmi  update_2intermediate_oneRelReceiveClock1 "model2017_0605_015843.trace#//@references.121" $end
$comment xmi  timeConstraint_36_DelayFor_stimulusDelayedExpression_e2e_sE_s "model2017_0605_015843.trace#//@references.122" $end
$comment xmi  obstacle_3intermediate_oneRelTaskCompleteClock1 "model2017_0605_015843.trace#//@references.123" $end
$comment xmi  periodicBeacon_4_DelayFor_taskStartDelayedByMax "model2017_0605_015843.trace#//@references.124" $end
$comment xmi  sharedMem_8intermediate_lu_sendEvts1 "model2017_0605_015843.trace#//@references.125" $end
$comment xmi  timeConstraint_36intermediate_activationmsgReceive_upperE_s1 "model2017_0605_015843.trace#//@references.126" $end
$comment xmi  emcyBraking_6intermediate_oneRelReceiveClock1 "model2017_0605_015843.trace#//@references.127" $end
$comment xmi  PU2_11intermediate_relTaskComplete1 "model2017_0605_015843.trace#//@references.128" $end
$comment xmi  timeConstraint_36intermediate_constrainedTaskCompletions_upperE_s1 "model2017_0605_015843.trace#//@references.129" $end
$comment xmi  enableBraking_5_DelayFor_receiveDelayedByMax "model2017_0605_015843.trace#//@references.130" $end
$comment xmi  update_2intermediate_oneRelSendClock1 "model2017_0605_015843.trace#//@references.131" $end
$comment xmi  enableBraking_5intermediate_oneRelReceiveClock1 "model2017_0605_015843.trace#//@references.132" $end
$comment xmi  emcyBrakeWarning_1_Union_unionEvts "model2017_0605_015843.trace#//@references.133" $end
$comment xmi  periodicBeacon_4_Union_unionEvts "model2017_0605_015843.trace#//@references.134" $end
$comment xmi  periodicBeacon_4_DelayFor_taskStartDelayedByMin "model2017_0605_015843.trace#//@references.135" $end
$comment xmi  periodicBeacon_4intermediate_oneRelSendClock1 "model2017_0605_015843.trace#//@references.137" $end
$comment xmi  update_2intermediate_oneRelTaskStartClock1 "model2017_0605_015843.trace#//@references.138" $end
$comment xmi  comConnection_9intermediate_lu_sendEvts1 "model2017_0605_015843.trace#//@references.139" $end
$comment xmi  emcyBraking_6intermediate_oneRelTaskStartClock1 "model2017_0605_015843.trace#//@references.140" $end
$comment xmi  PU2_11intermediate_relTaskStarts1 "model2017_0605_015843.trace#//@references.141" $end
$comment xmi  req_beacon_14intermediate_deactivate1 "model2017_0605_015843.trace#//@references.142" $end
$comment xmi  emcyBraking_6intermediate_oneRelSendClock1 "model2017_0605_015843.trace#//@references.143" $end
$comment xmi  emcyBrakeWarning_1_DelayFor_sendDelayedByMin_e2e "model2017_0605_015843.trace#//@references.144" $end
$comment xmi  enableBraking_5_Union_unionEvts "model2017_0605_015843.trace#//@references.145" $end
$comment xmi  req_obstacle_12intermediate_deactivate53 "model2017_0605_015843.trace#//@references.146" $end
$comment xmi  periodicBeacon_4intermediate_oneRelTaskCompleteClock1 "model2017_0605_015843.trace#//@references.147" $end
$comment xmi  obstacle_3intermediate_oneRelTaskStartClock1 "model2017_0605_015843.trace#//@references.148" $end
$comment xmi  DelayFor_defer "model2017_0605_015843.trace#//@references.149" $end
$comment xmi  emcyBraking_6intermediate_oneRelConsumeClock1 "model2017_0605_015843.trace#//@references.150" $end
$comment xmi  PU1_10intermediate_relTaskComplete1 "model2017_0605_015843.trace#//@references.151" $end
$comment xmi  EmcyBrakeTriggeringLeadingVehicle_38intermediate_oneAssumptionMsgSend1 "model2017_0605_015843.trace#//@references.152" $end
$comment xmi  periodicBeacon_4intermediate_oneRelReceiveClock1 "model2017_0605_015843.trace#//@references.153" $end
$comment xmi  obstacle_3intermediate_oneRelSendClock1 "model2017_0605_015843.trace#//@references.154" $end
$comment xmi  req_obstacle_12intermediate_deactivate51 "model2017_0605_015843.trace#//@references.155" $end
$comment xmi  req_beacon_14intermediate_deactivate31 "model2017_0605_015843.trace#//@references.156" $end
$comment xmi  req_obstacle_12intermediate_deactivate1 "model2017_0605_015843.trace#//@references.158" $end
$comment xmi  PU1_10intermediate_relTaskStarts1 "model2017_0605_015843.trace#//@references.159" $end
$comment xmi  obstacle_3_Union_unionEvts "model2017_0605_015843.trace#//@references.161" $end
$comment xmi  emcyBraking_6_DelayFor_sendDelayedByMin_e2e "model2017_0605_015843.trace#//@references.162" $end
$comment xmi  emcyBrakeWarning_1intermediate_oneRelConsumeClock1 "model2017_0605_015843.trace#//@references.163" $end
$comment xmi  sharedMem_8intermediate_receiveEvts1 "model2017_0605_015843.trace#//@references.164" $end
$comment xmi  req_beacon_14intermediate_deactivate21 "model2017_0605_015843.trace#//@references.165" $end
$comment xmi  emcyBraking_6_Union_unionEvts "model2017_0605_015843.trace#//@references.166" $end
$comment xmi  PU1_10intermediate_relTaskStarts3 "model2017_0605_015843.trace#//@references.167" $end
$comment xmi  enableBraking_5intermediate_oneRelTaskStartClock1 "model2017_0605_015843.trace#//@references.169" $end
$comment xmi  update_2_Union_unionEvts "model2017_0605_015843.trace#//@references.170" $end
$comment xmi  PeriodicOffsetPDef_concatOffsetPeriod "model2017_0605_015843.trace#//@references.172" $end
$comment xmi  enableBraking_5_DelayFor_receiveDelayedByMin "model2017_0605_015843.trace#//@references.173" $end
$comment xmi  enableBraking_5_DelayFor_taskStartDelayedByMax "model2017_0605_015843.trace#//@references.174" $end
$comment xmi  neighborTbl_7intermediate_startTaskEvts1 "model2017_0605_015843.trace#//@references.177" $end
$comment xmi  emcyBrakeWarning_1intermediate_oneRelTaskStartClock1 "model2017_0605_015843.trace#//@references.178" $end
$comment xmi  periodicBeacon_4intermediate_oneRelTaskStartClock1 "model2017_0605_015843.trace#//@references.179" $end
$comment xmi  emcyBrakeWarning_1intermediate_oneRelSendClock1 "model2017_0605_015843.trace#//@references.182" $end
$comment xmi  enableBraking_5_DelayFor_sendDelayedByMin "model2017_0605_015843.trace#//@references.183" $end
$comment xmi  AssumptionEmcyBake_42_PeriodicOffsetP_periodicActivation_sMin "model2017_0605_015843.trace#//@references.184" $end
$comment xmi  timeConstraint_36intermediate_constrainedTaskCompletions_upperE_s3 "model2017_0605_015843.trace#//@references.186" $end
$comment xmi  obstacle_3intermediate_oneRelConsumeClock1 "model2017_0605_015843.trace#//@references.188" $end
$comment xmi  req_obstacle_12intermediate_deactivate23 "model2017_0605_015843.trace#//@references.189" $end
$comment xmi  emcyBraking_6intermediate_oneRelTaskCompleteClock1 "model2017_0605_015843.trace#//@references.191" $end
$scope module top $end
$var event 1 !1 AssumptionEmcyBake_42_PeriodicOffsetP_periodicActivation_sMin $end
$var event 1 !2 AssumptionUpdate_40_PeriodicOffsetP_periodicActivation $end
$var event 1 !3 DelayFor_defer $end
$var event 1 !4 EmcyBrakeTriggeringLeadingVehicle_38intermediate_oneAssumptionMsgSend1 $end
$var event 1 !5 MSDSpec_0_globalTime $end
$var event 1 !6 PU1_10_dispatch $end
$var event 1 !7 PU1_10intermediate_relTaskComplete1 $end
$var event 1 !8 PU1_10intermediate_relTaskComplete3 $end
$var event 1 !9 PU1_10intermediate_relTaskStarts1 $end
$var event 1 !10 PU1_10intermediate_relTaskStarts3 $end
$var event 1 !11 PU2_11_dispatch $end
$var event 1 !12 PU2_11intermediate_relTaskComplete1 $end
$var event 1 !13 PU2_11intermediate_relTaskStarts1 $end
$var event 1 !14 PeriodicOffsetPDef_concatOffsetPeriod $end
$var event 1 !15 PeriodicOffsetPDef_waitPeriod $end
$var event 1 !16 UpdateSa_39intermediate_oneAssumptionMsgSend1 $end
$var event 1 !17 assumption_beacon_18_consume $end
$var event 1 !18 assumption_beacon_18_receive $end
$var event 1 !19 assumption_beacon_18_send $end
$var event 1 !20 assumption_beacon_18_taskComplete $end
$var event 1 !21 assumption_beacon_18_taskStart $end
$var event 1 !22 assumption_obstacle_19_consume $end
$var event 1 !23 assumption_obstacle_19_receive $end
$var event 1 !24 assumption_obstacle_19_send $end
$var event 1 !25 assumption_obstacle_19_taskComplete $end
$var event 1 !26 assumption_obstacle_19_taskStart $end
$var event 1 !27 comConnection_9_acquireCon $end
$var event 1 !28 comConnection_9intermediate_lu_sendEvts1 $end
$var event 1 !29 comConnection_9intermediate_receiveEvts1 $end
$var event 1 !30 emcyBrakeWarning_1_DelayFor_sendDelayedByMax_e2e $end
$var event 1 !31 emcyBrakeWarning_1_DelayFor_sendDelayedByMin_e2e $end
$var event 1 !32 emcyBrakeWarning_1_Union_unionEvts $end
$var event 1 !33 emcyBrakeWarning_1_objSysConsume $end
$var event 1 !34 emcyBrakeWarning_1_objSysReceive $end
$var event 1 !35 emcyBrakeWarning_1_objSysSend $end
$var event 1 !36 emcyBrakeWarning_1_objSysTaskComplete $end
$var event 1 !37 emcyBrakeWarning_1_objSysTaskStart $end
$var event 1 !38 emcyBrakeWarning_1_oneEvent $end
$var event 1 !39 emcyBrakeWarning_1intermediate_oneRelConsumeClock1 $end
$var event 1 !40 emcyBrakeWarning_1intermediate_oneRelReceiveClock1 $end
$var event 1 !41 emcyBrakeWarning_1intermediate_oneRelSendClock1 $end
$var event 1 !42 emcyBrakeWarning_1intermediate_oneRelTaskCompleteClock1 $end
$var event 1 !43 emcyBrakeWarning_1intermediate_oneRelTaskStartClock1 $end
$var event 1 !44 emcyBraking_6_DelayFor_sendDelayedByMax_e2e $end
$var event 1 !45 emcyBraking_6_DelayFor_sendDelayedByMin_e2e $end
$var event 1 !46 emcyBraking_6_Union_unionEvts $end
$var event 1 !47 emcyBraking_6_objSysConsume $end
$var event 1 !48 emcyBraking_6_objSysReceive $end
$var event 1 !49 emcyBraking_6_objSysSend $end
$var event 1 !50 emcyBraking_6_objSysTaskComplete $end
$var event 1 !51 emcyBraking_6_objSysTaskStart $end
$var event 1 !52 emcyBraking_6_oneEvent $end
$var event 1 !53 emcyBraking_6intermediate_oneRelConsumeClock1 $end
$var event 1 !54 emcyBraking_6intermediate_oneRelReceiveClock1 $end
$var event 1 !55 emcyBraking_6intermediate_oneRelSendClock1 $end
$var event 1 !56 emcyBraking_6intermediate_oneRelTaskCompleteClock1 $end
$var event 1 !57 emcyBraking_6intermediate_oneRelTaskStartClock1 $end
$var event 1 !58 enableBraking_5_DelayFor_receiveDelayedByMax $end
$var event 1 !59 enableBraking_5_DelayFor_receiveDelayedByMin $end
$var event 1 !60 enableBraking_5_DelayFor_sendDelayedByMax $end
$var event 1 !61 enableBraking_5_DelayFor_sendDelayedByMin $end
$var event 1 !62 enableBraking_5_DelayFor_taskStartDelayedByMax $end
$var event 1 !63 enableBraking_5_DelayFor_taskStartDelayedByMin $end
$var event 1 !64 enableBraking_5_Union_unionEvts $end
$var event 1 !65 enableBraking_5_objSysConsume $end
$var event 1 !66 enableBraking_5_objSysReceive $end
$var event 1 !67 enableBraking_5_objSysSend $end
$var event 1 !68 enableBraking_5_objSysTaskComplete $end
$var event 1 !69 enableBraking_5_objSysTaskStart $end
$var event 1 !70 enableBraking_5_oneEvent $end
$var event 1 !71 enableBraking_5intermediate_oneRelConsumeClock1 $end
$var event 1 !72 enableBraking_5intermediate_oneRelReceiveClock1 $end
$var event 1 !73 enableBraking_5intermediate_oneRelSendClock1 $end
$var event 1 !74 enableBraking_5intermediate_oneRelTaskCompleteClock1 $end
$var event 1 !75 enableBraking_5intermediate_oneRelTaskStartClock1 $end
$var event 1 !76 neighborTbl_7_acquireRes $end
$var event 1 !77 neighborTbl_7intermediate_startTaskEvts1 $end
$var event 1 !78 neighborTbl_7intermediate_taskCompleteEvts1 $end
$var event 1 !79 obstacle_3_DelayFor_taskStartDelayedByMax $end
$var event 1 !80 obstacle_3_DelayFor_taskStartDelayedByMin $end
$var event 1 !81 obstacle_3_Union_unionEvts $end
$var event 1 !82 obstacle_3_objSysConsume $end
$var event 1 !83 obstacle_3_objSysReceive $end
$var event 1 !84 obstacle_3_objSysSend $end
$var event 1 !85 obstacle_3_objSysTaskComplete $end
$var event 1 !86 obstacle_3_objSysTaskStart $end
$var event 1 !87 obstacle_3_oneEvent $end
$var event 1 !88 obstacle_3intermediate_acquireAllResources1 $end
$var event 1 !89 obstacle_3intermediate_oneRelConsumeClock1 $end
$var event 1 !90 obstacle_3intermediate_oneRelReceiveClock1 $end
$var event 1 !91 obstacle_3intermediate_oneRelSendClock1 $end
$var event 1 !92 obstacle_3intermediate_oneRelTaskCompleteClock1 $end
$var event 1 !93 obstacle_3intermediate_oneRelTaskStartClock1 $end
$var event 1 !94 periodicBeacon_4_DelayFor_taskStartDelayedByMax $end
$var event 1 !95 periodicBeacon_4_DelayFor_taskStartDelayedByMin $end
$var event 1 !96 periodicBeacon_4_Union_unionEvts $end
$var event 1 !97 periodicBeacon_4_objSysConsume $end
$var event 1 !98 periodicBeacon_4_objSysReceive $end
$var event 1 !99 periodicBeacon_4_objSysSend $end
$var event 1 !100 periodicBeacon_4_objSysTaskComplete $end
$var event 1 !101 periodicBeacon_4_objSysTaskStart $end
$var event 1 !102 periodicBeacon_4_oneEvent $end
$var event 1 !103 periodicBeacon_4intermediate_oneRelConsumeClock1 $end
$var event 1 !104 periodicBeacon_4intermediate_oneRelReceiveClock1 $end
$var event 1 !105 periodicBeacon_4intermediate_oneRelSendClock1 $end
$var event 1 !106 periodicBeacon_4intermediate_oneRelTaskCompleteClock1 $end
$var event 1 !107 periodicBeacon_4intermediate_oneRelTaskStartClock1 $end
$var event 1 !108 req_beacon_14_consume $end
$var event 1 !109 req_beacon_14_receive $end
$var event 1 !110 req_beacon_14_send $end
$var event 1 !111 req_beacon_14_taskComplete $end
$var event 1 !112 req_beacon_14_taskStart $end
$var event 1 !113 req_beacon_14intermediate_deactivate1 $end
$var event 1 !114 req_beacon_14intermediate_deactivate21 $end
$var event 1 !115 req_beacon_14intermediate_deactivate31 $end
$var event 1 !116 req_beacon_14intermediate_deactivate41 $end
$var event 1 !117 req_beacon_14intermediate_deactivate51 $end
$var event 1 !118 req_emcyBrakeWarning_15_consume $end
$var event 1 !119 req_emcyBrakeWarning_15_receive $end
$var event 1 !120 req_emcyBrakeWarning_15_send $end
$var event 1 !121 req_emcyBrakeWarning_15_taskComplete $end
$var event 1 !122 req_emcyBrakeWarning_15_taskStart $end
$var event 1 !123 req_emcyBraking_13_consume $end
$var event 1 !124 req_emcyBraking_13_receive $end
$var event 1 !125 req_emcyBraking_13_send $end
$var event 1 !126 req_emcyBraking_13_taskComplete $end
$var event 1 !127 req_emcyBraking_13_taskStart $end
$var event 1 !128 req_enableBraking_16_consume $end
$var event 1 !129 req_enableBraking_16_receive $end
$var event 1 !130 req_enableBraking_16_send $end
$var event 1 !131 req_enableBraking_16_taskComplete $end
$var event 1 !132 req_enableBraking_16_taskStart $end
$var event 1 !133 req_obstacle_12_consume $end
$var event 1 !134 req_obstacle_12_receive $end
$var event 1 !135 req_obstacle_12_send $end
$var event 1 !136 req_obstacle_12_taskComplete $end
$var event 1 !137 req_obstacle_12_taskStart $end
$var event 1 !138 req_obstacle_12intermediate_deactivate1 $end
$var event 1 !139 req_obstacle_12intermediate_deactivate21 $end
$var event 1 !140 req_obstacle_12intermediate_deactivate23 $end
$var event 1 !141 req_obstacle_12intermediate_deactivate3 $end
$var event 1 !142 req_obstacle_12intermediate_deactivate31 $end
$var event 1 !143 req_obstacle_12intermediate_deactivate33 $end
$var event 1 !144 req_obstacle_12intermediate_deactivate41 $end
$var event 1 !145 req_obstacle_12intermediate_deactivate43 $end
$var event 1 !146 req_obstacle_12intermediate_deactivate51 $end
$var event 1 !147 req_obstacle_12intermediate_deactivate53 $end
$var event 1 !148 req_update_17_consume $end
$var event 1 !149 req_update_17_receive $end
$var event 1 !150 req_update_17_send $end
$var event 1 !151 req_update_17_taskComplete $end
$var event 1 !152 req_update_17_taskStart $end
$var event 1 !153 sharedMem_8_acquireCon $end
$var event 1 !154 sharedMem_8intermediate_lu_sendEvts1 $end
$var event 1 !155 sharedMem_8intermediate_receiveEvts1 $end
$var event 1 !156 timeConstraint_36_DelayFor_stimulusDelayedExpression_e2e_sE_s $end
$var event 1 !157 timeConstraint_36intermediate_activationmsgReceive_upperE_s1 $end
$var event 1 !158 timeConstraint_36intermediate_constrainedTaskCompletions_upperE_s1 $end
$var event 1 !159 timeConstraint_36intermediate_constrainedTaskCompletions_upperE_s3 $end
$var event 1 !160 update_2_DelayFor_taskStartDelayedByMax $end
$var event 1 !161 update_2_DelayFor_taskStartDelayedByMin $end
$var event 1 !162 update_2_Union_unionEvts $end
$var event 1 !163 update_2_objSysConsume $end
$var event 1 !164 update_2_objSysReceive $end
$var event 1 !165 update_2_objSysSend $end
$var event 1 !166 update_2_objSysTaskComplete $end
$var event 1 !167 update_2_objSysTaskStart $end
$var event 1 !168 update_2_oneEvent $end
$var event 1 !169 update_2intermediate_acquireAllResources1 $end
$var event 1 !170 update_2intermediate_oneRelConsumeClock1 $end
$var event 1 !171 update_2intermediate_oneRelReceiveClock1 $end
$var event 1 !172 update_2intermediate_oneRelSendClock1 $end
$var event 1 !173 update_2intermediate_oneRelTaskCompleteClock1 $end
$var event 1 !174 update_2intermediate_oneRelTaskStartClock1 $end
$upscope $end
$enddefinitions $end

#0
1!5
#10
1!5
#20
1!5
#30
1!5
#40
1!5
#50
1!5
#60
1!5
#70
1!5
#80
1!5
#90
1!5
#100
1!5
#110
1!5
#120
1!5
#130
1!5
#140
1!5
#150
1!5
#160
1!5
#170
1!5
#180
1!5
#190
1!102
1!19
1!5
1!99
1!110
1!16
1!2
1!96
1!105
#200
1!102
1!18
1!5
1!109
1!98
1!96
1!104
#210
1!97
1!108
1!5
1!17
1!103
#220
1!101
1!6
1!112
1!21
1!5
1!9
1!10
1!107
#230
1!5
#240
1!100
1!5
1!111
1!20
1!8
1!94
1!95
1!106
1!7
#250
1!165
1!153
1!168
1!150
1!5
1!116
1!117
1!154
1!172
1!113
1!115
1!114
1!162
#260
1!168
1!164
1!149
1!5
1!116
1!117
1!171
1!113
1!115
1!155
1!114
1!162
#270
1!163
1!148
1!5
1!170
#280
1!167
1!6
1!152
1!5
1!76
1!169
1!88
1!174
1!9
1!10
1!77
#290
1!5
#300
1!5
#310
1!5
#320
1!5
#330
1!5
#340
1!5
#350
1!151
1!5
1!166
1!8
1!161
1!78
1!173
1!160
1!7
#360
1!5
#370
1!5
#380
1!5
#390
1!102
1!19
1!5
1!99
1!110
1!16
1!2
1!96
1!105
#400
1!102
1!18
1!5
1!109
1!98
1!96
1!104
#410
1!97
1!108
1!5
1!17
1!103
#420
1!101
1!6
1!112
1!21
1!5
1!9
1!10
1!107
#430
1!5
#440
1!100
1!5
1!111
1!20
1!8
1!94
1!95
1!106
1!7
#450
1!165
1!153
1!168
1!150
1!5
1!116
1!117
1!154
1!172
1!113
1!115
1!114
1!162
#460
1!168
1!164
1!149
1!5
1!116
1!117
1!171
1!113
1!115
1!155
1!114
1!162
#470
1!163
1!148
1!5
1!170
#480
1!167
1!6
1!152
1!5
1!76
1!169
1!88
1!174
1!9
1!10
1!77
#490
1!84
1!24
1!135
1!5
1!87
1!15
1!4
1!91
1!81
1!14
1!1
#500
1!5
1!23
1!134
1!83
1!87
1!90
1!157
1!81
#510
1!22
1!133
1!82
1!5
1!89
#520
1!5
#530
1!5
#540
1!5
#550
1!151
1!5
1!166
1!8
1!161
1!78
1!173
1!160
1!7
#560
1!6
1!86
1!137
1!5
1!76
1!26
1!169
1!88
1!93
1!10
1!77
#570
1!5
#580
1!5
#590
1!102
1!19
1!5
1!99
1!110
1!16
1!2
1!96
1!105
#600
1!102
1!18
1!5
1!109
1!98
1!96
1!104
#610
1!97
1!108
1!5
1!17
1!103
#620
1!5
#630
1!25
1!85
1!136
1!5
1!80
1!8
1!79
1!78
1!92
#640
1!120
1!101
1!6
1!35
1!112
1!21
1!5
1!38
1!141
1!145
1!143
1!32
1!147
1!9
1!10
1!107
1!41
1!140
#650
1!119
1!34
1!5
1!38
1!141
1!145
1!40
1!143
1!32
1!147
1!140
#660
1!100
1!33
1!5
1!118
1!111
1!20
1!8
1!94
1!95
1!106
1!7
1!39
#670
1!165
1!153
1!168
1!37
1!122
1!150
1!5
1!116
1!117
1!154
1!172
1!113
1!115
1!114
1!162
1!43
#680
1!168
1!164
1!149
1!5
1!116
1!117
1!171
1!113
1!115
1!155
1!114
1!162
#690
1!163
1!148
1!5
1!170
#700
1!167
1!6
1!152
1!5
1!76
1!169
1!88
1!174
1!9
1!10
1!77
#710
1!5
#720
1!5
#730
1!5
#740
1!36
1!121
1!5
1!42
1!30
1!31
#750
1!70
1!67
1!5
1!27
1!130
1!141
1!144
1!139
1!145
1!142
1!73
1!143
1!28
1!64
1!147
1!146
1!138
1!140
#760
1!5
#770
1!151
1!5
1!166
1!8
1!161
1!78
1!173
1!160
1!7
#780
1!5
#790
1!102
1!19
1!5
1!99
1!110
1!16
1!2
1!96
1!105
#800
1!102
1!18
1!5
1!109
1!98
1!96
1!104
#810
1!70
1!97
1!108
1!5
1!129
1!17
1!66
1!141
1!60
1!144
1!103
1!139
1!145
1!142
1!29
1!143
1!72
1!64
1!147
1!146
1!138
1!61
1!140
#820
1!101
1!6
1!112
1!21
1!5
1!9
1!10
1!107
#830
1!128
1!5
1!65
1!71
1!58
1!3
1!59
#840
1!100
1!132
1!11
1!69
1!5
1!111
1!20
1!8
1!94
1!95
1!13
1!106
1!7
1!75
#850
1!165
1!153
1!168
1!150
1!5
1!116
1!117
1!154
1!172
1!113
1!115
1!114
1!162
#860
1!168
1!164
1!149
1!5
1!116
1!117
1!171
1!113
1!115
1!155
1!114
1!162
#870
1!163
1!148
1!5
1!131
1!68
1!74
1!170
1!63
1!12
1!158
1!62
#880
1!167
1!6
1!49
1!152
1!125
1!52
1!5
1!76
1!141
1!144
1!139
1!145
1!169
1!142
1!88
1!143
1!174
1!55
1!147
1!146
1!138
1!9
1!46
1!10
1!77
1!140
#890
1!48
1!124
1!52
1!5
1!141
1!144
1!139
1!145
1!142
1!143
1!54
1!147
1!146
1!138
1!46
1!140
#900
1!47
1!123
1!5
1!53
#910
1!127
1!5
1!51
1!57
#920
1!5
#930
1!5
#940
1!5
#950
1!151
1!5
1!166
1!8
1!161
1!78
1!173
1!160
1!7
#960
1!5
#970
1!5
#980
1!50
1!126
1!5
1!44
1!45
1!159
1!56
#990
1!102
1!19
1!84
1!24
1!135
1!5
1!99
1!110
1!87
1!16
1!15
1!2
1!96
1!105
1!4
1!91
1!81
1!14
1!1
#1000
1!102
1!18
1!5
1!23
1!134
1!109
1!98
1!83
1!87
1!90
1!156
1!157
1!96
1!104
1!81
#1010
1!22
1!133
1!97
1!82
1!108
1!5
1!17
1!103
1!89
#1020
1!6
1!86
1!137
1!5
1!76
1!26
1!169
1!88
1!93
1!10
1!77
#1030
1!5
#1040
1!5
#1050
1!5
#1060
1!5
#1070
1!5
#1080
1!5
#1090
1!25
1!85
1!136
1!5
1!80
1!8
1!79
1!78
1!92
#1100
1!120
1!101
1!6
1!35
1!112
1!21
1!5
1!38
1!141
1!145
1!143
1!32
1!147
1!9
1!10
1!107
1!41
1!140
#1110
1!119
1!34
1!5
1!38
1!141
1!145
1!40
1!143
1!32
1!147
1!140
#1120
1!100
1!33
1!5
1!118
1!111
1!20
1!8
1!94
1!95
1!106
1!7
1!39
#1130
1!165
1!153
1!168
1!37
1!122
1!150
1!5
1!116
1!117
1!154
1!172
1!113
1!115
1!114
1!162
1!43
#1140
1!168
1!164
1!149
1!5
1!116
1!117
1!171
1!113
1!115
1!155
1!114
1!162
#1150
1!163
1!148
1!5
1!170
#1160
1!167
1!6
1!152
1!5
1!76
1!169
1!88
1!174
1!9
1!10
1!77
#1170
1!5
#1180
1!5
#1190
1!102
1!19
1!5
1!99
1!110
1!16
1!2
1!96
1!105
#1200
1!102
1!36
1!18
1!121
1!5
1!109
1!98
1!42
1!30
1!96
1!31
1!104
#1210
1!70
1!97
1!108
1!67
1!5
1!27
1!17
1!130
1!141
1!144
1!103
1!139
1!145
1!142
1!73
1!143
1!28
1!64
1!147
1!146
1!138
1!140
#1220
1!5
#1230
1!151
1!5
1!166
1!8
1!161
1!78
1!173
1!160
1!7
#1240
1!101
1!6
1!112
1!21
1!5
1!9
1!10
1!107
#1250
1!5
#1260
1!100
1!5
1!111
1!20
1!8
1!94
1!95
1!106
1!7
#1270
1!165
1!70
1!153
1!168
1!150
1!5
1!129
1!66
1!141
1!60
1!144
1!139
1!145
1!142
1!29
1!116
1!143
1!117
1!154
1!172
1!72
1!113
1!64
1!147
1!146
1!115
1!138
1!114
1!162
1!61
1!140
#1280
1!168
1!164
1!149
1!5
1!116
1!117
1!171
1!113
1!115
1!155
1!114
1!162
#1290
1!128
1!163
1!148
1!5
1!65
1!71
1!170
1!58
1!3
1!59
#1300
1!167
1!6
1!152
1!132
1!11
1!69
1!5
1!76
1!169
1!88
1!174
1!13
1!9
1!10
1!75
1!77
#1310
1!5
#1320
1!5
#1330
1!5
1!131
1!68
1!74
1!63
1!12
1!158
1!62
#1340
1!49
1!125
1!52
1!5
1!141
1!144
1!139
1!145
1!142
1!143
1!55
1!147
1!146
1!138
1!46
1!140
#1350
1!48
1!124
1!52
1!5
1!141
1!144
1!139
1!145
1!142
1!143
1!54
1!147
1!146
1!138
1!46
1!140
#1360
1!47
1!123
1!5
1!53
#1370
1!127
1!151
1!5
1!166
1!51
1!8
1!161
1!78
1!173
1!160
1!57
1!7
#1380
1!5
#1390
1!102
1!19
1!5
1!99
1!110
1!16
1!2
1!96
1!105
#1400
1!102
1!18
1!5
1!109
1!98
1!96
1!104
#1410
1!97
1!108
1!5
1!17
1!103
#1420
1!101
1!6
1!112
1!21
1!5
1!9
1!10
1!107
#1430
1!5
#1440
1!50
1!126
1!100
1!5
1!111
1!20
1!44
1!8
1!94
1!95
1!106
1!7
1!45
1!159
1!56
#1450
1!165
1!153
1!168
1!150
1!5
1!116
1!117
1!154
1!172
1!113
1!115
1!114
1!162
#1460
1!168
1!164
1!149
1!5
1!116
1!117
1!171
1!113
1!115
1!155
1!114
1!162
#1470
1!163
1!148
1!5
1!170
#1480
1!167
1!6
1!152
1!5
1!76
1!169
1!88
1!174
1!9
1!10
1!77
#1490
1!84
1!24
1!135
1!5
1!87
1!15
1!4
1!91
1!81
1!14
1!1
#1500
1!5
1!23
1!134
1!83
1!87
1!90
1!156
1!157
1!81
#1510
1!22
1!133
1!82
1!5
1!89
#1520
1!5
#1530
1!5
#1540
1!5
#1550
1!151
1!5
1!166
1!8
1!161
1!78
1!173
1!160
1!7
#1560
1!6
1!86
1!137
1!5
1!76
1!26
1!169
1!88
1!93
1!10
1!77
#1570
1!5
#1580
1!5
#1590
1!102
1!19
1!5
1!99
1!110
1!16
1!2
1!96
1!105
#1600
1!102
1!18
1!5
1!109
1!98
1!96
1!104
#1610
1!97
1!108
1!5
1!17
1!103
#1620
1!5
#1630
1!25
1!85
1!136
1!5
1!80
1!8
1!79
1!78
1!92
#1640
1!120
1!101
1!6
1!35
1!112
1!21
1!5
1!38
1!141
1!145
1!143
1!32
1!147
1!9
1!10
1!107
1!41
1!140
#1650
1!119
1!34
1!5
1!38
1!141
1!145
1!40
1!143
1!32
1!147
1!140
#1660
1!100
1!33
1!5
1!118
1!111
1!20
1!8
1!94
1!95
1!106
1!7
1!39
#1670
1!165
1!153
1!168
1!37
1!122
1!150
1!5
1!116
1!117
1!154
1!172
1!113
1!115
1!114
1!162
1!43
#1680
1!168
1!164
1!149
1!5
1!116
1!117
1!171
1!113
1!115
1!155
1!114
1!162
#1690
1!163
1!148
1!5
1!170
#1700
1!167
1!6
1!152
1!5
1!76
1!169
1!88
1!174
1!9
1!10
1!77
#1710
1!5
#1720
1!5
#1730
1!5
#1740
1!36
1!121
1!5
1!42
1!30
1!31
#1750
1!70
1!67
1!5
1!27
1!130
1!141
1!144
1!139
1!145
1!142
1!73
1!143
1!28
1!64
1!147
1!146
1!138
1!140
#1760
1!5
#1770
1!151
1!5
1!166
1!8
1!161
1!78
1!173
1!160
1!7
#1780
1!5
#1790
1!102
1!19
1!5
1!99
1!110
1!16
1!2
1!96
1!105
#1800
1!102
1!18
1!5
1!109
1!98
1!96
1!104
#1810
1!70
1!97
1!108
1!5
1!129
1!17
1!66
1!141
1!60
1!144
1!103
1!139
1!145
1!142
1!29
1!143
1!72
1!64
1!147
1!146
1!138
1!61
1!140
#1820
1!101
1!6
1!112
1!21
1!5
1!9
1!10
1!107
#1830
1!128
1!5
1!65
1!71
1!58
1!3
1!59
#1840
1!100
1!132
1!11
1!69
1!5
1!111
1!20
1!8
1!94
1!95
1!13
1!106
1!7
1!75
#1850
1!165
1!153
1!168
1!150
1!5
1!116
1!117
1!154
1!172
1!113
1!115
1!114
1!162
#1860
1!168
1!164
1!149
1!5
1!116
1!117
1!171
1!113
1!115
1!155
1!114
1!162
#1870
1!163
1!148
1!5
1!131
1!68
1!74
1!170
1!63
1!12
1!158
1!62
#1880
1!167
1!6
1!49
1!152
1!125
1!52
1!5
1!76
1!141
1!144
1!139
1!145
1!169
1!142
1!88
1!143
1!174
1!55
1!147
1!146
1!138
1!9
1!46
1!10
1!77
1!140
#1890
z!1
z!2
z!3
z!4
z!5
z!6
z!7
z!8
z!9
z!10
z!11
z!12
z!13
z!14
z!15
z!16
z!17
z!18
z!19
z!20
z!21
z!22
z!23
z!24
z!25
z!26
z!27
z!28
z!29
z!30
z!31
z!32
z!33
z!34
z!35
z!36
z!37
z!38
z!39
z!40
z!41
z!42
z!43
z!44
z!45
z!46
z!47
z!48
z!49
z!50
z!51
z!52
z!53
z!54
z!55
z!56
z!57
z!58
z!59
z!60
z!61
z!62
z!63
z!64
z!65
z!66
z!67
z!68
z!69
z!70
z!71
z!72
z!73
z!74
z!75
z!76
z!77
z!78
z!79
z!80
z!81
z!82
z!83
z!84
z!85
z!86
z!87
z!88
z!89
z!90
z!91
z!92
z!93
z!94
z!95
z!96
z!97
z!98
z!99
z!100
z!101
z!102
z!103
z!104
z!105
z!106
z!107
z!108
z!109
z!110
z!111
z!112
z!113
z!114
z!115
z!116
z!117
z!118
z!119
z!120
z!121
z!122
z!123
z!124
z!125
z!126
z!127
z!128
z!129
z!130
z!131
z!132
z!133
z!134
z!135
z!136
z!137
z!138
z!139
z!140
z!141
z!142
z!143
z!144
z!145
z!146
z!147
z!148
z!149
z!150
z!151
z!152
z!153
z!154
z!155
z!156
z!157
z!158
z!159
z!160
z!161
z!162
z!163
z!164
z!165
z!166
z!167
z!168
z!169
z!170
z!171
z!172
z!173
z!174
