$date
Sat Apr 28 13:54:05 CEST 2018
$end
$version
VCD Generation 2.1.0
$end
$scope module top $end
$var event 1 !1 globalTime $end
$var event 1 !2 resAccess_PU_ECU1 $end
$var event 1 !3 resRelease_PU_ECU1 $end
$var event 1 !4 system_trajectoryBeacon_taskStart_ $end
$var event 1 !5 system_trajectoryBeacon_taskComplete_ $end
$var event 1 !6 system_obstacle_msgConsume_ $end
$var event 1 !7 system_obstacle_taskStart_ $end
$var event 1 !8 system_obstacle_taskComplete_ $end
$var event 1 !9 system_emcyBraking_taskComplete_ $end
$var event 1 !10 system_standstill_taskComplete_ $end
$upscope $end
$enddefinitions $end
#1
1!1
0!2
0!3
0!4
0!5
0!6
0!7
0!8
0!9
0!10
#2
1!1
0!2
0!3
0!4
0!5
0!6
0!7
0!8
0!9
0!10
#3
1!1
0!2
0!3
0!4
0!5
0!6
0!7
0!8
0!9
0!10
#4
1!1
0!2
0!3
0!4
0!5
0!6
0!7
0!8
0!9
0!10
#5
1!1
0!2
0!3
0!4
0!5
0!6
0!7
0!8
0!9
0!10
#6
1!1
0!2
0!3
0!4
0!5
0!6
0!7
0!8
0!9
0!10
#7
1!1
0!2
0!3
0!4
0!5
0!6
0!7
0!8
0!9
0!10
#8
1!1
0!2
0!3
0!4
0!5
0!6
0!7
0!8
0!9
0!10
#9
1!1
0!2
0!3
0!4
0!5
0!6
0!7
0!8
0!9
0!10
#10
1!1
0!2
0!3
0!4
0!5
0!6
0!7
0!8
0!9
0!10
#11
1!1
0!2
0!3
0!4
0!5
0!6
0!7
0!8
0!9
0!10
#12
1!1
0!2
0!3
0!4
0!5
0!6
0!7
0!8
0!9
0!10
#13
1!1
0!2
0!3
0!4
0!5
0!6
0!7
0!8
0!9
0!10
#14
1!1
0!2
0!3
0!4
0!5
0!6
0!7
0!8
0!9
0!10
#15
1!1
0!2
0!3
0!4
0!5
0!6
0!7
0!8
0!9
0!10
#16
1!1
0!2
0!3
0!4
0!5
0!6
0!7
0!8
0!9
0!10
#17
1!1
0!2
0!3
0!4
0!5
0!6
0!7
0!8
0!9
0!10
#18
1!1
0!2
0!3
0!4
0!5
0!6
0!7
0!8
0!9
0!10
#19
1!1
0!2
0!3
0!4
0!5
0!6
0!7
0!8
0!9
0!10
#20
1!1
0!2
0!3
0!4
0!5
0!6
0!7
0!8
0!9
0!10
#21
1!1
0!2
0!3
0!4
0!5
0!6
0!7
0!8
0!9
0!10
#22
1!1
0!2
0!3
0!4
0!5
0!6
0!7
0!8
0!9
0!10
#23
1!1
0!2
0!3
0!4
0!5
0!6
0!7
0!8
0!9
0!10
#24
1!1
0!2
0!3
0!4
0!5
0!6
0!7
0!8
0!9
0!10
#25
1!1
0!2
0!3
0!4
0!5
0!6
0!7
0!8
0!9
0!10
#26
1!1
0!2
0!3
0!4
0!5
0!6
0!7
0!8
0!9
0!10
#27
1!1
0!2
0!3
0!4
0!5
0!6
0!7
0!8
0!9
0!10
#28
1!1
0!2
0!3
0!4
0!5
0!6
0!7
0!8
0!9
0!10
#29
1!1
0!2
0!3
0!4
0!5
0!6
0!7
0!8
0!9
0!10
#30
1!1
0!2
0!3
0!4
0!5
0!6
0!7
0!8
0!9
0!10
#31
1!1
0!2
0!3
0!4
0!5
0!6
0!7
0!8
0!9
0!10
#32
1!1
0!2
0!3
0!4
0!5
0!6
0!7
0!8
0!9
0!10
#33
1!1
0!2
0!3
0!4
0!5
0!6
0!7
0!8
0!9
0!10
#34
1!1
0!2
0!3
0!4
0!5
0!6
0!7
0!8
0!9
0!10
#35
1!1
0!2
0!3
0!4
0!5
0!6
0!7
0!8
0!9
0!10
#36
1!1
0!2
0!3
0!4
0!5
0!6
0!7
0!8
0!9
0!10
#37
1!1
0!2
0!3
0!4
0!5
0!6
0!7
0!8
0!9
0!10
#38
1!1
0!2
0!3
0!4
0!5
0!6
0!7
0!8
0!9
0!10
#39
1!1
0!2
0!3
0!4
0!5
0!6
0!7
0!8
0!9
0!10
#40
1!1
0!2
0!3
0!4
0!5
0!6
0!7
0!8
0!9
0!10
#41
1!1
0!2
0!3
0!4
0!5
0!6
0!7
0!8
0!9
0!10
#42
1!1
0!2
0!3
0!4
0!5
0!6
0!7
0!8
0!9
0!10
#43
1!1
0!2
0!3
0!4
0!5
0!6
0!7
0!8
0!9
0!10
#44
1!1
0!2
0!3
0!4
0!5
0!6
0!7
0!8
0!9
0!10
#45
1!1
0!2
0!3
0!4
0!5
0!6
0!7
0!8
0!9
0!10
#46
1!1
0!2
0!3
0!4
0!5
0!6
0!7
0!8
0!9
0!10
#47
1!1
0!2
0!3
0!4
0!5
0!6
0!7
0!8
0!9
0!10
#48
1!1
0!2
0!3
0!4
0!5
0!6
0!7
0!8
0!9
0!10
#49
1!1
0!2
0!3
0!4
0!5
0!6
0!7
0!8
0!9
0!10
#50
1!1
0!2
0!3
0!4
0!5
0!6
0!7
0!8
0!9
0!10
#51
1!1
0!2
0!3
0!4
0!5
0!6
0!7
0!8
0!9
0!10
#52
1!1
0!2
0!3
0!4
0!5
0!6
0!7
0!8
0!9
0!10
#53
1!1
0!2
0!3
0!4
0!5
0!6
0!7
0!8
0!9
0!10
#54
1!1
0!2
0!3
0!4
0!5
0!6
0!7
0!8
0!9
0!10
#55
1!1
0!2
0!3
0!4
0!5
0!6
0!7
0!8
0!9
0!10
#56
1!1
0!2
0!3
0!4
0!5
0!6
0!7
0!8
0!9
0!10
#57
1!1
0!2
0!3
0!4
0!5
0!6
0!7
0!8
0!9
0!10
#58
1!1
0!2
0!3
0!4
0!5
0!6
0!7
0!8
0!9
0!10
#59
1!1
0!2
0!3
0!4
0!5
0!6
0!7
0!8
0!9
0!10
#60
1!1
0!2
0!3
0!4
0!5
0!6
0!7
0!8
0!9
0!10
#61
1!1
0!2
0!3
0!4
0!5
0!6
0!7
0!8
0!9
0!10
#62
1!1
0!2
0!3
0!4
0!5
0!6
0!7
0!8
0!9
0!10
#63
1!1
0!2
0!3
0!4
0!5
0!6
0!7
0!8
0!9
0!10
#64
1!1
0!2
0!3
0!4
0!5
0!6
0!7
0!8
0!9
0!10
#65
1!1
0!2
0!3
0!4
0!5
0!6
0!7
0!8
0!9
0!10
#66
1!1
0!2
0!3
0!4
0!5
0!6
0!7
0!8
0!9
0!10
#67
1!1
0!2
0!3
0!4
0!5
0!6
0!7
0!8
0!9
0!10
#68
1!1
0!2
0!3
0!4
0!5
0!6
0!7
0!8
0!9
0!10
#69
1!1
0!2
0!3
0!4
0!5
0!6
0!7
0!8
0!9
0!10
#70
1!1
0!2
0!3
0!4
0!5
0!6
0!7
0!8
0!9
0!10
#71
1!1
0!2
0!3
0!4
0!5
0!6
0!7
0!8
0!9
0!10
#72
1!1
0!2
0!3
0!4
0!5
0!6
0!7
0!8
0!9
0!10
#73
1!1
0!2
0!3
0!4
0!5
0!6
0!7
0!8
0!9
0!10
#74
1!1
0!2
0!3
0!4
0!5
0!6
0!7
0!8
0!9
0!10
#75
1!1
0!2
0!3
0!4
0!5
0!6
0!7
0!8
0!9
0!10
#76
1!1
0!2
0!3
0!4
0!5
0!6
0!7
0!8
0!9
0!10
#77
1!1
0!2
0!3
0!4
0!5
0!6
0!7
0!8
0!9
0!10
#78
1!1
0!2
0!3
0!4
0!5
0!6
0!7
0!8
0!9
0!10
#79
1!1
0!2
0!3
0!4
0!5
0!6
0!7
0!8
0!9
0!10
#80
1!1
0!2
0!3
0!4
0!5
0!6
0!7
0!8
0!9
0!10
#81
1!1
0!2
0!3
0!4
0!5
0!6
0!7
0!8
0!9
0!10
#82
1!1
0!2
0!3
0!4
0!5
0!6
0!7
0!8
0!9
0!10
#83
1!1
0!2
0!3
0!4
0!5
0!6
0!7
0!8
0!9
0!10
#84
1!1
0!2
0!3
0!4
0!5
0!6
0!7
0!8
0!9
0!10
#85
1!1
0!2
0!3
0!4
0!5
0!6
0!7
0!8
0!9
0!10
#86
1!1
0!2
0!3
0!4
0!5
0!6
0!7
0!8
0!9
0!10
#87
1!1
0!2
0!3
0!4
0!5
0!6
0!7
0!8
0!9
0!10
#88
1!1
0!2
0!3
0!4
0!5
0!6
0!7
0!8
0!9
0!10
#89
1!1
0!2
0!3
0!4
0!5
0!6
0!7
0!8
0!9
0!10
#90
1!1
0!2
0!3
0!4
0!5
0!6
0!7
0!8
0!9
0!10
#91
1!1
0!2
0!3
0!4
0!5
0!6
0!7
0!8
0!9
0!10
#92
1!1
0!2
0!3
0!4
0!5
0!6
0!7
0!8
0!9
0!10
#93
1!1
0!2
0!3
0!4
0!5
0!6
0!7
0!8
0!9
0!10
#94
1!1
0!2
0!3
0!4
0!5
0!6
0!7
0!8
0!9
0!10
#95
1!1
0!2
0!3
0!4
0!5
0!6
0!7
0!8
0!9
0!10
#96
1!1
0!2
0!3
0!4
0!5
0!6
0!7
0!8
0!9
0!10
#97
1!1
0!2
0!3
0!4
0!5
0!6
0!7
0!8
0!9
0!10
#98
1!1
0!2
0!3
0!4
0!5
0!6
0!7
0!8
0!9
0!10
#99
1!1
0!2
0!3
0!4
0!5
0!6
0!7
0!8
0!9
0!10
#100
1!1
0!2
0!3
0!4
0!5
0!6
0!7
0!8
0!9
0!10
#101
1!1
0!2
0!3
0!4
0!5
0!6
0!7
0!8
0!9
0!10
#102
1!1
0!2
0!3
0!4
0!5
0!6
0!7
0!8
0!9
0!10
#103
1!1
0!2
0!3
0!4
0!5
0!6
0!7
0!8
0!9
0!10
#104
1!1
0!2
0!3
0!4
0!5
0!6
0!7
0!8
0!9
0!10
#105
1!1
0!2
0!3
0!4
0!5
0!6
0!7
0!8
0!9
0!10
#106
1!1
0!2
0!3
0!4
0!5
0!6
0!7
0!8
0!9
0!10
#107
1!1
0!2
0!3
0!4
0!5
0!6
0!7
0!8
0!9
0!10
#108
1!1
0!2
0!3
0!4
0!5
0!6
0!7
0!8
0!9
0!10
#109
1!1
0!2
0!3
0!4
0!5
0!6
0!7
0!8
0!9
0!10
#110
1!1
0!2
0!3
0!4
0!5
0!6
0!7
0!8
0!9
0!10
#111
1!1
0!2
0!3
0!4
0!5
0!6
0!7
0!8
0!9
0!10
#112
1!1
0!2
0!3
0!4
0!5
0!6
0!7
0!8
0!9
0!10
#113
1!1
0!2
0!3
0!4
0!5
0!6
0!7
0!8
0!9
0!10
#114
1!1
1!2
0!3
1!4
0!5
0!6
0!7
0!8
0!9
0!10
#115
1!1
0!2
0!3
0!4
0!5
0!6
0!7
0!8
0!9
0!10
#116
1!1
0!2
0!3
0!4
0!5
0!6
0!7
0!8
0!9
0!10
#117
1!1
0!2
0!3
0!4
0!5
0!6
0!7
0!8
0!9
0!10
#118
1!1
0!2
0!3
0!4
0!5
0!6
0!7
0!8
0!9
0!10
#119
1!1
0!2
0!3
0!4
0!5
0!6
0!7
0!8
0!9
0!10
#120
1!1
0!2
0!3
0!4
0!5
0!6
0!7
0!8
0!9
0!10
#121
1!1
0!2
0!3
0!4
0!5
0!6
0!7
0!8
0!9
0!10
#122
1!1
0!2
0!3
0!4
0!5
0!6
0!7
0!8
0!9
0!10
#123
1!1
0!2
0!3
0!4
0!5
0!6
0!7
0!8
0!9
0!10
#124
1!1
0!2
0!3
0!4
0!5
0!6
0!7
0!8
0!9
0!10
#125
1!1
0!2
0!3
0!4
0!5
0!6
0!7
0!8
0!9
0!10
#126
1!1
0!2
0!3
0!4
0!5
0!6
0!7
0!8
0!9
0!10
#127
1!1
0!2
0!3
0!4
0!5
0!6
0!7
0!8
0!9
0!10
#128
1!1
0!2
0!3
0!4
0!5
0!6
0!7
0!8
0!9
0!10
#129
1!1
0!2
0!3
0!4
0!5
0!6
0!7
0!8
0!9
0!10
#130
1!1
0!2
0!3
0!4
0!5
0!6
0!7
0!8
0!9
0!10
#131
1!1
0!2
0!3
0!4
0!5
0!6
0!7
0!8
0!9
0!10
#132
1!1
0!2
0!3
0!4
0!5
0!6
0!7
0!8
0!9
0!10
#133
1!1
0!2
0!3
0!4
0!5
0!6
0!7
0!8
0!9
0!10
#134
1!1
0!2
0!3
0!4
0!5
0!6
0!7
0!8
0!9
0!10
#135
1!1
0!2
0!3
0!4
0!5
0!6
0!7
0!8
0!9
0!10
#136
1!1
0!2
0!3
0!4
0!5
0!6
0!7
0!8
0!9
0!10
#137
1!1
0!2
0!3
0!4
0!5
0!6
0!7
0!8
0!9
0!10
#138
1!1
0!2
0!3
0!4
0!5
0!6
0!7
0!8
0!9
0!10
#139
1!1
0!2
0!3
0!4
0!5
0!6
0!7
0!8
0!9
0!10
#140
1!1
0!2
0!3
0!4
0!5
0!6
0!7
0!8
0!9
0!10
#141
1!1
0!2
0!3
0!4
0!5
0!6
0!7
0!8
0!9
0!10
#142
1!1
0!2
0!3
0!4
0!5
0!6
0!7
0!8
0!9
0!10
#143
1!1
0!2
0!3
0!4
0!5
0!6
0!7
0!8
0!9
0!10
#144
1!1
0!2
0!3
0!4
0!5
0!6
0!7
0!8
0!9
0!10
#145
1!1
0!2
0!3
0!4
0!5
0!6
0!7
0!8
0!9
0!10
#146
1!1
0!2
0!3
0!4
0!5
0!6
0!7
0!8
0!9
0!10
#147
1!1
0!2
0!3
0!4
0!5
0!6
0!7
0!8
0!9
0!10
#148
1!1
0!2
0!3
0!4
0!5
0!6
0!7
0!8
0!9
0!10
#149
1!1
0!2
0!3
0!4
0!5
0!6
0!7
0!8
0!9
0!10
#150
1!1
0!2
0!3
0!4
0!5
0!6
0!7
0!8
0!9
0!10
#151
1!1
0!2
1!3
0!4
1!5
0!6
0!7
0!8
0!9
0!10
#152
1!1
0!2
0!3
0!4
0!5
0!6
0!7
0!8
0!9
0!10
#153
1!1
0!2
0!3
0!4
0!5
1!6
0!7
0!8
0!9
0!10
#154
1!1
1!2
0!3
0!4
0!5
0!6
1!7
0!8
0!9
0!10
#155
1!1
0!2
0!3
0!4
0!5
0!6
0!7
0!8
0!9
0!10
#156
1!1
0!2
0!3
0!4
0!5
0!6
0!7
0!8
0!9
0!10
#157
1!1
0!2
0!3
0!4
0!5
0!6
0!7
0!8
0!9
0!10
#158
1!1
0!2
0!3
0!4
0!5
0!6
0!7
0!8
0!9
0!10
#159
1!1
0!2
0!3
0!4
0!5
0!6
0!7
0!8
0!9
0!10
#160
1!1
0!2
0!3
0!4
0!5
0!6
0!7
0!8
0!9
0!10
#161
1!1
0!2
0!3
0!4
0!5
0!6
0!7
0!8
0!9
0!10
#162
1!1
0!2
0!3
0!4
0!5
0!6
0!7
0!8
0!9
0!10
#163
1!1
0!2
0!3
0!4
0!5
0!6
0!7
0!8
0!9
0!10
#164
1!1
0!2
1!3
0!4
0!5
0!6
0!7
1!8
0!9
0!10
#165
1!1
0!2
0!3
0!4
0!5
0!6
0!7
0!8
0!9
0!10
#166
1!1
0!2
0!3
0!4
0!5
0!6
0!7
0!8
0!9
0!10
#167
1!1
0!2
0!3
0!4
0!5
0!6
0!7
0!8
0!9
0!10
#168
1!1
0!2
0!3
0!4
0!5
0!6
0!7
0!8
0!9
0!10
#169
1!1
0!2
0!3
0!4
0!5
0!6
0!7
0!8
0!9
0!10
#170
1!1
0!2
0!3
0!4
0!5
0!6
0!7
0!8
0!9
0!10
#171
1!1
0!2
0!3
0!4
0!5
0!6
0!7
0!8
0!9
0!10
#172
1!1
0!2
0!3
0!4
0!5
0!6
0!7
0!8
0!9
0!10
#173
1!1
0!2
0!3
0!4
0!5
0!6
0!7
0!8
0!9
0!10
#174
1!1
0!2
0!3
0!4
0!5
0!6
0!7
0!8
0!9
0!10
#175
1!1
0!2
0!3
0!4
0!5
0!6
0!7
0!8
0!9
0!10
#176
1!1
0!2
0!3
0!4
0!5
0!6
0!7
0!8
0!9
0!10
#177
1!1
0!2
0!3
0!4
0!5
0!6
0!7
0!8
0!9
0!10
#178
1!1
0!2
0!3
0!4
0!5
0!6
0!7
0!8
0!9
0!10
#179
1!1
0!2
0!3
0!4
0!5
0!6
0!7
0!8
0!9
0!10
#180
1!1
0!2
0!3
0!4
0!5
0!6
0!7
0!8
0!9
0!10
#181
1!1
0!2
0!3
0!4
0!5
0!6
0!7
0!8
0!9
0!10
#182
1!1
0!2
0!3
0!4
0!5
0!6
0!7
0!8
0!9
0!10
#183
1!1
0!2
0!3
0!4
0!5
0!6
0!7
0!8
0!9
0!10
#184
1!1
0!2
0!3
0!4
0!5
0!6
0!7
0!8
0!9
0!10
#185
1!1
0!2
0!3
0!4
0!5
0!6
0!7
0!8
0!9
0!10
#186
1!1
0!2
0!3
0!4
0!5
0!6
0!7
0!8
0!9
0!10
#187
1!1
0!2
0!3
0!4
0!5
0!6
0!7
0!8
0!9
0!10
#188
1!1
0!2
0!3
0!4
0!5
0!6
0!7
0!8
0!9
0!10
#189
1!1
0!2
0!3
0!4
0!5
0!6
0!7
0!8
0!9
0!10
#190
1!1
0!2
0!3
0!4
0!5
0!6
0!7
0!8
0!9
0!10
#191
1!1
0!2
0!3
0!4
0!5
0!6
0!7
0!8
0!9
0!10
#192
1!1
0!2
0!3
0!4
0!5
0!6
0!7
0!8
0!9
0!10
#193
1!1
0!2
0!3
0!4
0!5
0!6
0!7
0!8
0!9
0!10
#194
1!1
0!2
0!3
0!4
0!5
0!6
0!7
0!8
0!9
0!10
#195
1!1
0!2
0!3
0!4
0!5
0!6
0!7
0!8
0!9
0!10
#196
1!1
0!2
0!3
0!4
0!5
0!6
0!7
0!8
0!9
0!10
#197
1!1
0!2
0!3
0!4
0!5
0!6
0!7
0!8
0!9
0!10
#198
1!1
0!2
0!3
0!4
0!5
0!6
0!7
0!8
0!9
0!10
#199
1!1
0!2
0!3
0!4
0!5
0!6
0!7
0!8
0!9
0!10
#200
1!1
0!2
0!3
0!4
0!5
0!6
0!7
0!8
0!9
0!10
#201
1!1
0!2
0!3
0!4
0!5
0!6
0!7
0!8
0!9
0!10
#202
1!1
0!2
0!3
0!4
0!5
0!6
0!7
0!8
0!9
0!10
#203
1!1
0!2
0!3
0!4
0!5
0!6
0!7
0!8
1!9
0!10
#204
1!1
0!2
0!3
0!4
0!5
0!6
0!7
0!8
0!9
0!10
#205
1!1
0!2
0!3
0!4
0!5
0!6
0!7
0!8
0!9
0!10
#206
1!1
0!2
0!3
0!4
0!5
0!6
0!7
0!8
0!9
0!10
#207
1!1
1!2
0!3
0!4
0!5
0!6
0!7
0!8
0!9
0!10
#208
1!1
0!2
0!3
0!4
0!5
0!6
0!7
0!8
0!9
0!10
#209
1!1
0!2
0!3
0!4
0!5
0!6
0!7
0!8
0!9
0!10
#210
1!1
0!2
0!3
0!4
0!5
0!6
0!7
0!8
0!9
0!10
#211
1!1
0!2
0!3
0!4
0!5
0!6
0!7
0!8
0!9
0!10
#212
1!1
0!2
0!3
0!4
0!5
0!6
0!7
0!8
0!9
0!10
#213
1!1
0!2
0!3
0!4
0!5
0!6
0!7
0!8
0!9
0!10
#214
1!1
0!2
0!3
0!4
0!5
0!6
0!7
0!8
0!9
0!10
#215
1!1
0!2
0!3
0!4
0!5
0!6
0!7
0!8
0!9
0!10
#216
1!1
0!2
0!3
0!4
0!5
0!6
0!7
0!8
0!9
0!10
#217
1!1
0!2
0!3
0!4
0!5
0!6
0!7
0!8
0!9
0!10
#218
1!1
0!2
0!3
0!4
0!5
0!6
0!7
0!8
0!9
0!10
#219
1!1
0!2
0!3
0!4
0!5
0!6
0!7
0!8
0!9
0!10
#220
1!1
0!2
0!3
0!4
0!5
0!6
0!7
0!8
0!9
0!10
#221
1!1
0!2
0!3
0!4
0!5
0!6
0!7
0!8
0!9
0!10
#222
1!1
0!2
0!3
0!4
0!5
0!6
0!7
0!8
0!9
0!10
#223
1!1
0!2
0!3
0!4
0!5
0!6
0!7
0!8
0!9
0!10
#224
1!1
0!2
0!3
0!4
0!5
0!6
0!7
0!8
0!9
0!10
#225
1!1
0!2
0!3
0!4
0!5
0!6
0!7
0!8
0!9
0!10
#226
1!1
0!2
0!3
0!4
0!5
0!6
0!7
0!8
0!9
0!10
#227
1!1
0!2
0!3
0!4
0!5
0!6
0!7
0!8
0!9
0!10
#228
1!1
1!2
1!3
1!4
0!5
0!6
0!7
0!8
0!9
1!10
#229
1!1
0!2
0!3
0!4
0!5
0!6
0!7
0!8
0!9
0!10
#230
1!1
0!2
0!3
0!4
0!5
0!6
0!7
0!8
0!9
0!10
#231
1!1
0!2
0!3
0!4
0!5
0!6
0!7
0!8
0!9
0!10
#232
1!1
0!2
0!3
0!4
0!5
0!6
0!7
0!8
0!9
0!10
#233
1!1
0!2
0!3
0!4
0!5
0!6
0!7
0!8
0!9
0!10
#234
1!1
0!2
0!3
0!4
0!5
0!6
0!7
0!8
0!9
0!10
#235
1!1
0!2
0!3
0!4
0!5
0!6
0!7
0!8
0!9
0!10
#236
1!1
0!2
0!3
0!4
0!5
0!6
0!7
0!8
0!9
0!10
#237
1!1
0!2
0!3
0!4
0!5
0!6
0!7
0!8
0!9
0!10
#238
1!1
0!2
0!3
0!4
0!5
0!6
0!7
0!8
0!9
0!10
#239
1!1
0!2
0!3
0!4
0!5
0!6
0!7
0!8
0!9
0!10
#240
1!1
0!2
0!3
0!4
0!5
0!6
0!7
0!8
0!9
0!10
#241
1!1
0!2
0!3
0!4
0!5
0!6
0!7
0!8
0!9
0!10
#242
1!1
0!2
0!3
0!4
0!5
0!6
0!7
0!8
0!9
0!10
#243
1!1
0!2
0!3
0!4
0!5
0!6
0!7
0!8
0!9
0!10
#244
1!1
0!2
0!3
0!4
0!5
0!6
0!7
0!8
0!9
0!10
#245
1!1
0!2
0!3
0!4
0!5
0!6
0!7
0!8
0!9
0!10
#246
1!1
0!2
0!3
0!4
0!5
0!6
0!7
0!8
0!9
0!10
#247
1!1
0!2
0!3
0!4
0!5
0!6
0!7
0!8
0!9
0!10
#248
1!1
0!2
0!3
0!4
0!5
0!6
0!7
0!8
0!9
0!10
#249
1!1
0!2
0!3
0!4
0!5
0!6
0!7
0!8
0!9
0!10
#250
1!1
0!2
0!3
0!4
0!5
0!6
0!7
0!8
0!9
0!10
#251
1!1
0!2
0!3
0!4
0!5
0!6
0!7
0!8
0!9
0!10
#252
1!1
0!2
0!3
0!4
0!5
0!6
0!7
0!8
0!9
0!10
#253
1!1
0!2
0!3
0!4
0!5
0!6
0!7
0!8
0!9
0!10
#254
1!1
0!2
0!3
0!4
0!5
0!6
0!7
0!8
0!9
0!10
#255
1!1
0!2
0!3
0!4
0!5
0!6
0!7
0!8
0!9
0!10
#256
1!1
0!2
0!3
0!4
0!5
0!6
0!7
0!8
0!9
0!10
#257
1!1
0!2
0!3
0!4
0!5
0!6
0!7
0!8
0!9
0!10
#258
1!1
0!2
0!3
0!4
0!5
0!6
0!7
0!8
0!9
0!10
#259
1!1
0!2
0!3
0!4
0!5
0!6
0!7
0!8
0!9
0!10
#260
1!1
0!2
0!3
0!4
0!5
0!6
0!7
0!8
0!9
0!10
#261
1!1
0!2
0!3
0!4
0!5
0!6
0!7
0!8
0!9
0!10
#262
1!1
0!2
0!3
0!4
0!5
0!6
0!7
0!8
0!9
0!10
#263
1!1
0!2
0!3
0!4
0!5
0!6
0!7
0!8
0!9
0!10
#264
1!1
0!2
0!3
0!4
0!5
0!6
0!7
0!8
0!9
0!10
#265
1!1
0!2
1!3
0!4
1!5
0!6
0!7
0!8
0!9
0!10
#266
1!1
0!2
0!3
0!4
0!5
0!6
0!7
0!8
0!9
0!10
#267
1!1
0!2
0!3
0!4
0!5
0!6
0!7
0!8
0!9
0!10
#268
1!1
0!2
0!3
0!4
0!5
0!6
0!7
0!8
0!9
0!10
#269
1!1
0!2
0!3
0!4
0!5
0!6
0!7
0!8
0!9
0!10
#270
1!1
0!2
0!3
0!4
0!5
0!6
0!7
0!8
0!9
0!10
#271
1!1
0!2
0!3
0!4
0!5
0!6
0!7
0!8
0!9
0!10
#272
1!1
0!2
0!3
0!4
0!5
0!6
0!7
0!8
0!9
0!10
#273
1!1
0!2
0!3
0!4
0!5
0!6
0!7
0!8
0!9
0!10
#274
1!1
0!2
0!3
0!4
0!5
0!6
0!7
0!8
0!9
0!10
#275
1!1
0!2
0!3
0!4
0!5
0!6
0!7
0!8
0!9
0!10
#276
1!1
0!2
0!3
0!4
0!5
0!6
0!7
0!8
0!9
0!10
#277
1!1
0!2
0!3
0!4
0!5
0!6
0!7
0!8
0!9
0!10
#278
1!1
0!2
0!3
0!4
0!5
0!6
0!7
0!8
0!9
0!10
#279
1!1
0!2
0!3
0!4
0!5
0!6
0!7
0!8
0!9
0!10
#280
1!1
0!2
0!3
0!4
0!5
0!6
0!7
0!8
0!9
0!10
#281
1!1
0!2
0!3
0!4
0!5
0!6
0!7
0!8
0!9
0!10
#282
1!1
0!2
0!3
0!4
0!5
0!6
0!7
0!8
0!9
0!10
#283
1!1
0!2
0!3
0!4
0!5
0!6
0!7
0!8
0!9
0!10
#284
1!1
0!2
0!3
0!4
0!5
0!6
0!7
0!8
0!9
0!10
#285
1!1
0!2
0!3
0!4
0!5
0!6
0!7
0!8
0!9
0!10
#286
1!1
0!2
0!3
0!4
0!5
0!6
0!7
0!8
0!9
0!10
#287
1!1
0!2
0!3
0!4
0!5
0!6
0!7
0!8
0!9
0!10
#288
1!1
0!2
0!3
0!4
0!5
0!6
0!7
0!8
0!9
0!10
#289
1!1
0!2
0!3
0!4
0!5
0!6
0!7
0!8
0!9
0!10
#290
1!1
0!2
0!3
0!4
0!5
0!6
0!7
0!8
0!9
0!10
#291
1!1
0!2
0!3
0!4
0!5
0!6
0!7
0!8
0!9
0!10
#292
1!1
0!2
0!3
0!4
0!5
0!6
0!7
0!8
0!9
0!10
#293
1!1
0!2
0!3
0!4
0!5
0!6
0!7
0!8
0!9
0!10
#294
1!1
0!2
0!3
0!4
0!5
0!6
0!7
0!8
0!9
0!10
#295
1!1
0!2
0!3
0!4
0!5
0!6
0!7
0!8
0!9
0!10
#296
1!1
0!2
0!3
0!4
0!5
0!6
0!7
0!8
0!9
0!10
#297
1!1
0!2
0!3
0!4
0!5
0!6
0!7
0!8
0!9
0!10
#298
1!1
0!2
0!3
0!4
0!5
0!6
0!7
0!8
0!9
0!10
#299
1!1
0!2
0!3
0!4
0!5
0!6
0!7
0!8
0!9
0!10
#300
1!1
0!2
0!3
0!4
0!5
0!6
0!7
0!8
0!9
0!10
#301
1!1
0!2
0!3
0!4
0!5
0!6
0!7
0!8
0!9
0!10
#302
1!1
0!2
0!3
0!4
0!5
0!6
0!7
0!8
0!9
0!10
#303
1!1
0!2
0!3
0!4
0!5
1!6
0!7
0!8
0!9
0!10
#304
1!1
1!2
0!3
0!4
0!5
0!6
1!7
0!8
0!9
0!10
#305
1!1
0!2
0!3
0!4
0!5
0!6
0!7
0!8
0!9
0!10
#306
1!1
0!2
0!3
0!4
0!5
0!6
0!7
0!8
0!9
0!10
#307
1!1
0!2
0!3
0!4
0!5
0!6
0!7
0!8
0!9
0!10
#308
1!1
0!2
0!3
0!4
0!5
0!6
0!7
0!8
0!9
0!10
#309
1!1
0!2
0!3
0!4
0!5
0!6
0!7
0!8
0!9
0!10
#310
1!1
0!2
0!3
0!4
0!5
0!6
0!7
0!8
0!9
0!10
#311
1!1
0!2
0!3
0!4
0!5
0!6
0!7
0!8
0!9
0!10
#312
1!1
0!2
0!3
0!4
0!5
0!6
0!7
0!8
0!9
0!10
#313
1!1
0!2
0!3
0!4
0!5
0!6
0!7
0!8
0!9
0!10
#314
1!1
0!2
1!3
0!4
0!5
0!6
0!7
1!8
0!9
0!10
#315
1!1
0!2
0!3
0!4
0!5
0!6
0!7
0!8
0!9
0!10
#316
1!1
0!2
0!3
0!4
0!5
0!6
0!7
0!8
0!9
0!10
#317
1!1
0!2
0!3
0!4
0!5
0!6
0!7
0!8
0!9
0!10
#318
1!1
0!2
0!3
0!4
0!5
0!6
0!7
0!8
0!9
0!10
#319
1!1
0!2
0!3
0!4
0!5
0!6
0!7
0!8
0!9
0!10
#320
1!1
0!2
0!3
0!4
0!5
0!6
0!7
0!8
0!9
0!10
#321
1!1
0!2
0!3
0!4
0!5
0!6
0!7
0!8
0!9
0!10
#322
1!1
0!2
0!3
0!4
0!5
0!6
0!7
0!8
0!9
0!10
#323
1!1
0!2
0!3
0!4
0!5
0!6
0!7
0!8
0!9
0!10
#324
1!1
0!2
0!3
0!4
0!5
0!6
0!7
0!8
0!9
0!10
#325
1!1
0!2
0!3
0!4
0!5
0!6
0!7
0!8
0!9
0!10
#326
1!1
0!2
0!3
0!4
0!5
0!6
0!7
0!8
0!9
0!10
#327
1!1
0!2
0!3
0!4
0!5
0!6
0!7
0!8
0!9
0!10
#328
1!1
0!2
0!3
0!4
0!5
0!6
0!7
0!8
0!9
0!10
#329
1!1
0!2
0!3
0!4
0!5
0!6
0!7
0!8
0!9
0!10
#330
1!1
0!2
0!3
0!4
0!5
0!6
0!7
0!8
0!9
0!10
#331
1!1
0!2
0!3
0!4
0!5
0!6
0!7
0!8
0!9
0!10
#332
1!1
0!2
0!3
0!4
0!5
0!6
0!7
0!8
0!9
0!10
#333
1!1
0!2
0!3
0!4
0!5
0!6
0!7
0!8
0!9
0!10
#334
1!1
1!2
0!3
1!4
0!5
0!6
0!7
0!8
0!9
0!10
#335
1!1
0!2
0!3
0!4
0!5
0!6
0!7
0!8
0!9
0!10
#336
1!1
0!2
0!3
0!4
0!5
0!6
0!7
0!8
0!9
0!10
#337
1!1
0!2
0!3
0!4
0!5
0!6
0!7
0!8
0!9
0!10
#338
1!1
0!2
0!3
0!4
0!5
0!6
0!7
0!8
0!9
0!10
#339
1!1
0!2
0!3
0!4
0!5
0!6
0!7
0!8
0!9
0!10
#340
1!1
0!2
0!3
0!4
0!5
0!6
0!7
0!8
0!9
0!10
#341
1!1
0!2
0!3
0!4
0!5
0!6
0!7
0!8
0!9
0!10
#342
1!1
0!2
0!3
0!4
0!5
0!6
0!7
0!8
0!9
0!10
#343
1!1
0!2
0!3
0!4
0!5
0!6
0!7
0!8
0!9
0!10
#344
1!1
0!2
0!3
0!4
0!5
0!6
0!7
0!8
0!9
0!10
#345
1!1
0!2
0!3
0!4
0!5
0!6
0!7
0!8
0!9
0!10
#346
1!1
0!2
0!3
0!4
0!5
0!6
0!7
0!8
0!9
0!10
#347
1!1
0!2
0!3
0!4
0!5
0!6
0!7
0!8
0!9
0!10
#348
1!1
0!2
0!3
0!4
0!5
0!6
0!7
0!8
0!9
0!10
#349
1!1
0!2
0!3
0!4
0!5
0!6
0!7
0!8
0!9
0!10
#350
1!1
0!2
0!3
0!4
0!5
0!6
0!7
0!8
0!9
0!10
#351
1!1
0!2
0!3
0!4
0!5
0!6
0!7
0!8
0!9
0!10
#352
1!1
0!2
0!3
0!4
0!5
0!6
0!7
0!8
0!9
0!10
#353
1!1
0!2
0!3
0!4
0!5
0!6
0!7
0!8
1!9
0!10
#354
1!1
0!2
0!3
0!4
0!5
0!6
0!7
0!8
0!9
0!10
#355
1!1
0!2
0!3
0!4
0!5
0!6
0!7
0!8
0!9
0!10
#356
1!1
0!2
0!3
0!4
0!5
0!6
0!7
0!8
0!9
0!10
#357
1!1
0!2
0!3
0!4
0!5
0!6
0!7
0!8
0!9
0!10
#358
1!1
0!2
0!3
0!4
0!5
0!6
0!7
0!8
0!9
0!10
#359
1!1
0!2
0!3
0!4
0!5
0!6
0!7
0!8
0!9
0!10
#360
1!1
0!2
0!3
0!4
0!5
0!6
0!7
0!8
0!9
0!10
#361
1!1
0!2
0!3
0!4
0!5
0!6
0!7
0!8
0!9
0!10
#362
1!1
0!2
0!3
0!4
0!5
0!6
0!7
0!8
0!9
0!10
#363
1!1
0!2
0!3
0!4
0!5
0!6
0!7
0!8
0!9
0!10
#364
1!1
0!2
0!3
0!4
0!5
0!6
0!7
0!8
0!9
0!10
#365
1!1
0!2
0!3
0!4
0!5
0!6
0!7
0!8
0!9
0!10
#366
1!1
0!2
0!3
0!4
0!5
0!6
0!7
0!8
0!9
0!10
#367
1!1
0!2
0!3
0!4
0!5
0!6
0!7
0!8
0!9
0!10
#368
1!1
0!2
0!3
0!4
0!5
0!6
0!7
0!8
0!9
0!10
#369
1!1
0!2
0!3
0!4
0!5
0!6
0!7
0!8
0!9
0!10
#370
1!1
0!2
0!3
0!4
0!5
0!6
0!7
0!8
0!9
0!10
#371
1!1
1!2
1!3
0!4
1!5
0!6
0!7
0!8
0!9
0!10
#372
1!1
0!2
0!3
0!4
0!5
0!6
0!7
0!8
0!9
0!10
#373
1!1
0!2
0!3
0!4
0!5
0!6
0!7
0!8
0!9
0!10
#374
1!1
0!2
0!3
0!4
0!5
0!6
0!7
0!8
0!9
0!10
#375
1!1
0!2
0!3
0!4
0!5
0!6
0!7
0!8
0!9
0!10
#376
1!1
0!2
0!3
0!4
0!5
0!6
0!7
0!8
0!9
0!10
#377
1!1
0!2
0!3
0!4
0!5
0!6
0!7
0!8
0!9
0!10
#378
1!1
0!2
1!3
0!4
0!5
0!6
0!7
0!8
0!9
1!10
#379
1!1
0!2
0!3
0!4
0!5
0!6
0!7
0!8
0!9
0!10
#380
1!1
0!2
0!3
0!4
0!5
0!6
0!7
0!8
0!9
0!10
#381
1!1
0!2
0!3
0!4
0!5
0!6
0!7
0!8
0!9
0!10
#382
1!1
0!2
0!3
0!4
0!5
0!6
0!7
0!8
0!9
0!10
#383
1!1
0!2
0!3
0!4
0!5
0!6
0!7
0!8
0!9
0!10
#384
1!1
0!2
0!3
0!4
0!5
0!6
0!7
0!8
0!9
0!10
#385
1!1
0!2
0!3
0!4
0!5
0!6
0!7
0!8
0!9
0!10
#386
1!1
0!2
0!3
0!4
0!5
0!6
0!7
0!8
0!9
0!10
#387
1!1
0!2
0!3
0!4
0!5
0!6
0!7
0!8
0!9
0!10
#388
1!1
0!2
0!3
0!4
0!5
0!6
0!7
0!8
0!9
0!10
#389
1!1
0!2
0!3
0!4
0!5
0!6
0!7
0!8
0!9
0!10
#390
1!1
0!2
0!3
0!4
0!5
0!6
0!7
0!8
0!9
0!10
#391
1!1
0!2
0!3
0!4
0!5
0!6
0!7
0!8
0!9
0!10
#392
1!1
0!2
0!3
0!4
0!5
0!6
0!7
0!8
0!9
0!10
#393
1!1
0!2
0!3
0!4
0!5
0!6
0!7
0!8
0!9
0!10
#394
1!1
0!2
0!3
0!4
0!5
0!6
0!7
0!8
0!9
0!10
#395
1!1
0!2
0!3
0!4
0!5
0!6
0!7
0!8
0!9
0!10
#396
1!1
0!2
0!3
0!4
0!5
0!6
0!7
0!8
0!9
0!10
#397
1!1
0!2
0!3
0!4
0!5
0!6
0!7
0!8
0!9
0!10
#398
1!1
0!2
0!3
0!4
0!5
0!6
0!7
0!8
0!9
0!10
#399
1!1
0!2
0!3
0!4
0!5
0!6
0!7
0!8
0!9
0!10
#400
1!1
0!2
0!3
0!4
0!5
0!6
0!7
0!8
0!9
0!10
#401
1!1
0!2
0!3
0!4
0!5
0!6
0!7
0!8
0!9
0!10
#402
1!1
0!2
0!3
0!4
0!5
0!6
0!7
0!8
0!9
0!10
#403
1!1
0!2
0!3
0!4
0!5
0!6
0!7
0!8
0!9
0!10
#404
1!1
0!2
0!3
0!4
0!5
0!6
0!7
0!8
0!9
0!10
#405
1!1
0!2
0!3
0!4
0!5
0!6
0!7
0!8
0!9
0!10
#406
1!1
0!2
0!3
0!4
0!5
0!6
0!7
0!8
0!9
0!10
#407
1!1
0!2
0!3
0!4
0!5
0!6
0!7
0!8
0!9
0!10
#408
1!1
0!2
0!3
0!4
0!5
0!6
0!7
0!8
0!9
0!10
#409
1!1
0!2
0!3
0!4
0!5
0!6
0!7
0!8
0!9
0!10
#410
1!1
0!2
0!3
0!4
0!5
0!6
0!7
0!8
0!9
0!10
#411
1!1
0!2
0!3
0!4
0!5
0!6
0!7
0!8
0!9
0!10
#412
1!1
0!2
0!3
0!4
0!5
0!6
0!7
0!8
0!9
0!10
#413
1!1
0!2
0!3
0!4
0!5
0!6
0!7
0!8
0!9
0!10
#414
1!1
0!2
0!3
0!4
0!5
0!6
0!7
0!8
0!9
0!10
#415
1!1
0!2
0!3
0!4
0!5
0!6
0!7
0!8
0!9
0!10
#416
1!1
0!2
0!3
0!4
0!5
0!6
0!7
0!8
0!9
0!10
#417
1!1
0!2
0!3
0!4
0!5
0!6
0!7
0!8
0!9
0!10
#418
1!1
0!2
0!3
0!4
0!5
0!6
0!7
0!8
0!9
0!10
#419
1!1
0!2
0!3
0!4
0!5
0!6
0!7
0!8
0!9
0!10
#420
1!1
0!2
0!3
0!4
0!5
0!6
0!7
0!8
0!9
0!10
#421
1!1
0!2
0!3
0!4
0!5
0!6
0!7
0!8
0!9
0!10
#422
1!1
0!2
0!3
0!4
0!5
0!6
0!7
0!8
0!9
0!10
#423
1!1
0!2
0!3
0!4
0!5
0!6
0!7
0!8
0!9
0!10
#424
1!1
0!2
0!3
0!4
0!5
0!6
0!7
0!8
0!9
0!10
#425
1!1
0!2
0!3
0!4
0!5
0!6
0!7
0!8
0!9
0!10
#426
1!1
0!2
0!3
0!4
0!5
0!6
0!7
0!8
0!9
0!10
#427
1!1
0!2
0!3
0!4
0!5
0!6
0!7
0!8
0!9
0!10
#428
1!1
0!2
0!3
0!4
0!5
0!6
0!7
0!8
0!9
0!10
#429
1!1
0!2
0!3
0!4
0!5
0!6
0!7
0!8
0!9
0!10
#430
1!1
0!2
0!3
0!4
0!5
0!6
0!7
0!8
0!9
0!10
#431
1!1
0!2
0!3
0!4
0!5
0!6
0!7
0!8
0!9
0!10
#432
1!1
0!2
0!3
0!4
0!5
0!6
0!7
0!8
0!9
0!10
#433
1!1
0!2
0!3
0!4
0!5
0!6
0!7
0!8
0!9
0!10
#434
1!1
0!2
0!3
0!4
0!5
0!6
0!7
0!8
0!9
0!10
#435
1!1
0!2
0!3
0!4
0!5
0!6
0!7
0!8
0!9
0!10
#436
1!1
0!2
0!3
0!4
0!5
0!6
0!7
0!8
0!9
0!10
#437
1!1
0!2
0!3
0!4
0!5
0!6
0!7
0!8
0!9
0!10
#438
1!1
0!2
0!3
0!4
0!5
0!6
0!7
0!8
0!9
0!10
#439
1!1
0!2
0!3
0!4
0!5
0!6
0!7
0!8
0!9
0!10
#440
1!1
0!2
0!3
0!4
0!5
0!6
0!7
0!8
0!9
0!10
#441
1!1
0!2
0!3
0!4
0!5
0!6
0!7
0!8
0!9
0!10
#442
1!1
0!2
0!3
0!4
0!5
0!6
0!7
0!8
0!9
0!10
#443
1!1
0!2
0!3
0!4
0!5
0!6
0!7
0!8
0!9
0!10
#444
1!1
1!2
0!3
1!4
0!5
0!6
0!7
0!8
0!9
0!10
#445
1!1
0!2
0!3
0!4
0!5
0!6
0!7
0!8
0!9
0!10
#446
1!1
0!2
0!3
0!4
0!5
0!6
0!7
0!8
0!9
0!10
#447
1!1
0!2
0!3
0!4
0!5
0!6
0!7
0!8
0!9
0!10
#448
1!1
0!2
0!3
0!4
0!5
0!6
0!7
0!8
0!9
0!10
#449
1!1
0!2
0!3
0!4
0!5
0!6
0!7
0!8
0!9
0!10
#450
1!1
0!2
0!3
0!4
0!5
0!6
0!7
0!8
0!9
0!10
#451
1!1
0!2
0!3
0!4
0!5
0!6
0!7
0!8
0!9
0!10
#452
1!1
0!2
0!3
0!4
0!5
0!6
0!7
0!8
0!9
0!10
#453
1!1
0!2
0!3
0!4
0!5
1!6
0!7
0!8
0!9
0!10
#454
1!1
0!2
0!3
0!4
0!5
0!6
0!7
0!8
0!9
0!10
#455
1!1
0!2
0!3
0!4
0!5
0!6
0!7
0!8
0!9
0!10
#456
1!1
0!2
0!3
0!4
0!5
0!6
0!7
0!8
0!9
0!10
#457
1!1
0!2
0!3
0!4
0!5
0!6
0!7
0!8
0!9
0!10
#458
1!1
0!2
0!3
0!4
0!5
0!6
0!7
0!8
0!9
0!10
#459
1!1
0!2
0!3
0!4
0!5
0!6
0!7
0!8
0!9
0!10
#460
1!1
0!2
0!3
0!4
0!5
0!6
0!7
0!8
0!9
0!10
#461
1!1
0!2
0!3
0!4
0!5
0!6
0!7
0!8
0!9
0!10
#462
1!1
0!2
0!3
0!4
0!5
0!6
0!7
0!8
0!9
0!10
#463
1!1
0!2
0!3
0!4
0!5
0!6
0!7
0!8
0!9
0!10
#464
1!1
0!2
0!3
0!4
0!5
0!6
0!7
0!8
0!9
0!10
#465
1!1
0!2
0!3
0!4
0!5
0!6
0!7
0!8
0!9
0!10
#466
1!1
0!2
0!3
0!4
0!5
0!6
0!7
0!8
0!9
0!10
#467
1!1
0!2
0!3
0!4
0!5
0!6
0!7
0!8
0!9
0!10
#468
1!1
0!2
0!3
0!4
0!5
0!6
0!7
0!8
0!9
0!10
#469
1!1
0!2
0!3
0!4
0!5
0!6
0!7
0!8
0!9
0!10
#470
1!1
0!2
0!3
0!4
0!5
0!6
0!7
0!8
0!9
0!10
#471
1!1
0!2
0!3
0!4
0!5
0!6
0!7
0!8
0!9
0!10
#472
1!1
0!2
0!3
0!4
0!5
0!6
0!7
0!8
0!9
0!10
#473
1!1
0!2
0!3
0!4
0!5
0!6
0!7
0!8
0!9
0!10
#474
1!1
0!2
0!3
0!4
0!5
0!6
0!7
0!8
0!9
0!10
#475
1!1
0!2
0!3
0!4
0!5
0!6
0!7
0!8
0!9
0!10
#476
1!1
0!2
0!3
0!4
0!5
0!6
0!7
0!8
0!9
0!10
#477
1!1
0!2
0!3
0!4
0!5
0!6
0!7
0!8
0!9
0!10
#478
1!1
0!2
0!3
0!4
0!5
0!6
0!7
0!8
0!9
0!10
#479
1!1
0!2
0!3
0!4
0!5
0!6
0!7
0!8
0!9
0!10
#480
1!1
0!2
0!3
0!4
0!5
0!6
0!7
0!8
0!9
0!10
#481
1!1
1!2
1!3
0!4
1!5
0!6
1!7
0!8
0!9
0!10
#482
1!1
0!2
0!3
0!4
0!5
0!6
0!7
0!8
0!9
0!10
#483
1!1
0!2
0!3
0!4
0!5
0!6
0!7
0!8
0!9
0!10
#484
1!1
0!2
0!3
0!4
0!5
0!6
0!7
0!8
0!9
0!10
#485
1!1
0!2
0!3
0!4
0!5
0!6
0!7
0!8
0!9
0!10
#486
1!1
0!2
0!3
0!4
0!5
0!6
0!7
0!8
0!9
0!10
#487
1!1
0!2
0!3
0!4
0!5
0!6
0!7
0!8
0!9
0!10
#488
1!1
0!2
0!3
0!4
0!5
0!6
0!7
0!8
0!9
0!10
#489
1!1
0!2
0!3
0!4
0!5
0!6
0!7
0!8
0!9
0!10
#490
1!1
0!2
0!3
0!4
0!5
0!6
0!7
0!8
0!9
0!10
#491
1!1
0!2
1!3
0!4
0!5
0!6
0!7
1!8
0!9
0!10
#492
1!1
0!2
0!3
0!4
0!5
0!6
0!7
0!8
0!9
0!10
#493
1!1
0!2
0!3
0!4
0!5
0!6
0!7
0!8
0!9
0!10
#494
1!1
0!2
0!3
0!4
0!5
0!6
0!7
0!8
0!9
0!10
#495
1!1
0!2
0!3
0!4
0!5
0!6
0!7
0!8
0!9
0!10
#496
1!1
0!2
0!3
0!4
0!5
0!6
0!7
0!8
0!9
0!10
#497
1!1
0!2
0!3
0!4
0!5
0!6
0!7
0!8
0!9
0!10
#498
1!1
0!2
0!3
0!4
0!5
0!6
0!7
0!8
0!9
0!10
#499
1!1
0!2
0!3
0!4
0!5
0!6
0!7
0!8
0!9
0!10
#500
1!1
0!2
0!3
0!4
0!5
0!6
0!7
0!8
0!9
0!10
#501
1!1
0!2
0!3
0!4
0!5
0!6
0!7
0!8
0!9
0!10
#502
1!1
0!2
0!3
0!4
0!5
0!6
0!7
0!8
0!9
0!10
#503
1!1
0!2
0!3
0!4
0!5
0!6
0!7
0!8
0!9
0!10
#504
1!1
0!2
0!3
0!4
0!5
0!6
0!7
0!8
0!9
0!10
#505
1!1
0!2
0!3
0!4
0!5
0!6
0!7
0!8
0!9
0!10
#506
1!1
0!2
0!3
0!4
0!5
0!6
0!7
0!8
0!9
0!10
#507
1!1
0!2
0!3
0!4
0!5
0!6
0!7
0!8
0!9
0!10
#508
1!1
0!2
0!3
0!4
0!5
0!6
0!7
0!8
0!9
0!10
#509
1!1
0!2
0!3
0!4
0!5
0!6
0!7
0!8
0!9
0!10
#510
1!1
0!2
0!3
0!4
0!5
0!6
0!7
0!8
0!9
0!10
#511
1!1
0!2
0!3
0!4
0!5
0!6
0!7
0!8
0!9
0!10
#512
1!1
0!2
0!3
0!4
0!5
0!6
0!7
0!8
0!9
0!10
#513
1!1
0!2
0!3
0!4
0!5
0!6
0!7
0!8
0!9
0!10
#514
1!1
0!2
0!3
0!4
0!5
0!6
0!7
0!8
0!9
0!10
#515
1!1
0!2
0!3
0!4
0!5
0!6
0!7
0!8
0!9
0!10
#516
1!1
0!2
0!3
0!4
0!5
0!6
0!7
0!8
0!9
0!10
#517
1!1
0!2
0!3
0!4
0!5
0!6
0!7
0!8
0!9
0!10
#518
1!1
0!2
0!3
0!4
0!5
0!6
0!7
0!8
0!9
0!10
#519
1!1
0!2
0!3
0!4
0!5
0!6
0!7
0!8
0!9
0!10
#520
1!1
0!2
0!3
0!4
0!5
0!6
0!7
0!8
0!9
0!10
#521
1!1
0!2
0!3
0!4
0!5
0!6
0!7
0!8
0!9
0!10
#522
1!1
0!2
0!3
0!4
0!5
0!6
0!7
0!8
0!9
0!10
#523
1!1
0!2
0!3
0!4
0!5
0!6
0!7
0!8
0!9
0!10
#524
1!1
0!2
0!3
0!4
0!5
0!6
0!7
0!8
0!9
0!10
#525
1!1
0!2
0!3
0!4
0!5
0!6
0!7
0!8
0!9
0!10
#526
1!1
0!2
0!3
0!4
0!5
0!6
0!7
0!8
0!9
0!10
#527
1!1
0!2
0!3
0!4
0!5
0!6
0!7
0!8
0!9
0!10
#528
1!1
0!2
0!3
0!4
0!5
0!6
0!7
0!8
0!9
0!10
#529
1!1
0!2
0!3
0!4
0!5
0!6
0!7
0!8
0!9
0!10
#530
1!1
0!2
0!3
0!4
0!5
0!6
0!7
0!8
1!9
0!10
#531
1!1
0!2
0!3
0!4
0!5
0!6
0!7
0!8
0!9
0!10
#532
1!1
0!2
0!3
0!4
0!5
0!6
0!7
0!8
0!9
0!10
#533
1!1
0!2
0!3
0!4
0!5
0!6
0!7
0!8
0!9
0!10
#534
1!1
1!2
0!3
0!4
0!5
0!6
0!7
0!8
0!9
0!10
#535
1!1
0!2
0!3
0!4
0!5
0!6
0!7
0!8
0!9
0!10
#536
1!1
0!2
0!3
0!4
0!5
0!6
0!7
0!8
0!9
0!10
#537
1!1
0!2
0!3
0!4
0!5
0!6
0!7
0!8
0!9
0!10
#538
1!1
0!2
0!3
0!4
0!5
0!6
0!7
0!8
0!9
0!10
#539
1!1
0!2
0!3
0!4
0!5
0!6
0!7
0!8
0!9
0!10
#540
1!1
0!2
0!3
0!4
0!5
0!6
0!7
0!8
0!9
0!10
#541
1!1
0!2
0!3
0!4
0!5
0!6
0!7
0!8
0!9
0!10
#542
1!1
0!2
0!3
0!4
0!5
0!6
0!7
0!8
0!9
0!10
#543
1!1
0!2
0!3
0!4
0!5
0!6
0!7
0!8
0!9
0!10
#544
1!1
0!2
0!3
0!4
0!5
0!6
0!7
0!8
0!9
0!10
#545
1!1
0!2
0!3
0!4
0!5
0!6
0!7
0!8
0!9
0!10
#546
1!1
0!2
0!3
0!4
0!5
0!6
0!7
0!8
0!9
0!10
#547
1!1
0!2
0!3
0!4
0!5
0!6
0!7
0!8
0!9
0!10
#548
1!1
0!2
0!3
0!4
0!5
0!6
0!7
0!8
0!9
0!10
#549
1!1
0!2
0!3
0!4
0!5
0!6
0!7
0!8
0!9
0!10
#550
1!1
0!2
0!3
0!4
0!5
0!6
0!7
0!8
0!9
0!10
#551
1!1
0!2
0!3
0!4
0!5
0!6
0!7
0!8
0!9
0!10
#552
1!1
0!2
0!3
0!4
0!5
0!6
0!7
0!8
0!9
0!10
#553
1!1
0!2
0!3
0!4
0!5
0!6
0!7
0!8
0!9
0!10
#554
1!1
0!2
0!3
0!4
0!5
0!6
0!7
0!8
0!9
0!10
#555
1!1
0!2
0!3
0!4
0!5
0!6
0!7
0!8
0!9
0!10
#556
1!1
0!2
0!3
0!4
0!5
0!6
0!7
0!8
0!9
0!10
#557
1!1
0!2
0!3
0!4
0!5
0!6
0!7
0!8
0!9
0!10
#558
1!1
0!2
0!3
0!4
0!5
0!6
0!7
0!8
0!9
0!10
#559
1!1
0!2
0!3
0!4
0!5
0!6
0!7
0!8
0!9
0!10
#560
1!1
0!2
0!3
0!4
0!5
0!6
0!7
0!8
0!9
0!10
#561
1!1
0!2
0!3
0!4
0!5
0!6
0!7
0!8
0!9
0!10
#562
1!1
0!2
0!3
0!4
0!5
0!6
0!7
0!8
0!9
0!10
#563
1!1
0!2
0!3
0!4
0!5
0!6
0!7
0!8
0!9
0!10
#564
1!1
0!2
0!3
0!4
0!5
0!6
0!7
0!8
0!9
0!10
#565
1!1
0!2
0!3
0!4
0!5
0!6
0!7
0!8
0!9
0!10
#566
1!1
0!2
0!3
0!4
0!5
0!6
0!7
0!8
0!9
0!10
#567
1!1
0!2
0!3
0!4
0!5
0!6
0!7
0!8
0!9
0!10
#568
1!1
0!2
0!3
0!4
0!5
0!6
0!7
0!8
0!9
0!10
#569
1!1
0!2
0!3
0!4
0!5
0!6
0!7
0!8
0!9
0!10
#570
1!1
0!2
0!3
0!4
0!5
0!6
0!7
0!8
0!9
0!10
#571
1!1
0!2
0!3
0!4
0!5
0!6
0!7
0!8
0!9
0!10
#572
1!1
0!2
0!3
0!4
0!5
0!6
0!7
0!8
0!9
0!10
#573
1!1
0!2
0!3
0!4
0!5
0!6
0!7
0!8
0!9
0!10
#574
1!1
0!2
0!3
0!4
0!5
0!6
0!7
0!8
0!9
0!10
#575
1!1
0!2
0!3
0!4
0!5
0!6
0!7
0!8
0!9
0!10
#576
1!1
0!2
0!3
0!4
0!5
0!6
0!7
0!8
0!9
0!10
#577
1!1
0!2
0!3
0!4
0!5
0!6
0!7
0!8
0!9
0!10
#578
1!1
0!2
0!3
0!4
0!5
0!6
0!7
0!8
0!9
0!10
#579
1!1
0!2
0!3
0!4
0!5
0!6
0!7
0!8
0!9
0!10
#580
1!1
0!2
0!3
0!4
0!5
0!6
0!7
0!8
0!9
0!10
#581
1!1
0!2
0!3
0!4
0!5
0!6
0!7
0!8
0!9
0!10
#582
1!1
0!2
0!3
0!4
0!5
0!6
0!7
0!8
0!9
0!10
#583
1!1
0!2
0!3
0!4
0!5
0!6
0!7
0!8
0!9
0!10
#584
1!1
0!2
0!3
0!4
0!5
0!6
0!7
0!8
0!9
0!10
#585
1!1
0!2
0!3
0!4
0!5
0!6
0!7
0!8
0!9
0!10
#586
1!1
0!2
0!3
0!4
0!5
0!6
0!7
0!8
0!9
0!10
#587
1!1
0!2
0!3
0!4
0!5
0!6
0!7
0!8
0!9
0!10
#588
1!1
0!2
0!3
0!4
0!5
0!6
0!7
0!8
0!9
0!10
#589
1!1
0!2
0!3
0!4
0!5
0!6
0!7
0!8
0!9
0!10
#590
1!1
0!2
0!3
0!4
0!5
0!6
0!7
0!8
0!9
0!10
#591
1!1
0!2
0!3
0!4
0!5
0!6
0!7
0!8
0!9
0!10
#592
1!1
0!2
0!3
0!4
0!5
0!6
0!7
0!8
0!9
0!10
#593
1!1
0!2
0!3
0!4
0!5
0!6
0!7
0!8
0!9
0!10
#594
1!1
0!2
0!3
0!4
0!5
0!6
0!7
0!8
0!9
0!10
#595
1!1
0!2
0!3
0!4
0!5
0!6
0!7
0!8
0!9
0!10
#596
1!1
0!2
0!3
0!4
0!5
0!6
0!7
0!8
0!9
0!10
#597
1!1
0!2
0!3
0!4
0!5
0!6
0!7
0!8
0!9
0!10
#598
1!1
0!2
0!3
0!4
0!5
0!6
0!7
0!8
0!9
0!10
#599
1!1
0!2
0!3
0!4
0!5
0!6
0!7
0!8
0!9
0!10
#600
1!1
0!2
0!3
0!4
0!5
0!6
0!7
0!8
0!9
0!10
#601
1!1
0!2
0!3
0!4
0!5
0!6
0!7
0!8
0!9
0!10
#602
1!1
0!2
0!3
0!4
0!5
0!6
0!7
0!8
0!9
0!10
#603
1!1
0!2
0!3
0!4
0!5
0!6
0!7
0!8
0!9
0!10
#604
1!1
0!2
0!3
0!4
0!5
0!6
0!7
0!8
0!9
0!10
#605
1!1
0!2
0!3
0!4
0!5
0!6
0!7
0!8
0!9
0!10
#606
1!1
0!2
0!3
0!4
0!5
0!6
0!7
0!8
0!9
0!10
#607
1!1
0!2
0!3
0!4
0!5
0!6
0!7
0!8
0!9
0!10
#608
1!1
0!2
0!3
0!4
0!5
0!6
0!7
0!8
0!9
0!10
#609
1!1
0!2
0!3
0!4
0!5
0!6
0!7
0!8
0!9
0!10
#610
1!1
0!2
0!3
0!4
0!5
0!6
0!7
0!8
0!9
0!10
#611
1!1
0!2
0!3
0!4
0!5
0!6
0!7
0!8
0!9
0!10
#612
1!1
0!2
0!3
0!4
0!5
0!6
0!7
0!8
0!9
0!10
#613
1!1
0!2
0!3
0!4
0!5
0!6
0!7
0!8
0!9
0!10
#614
1!1
0!2
0!3
0!4
0!5
0!6
0!7
0!8
0!9
0!10
#615
1!1
0!2
0!3
0!4
0!5
0!6
0!7
0!8
0!9
0!10
#616
1!1
0!2
0!3
0!4
0!5
0!6
0!7
0!8
0!9
0!10
#617
1!1
0!2
0!3
0!4
0!5
0!6
0!7
0!8
0!9
0!10
#618
1!1
0!2
0!3
0!4
0!5
0!6
0!7
0!8
0!9
0!10
#619
1!1
0!2
0!3
0!4
0!5
0!6
0!7
0!8
0!9
0!10
#620
1!1
0!2
0!3
0!4
0!5
0!6
0!7
0!8
0!9
0!10
#621
1!1
0!2
0!3
0!4
0!5
0!6
0!7
0!8
0!9
0!10
#622
1!1
0!2
0!3
0!4
0!5
0!6
0!7
0!8
0!9
0!10
#623
1!1
0!2
0!3
0!4
0!5
0!6
0!7
0!8
0!9
0!10
#624
1!1
0!2
0!3
0!4
0!5
0!6
0!7
0!8
0!9
0!10
#625
1!1
0!2
0!3
0!4
0!5
0!6
0!7
0!8
0!9
0!10
#626
1!1
0!2
0!3
0!4
0!5
0!6
0!7
0!8
0!9
0!10
#627
1!1
0!2
0!3
0!4
0!5
0!6
0!7
0!8
0!9
0!10
#628
1!1
0!2
0!3
0!4
0!5
0!6
0!7
0!8
0!9
0!10
#629
1!1
0!2
0!3
0!4
0!5
0!6
0!7
0!8
0!9
0!10
#630
1!1
0!2
0!3
0!4
0!5
0!6
0!7
0!8
0!9
0!10
#631
1!1
0!2
0!3
0!4
0!5
0!6
0!7
0!8
0!9
0!10
#632
1!1
0!2
0!3
0!4
0!5
0!6
0!7
0!8
0!9
0!10
#633
1!1
0!2
0!3
0!4
0!5
0!6
0!7
0!8
0!9
0!10
