$date 
Sun May 21 17:23:35 CEST 2017
$end

$version 
VCD Generation 2.1.0
$end

$comment alias newfile__main__globalClock "newfile::main::globalClock" $end
$comment alias newfile__main__delayedTest1 "newfile::main::delayedTest1" $end
$comment hide newfile__main__delayedTest1__DelayForDef__DelayFor_defer $end
$comment alias newfile__main__delayedTest1__DelayForDef__DelayFor_defer "newfile::main::delayedTest1::DelayForDef::DelayFor_defer" $end
$comment alias newfile__main__delayedTest2 "newfile::main::delayedTest2" $end
$comment hide newfile__main__delayedTest2__DelayForDef__DelayFor_defer $end
$comment alias newfile__main__delayedTest2__DelayForDef__DelayFor_defer "newfile::main::delayedTest2::DelayForDef::DelayFor_defer" $end
$comment alias newfile__main__test1 "newfile::main::test1" $end
$comment alias newfile__main__test2 "newfile::main::test2" $end
$comment scale 0.1  $end
$comment relation   "newfile2017_0521_172332.ccslrelationmodel" $end
$comment xmi  newfile__main__test1 "newfile2017_0521_172332.trace#//@references.0" $end
$comment xmi  newfile__main__test2 "newfile2017_0521_172332.trace#//@references.1" $end
$comment xmi  newfile__main__globalClock "newfile2017_0521_172332.trace#//@references.2" $end
$comment xmi  newfile__main__delayedTest2__DelayForDef__DelayFor_defer "newfile2017_0521_172332.trace#//@references.3" $end
$comment xmi  newfile__main__delayedTest1 "newfile2017_0521_172332.trace#//@references.4" $end
$comment xmi  newfile__main__delayedTest1__DelayForDef__DelayFor_defer "newfile2017_0521_172332.trace#//@references.5" $end
$comment xmi  newfile__main__delayedTest2 "newfile2017_0521_172332.trace#//@references.6" $end
$scope module top $end
$var event 1 !1 newfile__main__globalClock $end
$var event 1 !2 newfile__main__delayedTest1 $end
$var event 1 !3 newfile__main__delayedTest1__DelayForDef__DelayFor_defer $end
$var event 1 !4 newfile__main__delayedTest2 $end
$var event 1 !5 newfile__main__delayedTest2__DelayForDef__DelayFor_defer $end
$var event 1 !6 newfile__main__test1 $end
$var event 1 !7 newfile__main__test2 $end
$upscope $end
$enddefinitions $end

#0
1!1
#10
1!1
#20
1!1
#30
1!1
#40
1!1
#50
1!1
#60
1!1
#70
1!1
#80
1!1
#90
1!1
#100
1!1
#110
1!1
#120
1!1
#130
1!1
#140
1!1
#150
1!1
#160
1!1
#170
1!1
#180
1!1
#190
1!1
#200
1!1
#210
1!1
#220
1!1
#230
1!1
#240
1!1
#250
1!1
#260
1!1
#270
1!1
#280
1!1
#290
1!1
#300
1!1
#310
1!1
#320
1!1
#330
1!1
#340
1!1
#350
1!1
#360
1!1
#370
1!1
#380
1!1
#390
1!1
#400
1!1
#410
1!1
#420
1!1
#430
1!1
#440
1!1
#450
1!1
#460
1!1
#470
1!1
#480
1!1
#490
1!1
#500
1!1
#510
1!1
#520
1!1
#530
1!1
#540
1!1
#550
1!1
#560
1!1
#570
1!1
#580
1!1
#590
1!1
#600
1!1
#610
1!1
#620
1!1
#630
1!1
#640
1!1
#650
1!1
#660
1!1
#670
1!1
#680
1!1
#690
1!1
#700
1!1
#710
1!1
#720
1!1
#730
1!1
#740
1!1
#750
1!1
#760
1!1
#770
1!1
#780
1!1
#790
1!1
#800
1!1
#810
1!1
#820
1!1
#830
1!1
#840
1!1
#850
1!1
#860
1!1
#870
1!1
#880
1!1
#890
1!1
#900
1!1
#910
1!1
#920
1!1
#930
1!1
#940
1!1
#950
1!1
#960
1!1
#970
1!1
#980
1!1
#990
1!1
#1000
z!1
z!2
z!3
z!4
z!5
z!6
z!7
