$date 
Sun Jun 04 22:52:02 CEST 2017
$end

$version 
VCD Generation 2.1.0
$end

$comment hide DelayFor_defer $end
$comment hide DelayFor_defer $end
$comment hide DelayFor_defer $end
$comment hide DelayFor_defer $end
$comment hide DelayFor_defer $end
$comment hide DelayFor_defer $end
$comment hide DelayFor_defer $end
$comment hide DelayFor_defer $end
$comment hide DelayFor_defer $end
$comment hide DelayFor_defer $end
$comment hide DelayFor_defer $end
$comment hide DelayFor_defer $end
$comment hide DelayFor_defer $end
$comment hide DelayFor_defer $end
$comment hide DelayFor_defer $end
$comment hide DelayFor_defer $end
$comment hide DelayFor_defer $end
$comment scale 0.1  $end
$scope module top $end
$var event 1 !1 neighborTbl_7_acquireRes $end
$var event 1 !2 assumption_beacon_19_receive $end
$var event 1 !3 req_beacon_12_taskStart $end
$var event 1 !4 req_enableBraking_18_taskComplete $end
$var event 1 !5 obstacle_2_objSysTaskStart $end
$var event 1 !6 obstacle_2_objSysTaskComplete $end
$var event 1 !7 PU2_10_dispatch $end
$var event 1 !8 periodicBeacon_6_objSysConsume $end
$var event 1 !9 emcyBrakeWarning_5_oneEvent $end
$var event 1 !10 enableBraking_1_objSysConsume $end
$var event 1 !11 emcyBraking_4_objSysReceive $end
$var event 1 !12 emcyBrakeWarning_5_objSysTaskComplete $end
$var event 1 !13 update_3_objSysTaskComplete $end
$var event 1 !14 emcyBrakeWarning_5_objSysSend $end
$var event 1 !15 enableBraking_1_oneEvent $end
$var event 1 !16 req_emcyBrakeWarning_17_taskStart $end
$var event 1 !17 req_enableBraking_18_taskStart $end
$var event 1 !18 req_beacon_12_receive $end
$var event 1 !19 assumption_beacon_19_consume $end
$var event 1 !20 emcyBraking_4_objSysSend $end
$var event 1 !21 update_3_objSysSend $end
$var event 1 !22 obstacle_2_objSysSend $end
$var event 1 !23 enableBraking_1_objSysTaskComplete $end
$var event 1 !24 assumption_obstacle_15_taskComplete $end
$var event 1 !25 req_update_14_consume $end
$var event 1 !26 req_beacon_12_send $end
$var event 1 !27 req_emcyBraking_13_taskStart $end
$var event 1 !28 req_obstacle_16_receive $end
$var event 1 !29 req_emcyBrakeWarning_17_send $end
$var event 1 !30 emcyBrakeWarning_5_objSysReceive $end
$var event 1 !31 periodicBeacon_6_oneEvent $end
$var event 1 !32 req_obstacle_16_consume $end
$var event 1 !33 assumption_obstacle_15_receive $end
$var event 1 !34 req_obstacle_16_taskComplete $end
$var event 1 !35 assumption_beacon_19_taskStart $end
$var event 1 !36 req_update_14_taskComplete $end
$var event 1 !37 obstacle_2_objSysReceive $end
$var event 1 !38 req_emcyBraking_13_send $end
$var event 1 !39 enableBraking_1_objSysReceive $end
$var event 1 !40 comConnection_9_acquireCon $end
$var event 1 !41 req_enableBraking_18_receive $end
$var event 1 !42 obstacle_2_oneEvent $end
$var event 1 !43 emcyBrakeWarning_5_objSysTaskStart $end
$var event 1 !44 obstacle_2_objSysConsume $end
$var event 1 !45 update_3_objSysConsume $end
$var event 1 !46 req_emcyBraking_13_receive $end
$var event 1 !47 req_beacon_12_taskComplete $end
$var event 1 !48 req_enableBraking_18_consume $end
$var event 1 !49 MSDSpec_0_globalTime $end
$var event 1 !50 PU1_11_dispatch $end
$var event 1 !51 periodicBeacon_6_objSysReceive $end
$var event 1 !52 assumption_obstacle_15_send $end
$var event 1 !53 req_emcyBrakeWarning_17_taskComplete $end
$var event 1 !54 update_3_objSysReceive $end
$var event 1 !55 emcyBraking_4_objSysTaskStart $end
$var event 1 !56 emcyBraking_4_oneEvent $end
$var event 1 !57 assumption_obstacle_15_consume $end
$var event 1 !58 enableBraking_1_objSysTaskStart $end
$var event 1 !59 req_enableBraking_18_send $end
$var event 1 !60 req_obstacle_16_send $end
$var event 1 !61 req_beacon_12_consume $end
$var event 1 !62 update_3_objSysTaskStart $end
$var event 1 !63 req_update_14_receive $end
$var event 1 !64 req_obstacle_16_taskStart $end
$var event 1 !65 req_update_14_taskStart $end
$var event 1 !66 update_3_oneEvent $end
$var event 1 !67 obstacle_2_notReady $end
$var event 1 !68 req_emcyBrakeWarning_17_receive $end
$var event 1 !69 emcyBraking_4_objSysConsume $end
$var event 1 !70 periodicBeacon_6_objSysTaskStart $end
$var event 1 !71 req_update_14_send $end
$var event 1 !72 enableBraking_1_objSysSend $end
$var event 1 !73 periodicBeacon_6_objSysTaskComplete $end
$var event 1 !74 req_emcyBraking_13_consume $end
$var event 1 !75 req_emcyBraking_13_taskComplete $end
$var event 1 !76 periodicBeacon_6_objSysSend $end
$var event 1 !77 req_emcyBrakeWarning_17_consume $end
$var event 1 !78 emcyBraking_4_objSysTaskComplete $end
$var event 1 !79 assumption_beacon_19_send $end
$var event 1 !80 emcyBrakeWarning_5_objSysConsume $end
$var event 1 !81 sharedMem_8_acquireCon $end
$var event 1 !82 assumption_beacon_19_taskComplete $end
$var event 1 !83 assumption_obstacle_15_taskStart $end
$var event 1 !84 DelayFor_defer $end
$var event 1 !85 obstacle_2intermediate_acquireAllResources1 $end
$var event 1 !86 PU1_11intermediate_relTaskStarts1 $end
$var event 1 !87 periodicBeacon_6_DelayFor_taskStartDelayedByMax $end
$var event 1 !88 enableBraking_1intermediate_oneRelConsumeClock1 $end
$var event 1 !89 DelayFor_defer $end
$var event 1 !90 req_obstacle_16intermediate_deactivate31 $end
$var event 1 !91 enableBraking_1intermediate_oneRelTaskStartClock1 $end
$var event 1 !92 obstacle_2intermediate_oneRelTaskCompleteClock1 $end
$var event 1 !93 obstacle_2_DelayFor_taskStartDelayedByMax $end
$var event 1 !94 emcyBraking_4_DelayFor_sendDelayedByMax_e2e $end
$var event 1 !95 req_obstacle_16intermediate_deactivate51 $end
$var event 1 !96 req_obstacle_16intermediate_deactivate41 $end
$var event 1 !97 obstacle_2_Union_unionEvts $end
$var event 1 !98 enableBraking_1_DelayFor_sendDelayedByMin $end
$var event 1 !99 req_obstacle_16intermediate_deactivate53 $end
$var event 1 !100 emcyBrakeWarning_5_DelayFor_sendDelayedByMin_e2e $end
$var event 1 !101 req_obstacle_16intermediate_deactivate43 $end
$var event 1 !102 DelayFor_defer $end
$var event 1 !103 emcyBrakeWarning_5intermediate_oneRelSendClock1 $end
$var event 1 !104 comConnection_9intermediate_lu_sendEvts1 $end
$var event 1 !105 req_beacon_12intermediate_deactivate51 $end
$var event 1 !106 DelayFor_defer $end
$var event 1 !107 enableBraking_1intermediate_oneRelSendClock1 $end
$var event 1 !108 DelayFor_defer $end
$var event 1 !109 DelayFor_defer $end
$var event 1 !110 emcyBrakeWarning_5intermediate_oneRelTaskStartClock1 $end
$var event 1 !111 emcyBrakeWarning_5_Union_unionEvts $end
$var event 1 !112 update_3intermediate_acquireAllResources1 $end
$var event 1 !113 UpdateSa_38intermediate_oneAssumptionMsgSend1 $end
$var event 1 !114 timeConstraint_36intermediate_constrainedTaskCompletions_upperE_s1 $end
$var event 1 !115 periodicBeacon_6intermediate_oneRelReceiveClock1 $end
$var event 1 !116 emcyBraking_4intermediate_oneRelConsumeClock1 $end
$var event 1 !117 enableBraking_1_DelayFor_receiveDelayedByMin $end
$var event 1 !118 DelayFor_defer $end
$var event 1 !119 emcyBraking_4_DelayFor_sendDelayedByMin_e2e $end
$var event 1 !120 DelayFor_defer $end
$var event 1 !121 timeConstraint_36intermediate_activationmsgReceive_upperE_s1 $end
$var event 1 !122 periodicBeacon_6intermediate_oneRelSendClock1 $end
$var event 1 !123 enableBraking_1_Union_unionEvts $end
$var event 1 !124 req_obstacle_16intermediate_deactivate1 $end
$var event 1 !125 update_3intermediate_oneRelTaskStartClock1 $end
$var event 1 !126 DelayFor_defer $end
$var event 1 !127 obstacle_2intermediate_oneRelReceiveClock1 $end
$var event 1 !128 timeConstraint_36_DelayFor_stimulusDelayedExpression_e2e_sE_s $end
$var event 1 !129 obstacle_2_DelayFor_taskStartDelayedByMin $end
$var event 1 !130 update_3intermediate_oneRelConsumeClock1 $end
$var event 1 !131 update_3_DelayFor_taskStartDelayedByMin $end
$var event 1 !132 PU2_10intermediate_relTaskStarts1 $end
$var event 1 !133 neighborTbl_7intermediate_startTaskEvts1 $end
$var event 1 !134 EmcyBrakeTriggeringLeadingVehicle_39intermediate_oneAssumptionMsgSend1 $end
$var event 1 !135 periodicBeacon_6_DelayFor_taskStartDelayedByMin $end
$var event 1 !136 enableBraking_1_DelayFor_receiveDelayedByMax $end
$var event 1 !137 update_3intermediate_noHigherPrioTasksReady1 $end
$var event 1 !138 update_3_DelayFor_taskStartDelayedByMax $end
$var event 1 !139 enableBraking_1_DelayFor_taskStartDelayedByMax $end
$var event 1 !140 emcyBrakeWarning_5intermediate_oneRelTaskCompleteClock1 $end
$var event 1 !141 req_beacon_12intermediate_deactivate41 $end
$var event 1 !142 req_obstacle_16intermediate_deactivate23 $end
$var event 1 !143 DelayFor_defer $end
$var event 1 !144 DelayFor_defer $end
$var event 1 !145 req_beacon_12intermediate_deactivate1 $end
$var event 1 !146 emcyBraking_4intermediate_oneRelSendClock1 $end
$var event 1 !147 sharedMem_8intermediate_receiveEvts1 $end
$var event 1 !148 PU1_11intermediate_relTaskComplete1 $end
$var event 1 !149 obstacle_2intermediate_oneRelTaskStartClock1 $end
$var event 1 !150 DelayFor_defer $end
$var event 1 !151 comConnection_9intermediate_receiveEvts1 $end
$var event 1 !152 update_3intermediate_oneRelSendClock1 $end
$var event 1 !153 emcyBrakeWarning_5intermediate_oneRelConsumeClock1 $end
$var event 1 !154 periodicBeacon_6intermediate_oneRelConsumeClock1 $end
$var event 1 !155 DelayFor_defer $end
$var event 1 !156 enableBraking_1intermediate_oneRelTaskCompleteClock1 $end
$var event 1 !157 periodicBeacon_6intermediate_oneRelTaskCompleteClock1 $end
$var event 1 !158 req_obstacle_16intermediate_deactivate21 $end
$var event 1 !159 emcyBraking_4intermediate_oneRelTaskCompleteClock1 $end
$var event 1 !160 periodicBeacon_6intermediate_oneRelTaskStartClock1 $end
$var event 1 !161 emcyBraking_4intermediate_oneRelTaskStartClock1 $end
$var event 1 !162 obstacle_2intermediate_oneRelSendClock1 $end
$var event 1 !163 DelayFor_defer $end
$var event 1 !164 req_beacon_12intermediate_deactivate21 $end
$var event 1 !165 emcyBrakeWarning_5intermediate_oneRelReceiveClock1 $end
$var event 1 !166 PU2_10intermediate_relTaskComplete1 $end
$var event 1 !167 enableBraking_1intermediate_oneRelReceiveClock1 $end
$var event 1 !168 DelayFor_defer $end
$var event 1 !169 update_3intermediate_oneRelReceiveClock1 $end
$var event 1 !170 emcyBrakeWarning_5_DelayFor_sendDelayedByMax_e2e $end
$var event 1 !171 emcyBraking_4intermediate_oneRelReceiveClock1 $end
$var event 1 !172 req_obstacle_16intermediate_deactivate33 $end
$var event 1 !173 enableBraking_1_DelayFor_sendDelayedByMax $end
$var event 1 !174 periodicBeacon_6intermediate_noHigherPrioTasksReady1 $end
$var event 1 !175 timeConstraint_36intermediate_constrainedTaskCompletions_upperE_s3 $end
$var event 1 !176 enableBraking_1_DelayFor_taskStartDelayedByMin $end
$var event 1 !177 update_3_Union_unionEvts $end
$var event 1 !178 periodicBeacon_6_Union_unionEvts $end
$var event 1 !179 DelayFor_defer $end
$var event 1 !180 update_3intermediate_oneRelTaskCompleteClock1 $end
$var event 1 !181 DelayFor_defer $end
$var event 1 !182 PU1_11intermediate_relTaskComplete3 $end
$var event 1 !183 sharedMem_8intermediate_lu_sendEvts1 $end
$var event 1 !184 emcyBraking_4_Union_unionEvts $end
$var event 1 !185 PU1_11intermediate_relTaskStarts3 $end
$var event 1 !186 req_beacon_12intermediate_deactivate31 $end
$var event 1 !187 neighborTbl_7intermediate_taskCompleteEvts1 $end
$var event 1 !188 obstacle_2intermediate_oneLowerPrioTask1 $end
$var event 1 !189 req_obstacle_16intermediate_deactivate3 $end
$var event 1 !190 obstacle_2intermediate_oneRelConsumeClock1 $end
$upscope $end
$enddefinitions $end

#10
1!49
#20
1!49
#30
1!49
#40
1!49
#50
1!26
1!31
1!49
1!76
1!79
#60
1!2
1!18
1!31
1!49
1!51
#70
1!8
1!19
1!49
1!61
#80
1!3
1!35
1!49
1!50
1!67
1!70
#90
1!49
#100
1!49
#110
1!47
1!49
1!73
1!82
#120
1!49
#130
1!49
#140
z!1
z!2
z!3
z!4
z!5
z!6
z!7
z!8
z!9
z!10
z!11
z!12
z!13
z!14
z!15
z!16
z!17
z!18
z!19
z!20
z!21
z!22
z!23
z!24
z!25
z!26
z!27
z!28
z!29
z!30
z!31
z!32
z!33
z!34
z!35
z!36
z!37
z!38
z!39
z!40
z!41
z!42
z!43
z!44
z!45
z!46
z!47
z!48
z!49
z!50
z!51
z!52
z!53
z!54
z!55
z!56
z!57
z!58
z!59
z!60
z!61
z!62
z!63
z!64
z!65
z!66
z!67
z!68
z!69
z!70
z!71
z!72
z!73
z!74
z!75
z!76
z!77
z!78
z!79
z!80
z!81
z!82
z!83
z!84
z!85
z!86
z!87
z!88
z!89
z!90
z!91
z!92
z!93
z!94
z!95
z!96
z!97
z!98
z!99
z!100
z!101
z!102
z!103
z!104
z!105
z!106
z!107
z!108
z!109
z!110
z!111
z!112
z!113
z!114
z!115
z!116
z!117
z!118
z!119
z!120
z!121
z!122
z!123
z!124
z!125
z!126
z!127
z!128
z!129
z!130
z!131
z!132
z!133
z!134
z!135
z!136
z!137
z!138
z!139
z!140
z!141
z!142
z!143
z!144
z!145
z!146
z!147
z!148
z!149
z!150
z!151
z!152
z!153
z!154
z!155
z!156
z!157
z!158
z!159
z!160
z!161
z!162
z!163
z!164
z!165
z!166
z!167
z!168
z!169
z!170
z!171
z!172
z!173
z!174
z!175
z!176
z!177
z!178
z!179
z!180
z!181
z!182
z!183
z!184
z!185
z!186
z!187
z!188
z!189
z!190
