<?xml version="1.0" encoding="ASCII"?>
<trace:Trace xmlns:xsi="http://www.w3.org/2001/XMLSchema-instance" xmlns:trace="http://www.inria.fr/sophia/aoste/trace/1.0.0" name="model2017_0605_003631">
  <references xsi:type="trace:ModelElementReference">
    <elementRef href="../../model.timemodel#/"/>
    <elementRef href="../../model.timemodel#//@subBlock.0"/>
    <elementRef href="../../model.timemodel#//@subBlock.0/@elements.46"/>
  </references>
  <references xsi:type="trace:ModelElementReference">
    <elementRef href="../../model.timemodel#/"/>
    <elementRef href="../../model.timemodel#//@subBlock.0"/>
    <elementRef href="../../model.timemodel#//@subBlock.0/@elements.17"/>
  </references>
  <references xsi:type="trace:ModelElementReference">
    <elementRef href="../../model.timemodel#/"/>
    <elementRef href="../../model.timemodel#//@subBlock.0"/>
    <elementRef href="../../model.timemodel#//@subBlock.0/@elements.12"/>
  </references>
  <references xsi:type="trace:ModelElementReference">
    <elementRef href="../../model.timemodel#/"/>
    <elementRef href="../../model.timemodel#//@subBlock.0"/>
    <elementRef href="../../model.timemodel#//@subBlock.0/@elements.41"/>
  </references>
  <references xsi:type="trace:ModelElementReference">
    <elementRef href="../../model.timemodel#/"/>
    <elementRef href="../../model.timemodel#//@subBlock.0"/>
    <elementRef href="../../model.timemodel#//@subBlock.0/@elements.42"/>
  </references>
  <references xsi:type="trace:ModelElementReference">
    <elementRef href="../../model.timemodel#/"/>
    <elementRef href="../../model.timemodel#//@subBlock.0"/>
    <elementRef href="../../model.timemodel#//@subBlock.0/@elements.51"/>
  </references>
  <references xsi:type="trace:ModelElementReference">
    <elementRef href="../../model.timemodel#/"/>
    <elementRef href="../../model.timemodel#//@subBlock.0"/>
    <elementRef href="../../model.timemodel#//@subBlock.0/@elements.16"/>
  </references>
  <references xsi:type="trace:ModelElementReference">
    <elementRef href="../../model.timemodel#/"/>
    <elementRef href="../../model.timemodel#//@subBlock.0"/>
    <elementRef href="../../model.timemodel#//@subBlock.0/@elements.44"/>
  </references>
  <references xsi:type="trace:ModelElementReference">
    <elementRef href="../../model.timemodel#/"/>
    <elementRef href="../../model.timemodel#//@subBlock.0"/>
    <elementRef href="../../model.timemodel#//@subBlock.0/@elements.24"/>
  </references>
  <references xsi:type="trace:ModelElementReference">
    <elementRef href="../../model.timemodel#/"/>
    <elementRef href="../../model.timemodel#//@subBlock.0"/>
    <elementRef href="../../model.timemodel#//@subBlock.0/@elements.50"/>
  </references>
  <references xsi:type="trace:ModelElementReference">
    <elementRef href="../../model.timemodel#/"/>
    <elementRef href="../../model.timemodel#//@subBlock.0"/>
    <elementRef href="../../model.timemodel#//@subBlock.0/@elements.3"/>
  </references>
  <references xsi:type="trace:ModelElementReference">
    <elementRef href="../../model.timemodel#/"/>
    <elementRef href="../../model.timemodel#//@subBlock.0"/>
    <elementRef href="../../model.timemodel#//@subBlock.0/@elements.49"/>
  </references>
  <references xsi:type="trace:ModelElementReference">
    <elementRef href="../../model.timemodel#/"/>
    <elementRef href="../../model.timemodel#//@subBlock.0"/>
    <elementRef href="../../model.timemodel#//@subBlock.0/@elements.26"/>
  </references>
  <references xsi:type="trace:ModelElementReference">
    <elementRef href="../../model.timemodel#/"/>
    <elementRef href="../../model.timemodel#//@subBlock.0"/>
    <elementRef href="../../model.timemodel#//@subBlock.0/@elements.19"/>
  </references>
  <references xsi:type="trace:ModelElementReference">
    <elementRef href="../../model.timemodel#/"/>
    <elementRef href="../../model.timemodel#//@subBlock.0"/>
    <elementRef href="../../model.timemodel#//@subBlock.0/@elements.53"/>
  </references>
  <references xsi:type="trace:ModelElementReference">
    <elementRef href="../../model.timemodel#/"/>
    <elementRef href="../../model.timemodel#//@subBlock.0"/>
    <elementRef href="../../model.timemodel#//@subBlock.0/@elements.10"/>
  </references>
  <references xsi:type="trace:ModelElementReference">
    <elementRef href="../../model.timemodel#/"/>
    <elementRef href="../../model.timemodel#//@subBlock.0"/>
    <elementRef href="../../model.timemodel#//@subBlock.0/@elements.0"/>
  </references>
  <references xsi:type="trace:ModelElementReference">
    <elementRef href="../../model.timemodel#/"/>
    <elementRef href="../../model.timemodel#//@subBlock.0"/>
    <elementRef href="../../model.timemodel#//@subBlock.0/@elements.21"/>
  </references>
  <references xsi:type="trace:ModelElementReference">
    <elementRef href="../../model.timemodel#/"/>
    <elementRef href="../../model.timemodel#//@subBlock.0"/>
    <elementRef href="../../model.timemodel#//@subBlock.0/@elements.45"/>
  </references>
  <references xsi:type="trace:ModelElementReference">
    <elementRef href="../../model.timemodel#/"/>
    <elementRef href="../../model.timemodel#//@subBlock.0"/>
    <elementRef href="../../model.timemodel#//@subBlock.0/@elements.7"/>
  </references>
  <references xsi:type="trace:ModelElementReference">
    <elementRef href="../../model.timemodel#/"/>
    <elementRef href="../../model.timemodel#//@subBlock.0"/>
    <elementRef href="../../model.timemodel#//@subBlock.0/@elements.15"/>
  </references>
  <references xsi:type="trace:ModelElementReference">
    <elementRef href="../../model.timemodel#/"/>
    <elementRef href="../../model.timemodel#//@subBlock.0"/>
    <elementRef href="../../model.timemodel#//@subBlock.0/@elements.32"/>
  </references>
  <references xsi:type="trace:ModelElementReference">
    <elementRef href="../../model.timemodel#/"/>
    <elementRef href="../../model.timemodel#//@subBlock.0"/>
    <elementRef href="../../model.timemodel#//@subBlock.0/@elements.13"/>
  </references>
  <references xsi:type="trace:ModelElementReference">
    <elementRef href="../../model.timemodel#/"/>
    <elementRef href="../../model.timemodel#//@subBlock.0"/>
    <elementRef href="../../model.timemodel#//@subBlock.0/@elements.52"/>
  </references>
  <references xsi:type="trace:ModelElementReference">
    <elementRef href="../../model.timemodel#/"/>
    <elementRef href="../../model.timemodel#//@subBlock.0"/>
    <elementRef href="../../model.timemodel#//@subBlock.0/@elements.14"/>
  </references>
  <references xsi:type="trace:ModelElementReference">
    <elementRef href="../../model.timemodel#/"/>
    <elementRef href="../../model.timemodel#//@subBlock.0"/>
    <elementRef href="../../model.timemodel#//@subBlock.0/@elements.27"/>
  </references>
  <references xsi:type="trace:ModelElementReference">
    <elementRef href="../../model.timemodel#/"/>
    <elementRef href="../../model.timemodel#//@subBlock.0"/>
    <elementRef href="../../model.timemodel#//@subBlock.0/@elements.38"/>
  </references>
  <references xsi:type="trace:ModelElementReference">
    <elementRef href="../../model.timemodel#/"/>
    <elementRef href="../../model.timemodel#//@subBlock.0"/>
    <elementRef href="../../model.timemodel#//@subBlock.0/@elements.34"/>
  </references>
  <references xsi:type="trace:ModelElementReference">
    <elementRef href="../../model.timemodel#/"/>
    <elementRef href="../../model.timemodel#//@subBlock.0"/>
    <elementRef href="../../model.timemodel#//@subBlock.0/@elements.6"/>
  </references>
  <references xsi:type="trace:ModelElementReference">
    <elementRef href="../../model.timemodel#/"/>
    <elementRef href="../../model.timemodel#//@subBlock.0"/>
    <elementRef href="../../model.timemodel#//@subBlock.0/@elements.37"/>
  </references>
  <references xsi:type="trace:ModelElementReference">
    <elementRef href="../../model.timemodel#/"/>
    <elementRef href="../../model.timemodel#//@subBlock.0"/>
    <elementRef href="../../model.timemodel#//@subBlock.0/@elements.47"/>
  </references>
  <references xsi:type="trace:ModelElementReference">
    <elementRef href="../../model.timemodel#/"/>
    <elementRef href="../../model.timemodel#//@subBlock.0"/>
    <elementRef href="../../model.timemodel#//@subBlock.0/@elements.20"/>
  </references>
  <references xsi:type="trace:ModelElementReference">
    <elementRef href="../../model.timemodel#/"/>
    <elementRef href="../../model.timemodel#//@subBlock.0"/>
    <elementRef href="../../model.timemodel#//@subBlock.0/@elements.4"/>
  </references>
  <references xsi:type="trace:ModelElementReference">
    <elementRef href="../../model.timemodel#/"/>
    <elementRef href="../../model.timemodel#//@subBlock.0"/>
    <elementRef href="../../model.timemodel#//@subBlock.0/@elements.48"/>
  </references>
  <references xsi:type="trace:ModelElementReference">
    <elementRef href="../../model.timemodel#/"/>
    <elementRef href="../../model.timemodel#//@subBlock.0"/>
    <elementRef href="../../model.timemodel#//@subBlock.0/@elements.9"/>
  </references>
  <references xsi:type="trace:ModelElementReference">
    <elementRef href="../../model.timemodel#/"/>
    <elementRef href="../../model.timemodel#//@subBlock.0"/>
    <elementRef href="../../model.timemodel#//@subBlock.0/@elements.36"/>
  </references>
  <references xsi:type="trace:ModelElementReference">
    <elementRef href="../../model.timemodel#/"/>
    <elementRef href="../../model.timemodel#//@subBlock.0"/>
    <elementRef href="../../model.timemodel#//@subBlock.0/@elements.1"/>
  </references>
  <references xsi:type="trace:ModelElementReference">
    <elementRef href="../../model.timemodel#/"/>
    <elementRef href="../../model.timemodel#//@subBlock.0"/>
    <elementRef href="../../model.timemodel#//@subBlock.0/@elements.8"/>
  </references>
  <references xsi:type="trace:ModelElementReference">
    <elementRef href="../../model.timemodel#/"/>
    <elementRef href="../../model.timemodel#//@subBlock.0"/>
    <elementRef href="../../model.timemodel#//@subBlock.0/@elements.39"/>
  </references>
  <references xsi:type="trace:ModelElementReference">
    <elementRef href="../../model.timemodel#/"/>
    <elementRef href="../../model.timemodel#//@subBlock.0"/>
    <elementRef href="../../model.timemodel#//@subBlock.0/@elements.56"/>
  </references>
  <references xsi:type="trace:ModelElementReference">
    <elementRef href="../../model.timemodel#/"/>
    <elementRef href="../../model.timemodel#//@subBlock.0"/>
    <elementRef href="../../model.timemodel#//@subBlock.0/@elements.5"/>
  </references>
  <references xsi:type="trace:ModelElementReference">
    <elementRef href="../../model.timemodel#/"/>
    <elementRef href="../../model.timemodel#//@subBlock.0"/>
    <elementRef href="../../model.timemodel#//@subBlock.0/@elements.22"/>
  </references>
  <references xsi:type="trace:ModelElementReference">
    <elementRef href="../../model.timemodel#/"/>
    <elementRef href="../../model.timemodel#//@subBlock.0"/>
    <elementRef href="../../model.timemodel#//@subBlock.0/@elements.28"/>
  </references>
  <references xsi:type="trace:ModelElementReference">
    <elementRef href="../../model.timemodel#/"/>
    <elementRef href="../../model.timemodel#//@subBlock.0"/>
    <elementRef href="../../model.timemodel#//@subBlock.0/@elements.2"/>
  </references>
  <references xsi:type="trace:ModelElementReference">
    <elementRef href="../../model.timemodel#/"/>
    <elementRef href="../../model.timemodel#//@subBlock.0"/>
    <elementRef href="../../model.timemodel#//@subBlock.0/@elements.54"/>
  </references>
  <references xsi:type="trace:ModelElementReference">
    <elementRef href="../../model.timemodel#/"/>
    <elementRef href="../../model.timemodel#//@subBlock.0"/>
    <elementRef href="../../model.timemodel#//@subBlock.0/@elements.11"/>
  </references>
  <references xsi:type="trace:ModelElementReference">
    <elementRef href="../../model.timemodel#/"/>
    <elementRef href="../../model.timemodel#//@subBlock.0"/>
    <elementRef href="../../model.timemodel#//@subBlock.0/@elements.18"/>
  </references>
  <references xsi:type="trace:ModelElementReference">
    <elementRef href="../../model.timemodel#/"/>
    <elementRef href="../../model.timemodel#//@subBlock.0"/>
    <elementRef href="../../model.timemodel#//@subBlock.0/@elements.33"/>
  </references>
  <references xsi:type="trace:ModelElementReference">
    <elementRef href="../../model.timemodel#/"/>
    <elementRef href="../../model.timemodel#//@subBlock.0"/>
    <elementRef href="../../model.timemodel#//@subBlock.0/@elements.23"/>
  </references>
  <references xsi:type="trace:ModelElementReference">
    <elementRef href="../../model.timemodel#/"/>
    <elementRef href="../../model.timemodel#//@subBlock.0"/>
    <elementRef href="../../model.timemodel#//@subBlock.0/@elements.55"/>
  </references>
  <references xsi:type="trace:ModelElementReference">
    <elementRef href="../../model.timemodel#/"/>
    <elementRef href="../../model.timemodel#//@subBlock.0"/>
    <elementRef href="../../model.timemodel#//@subBlock.0/@elements.29"/>
  </references>
  <references xsi:type="trace:ModelElementReference">
    <elementRef href="../../model.timemodel#/"/>
    <elementRef href="../../model.timemodel#//@subBlock.0"/>
    <elementRef href="../../model.timemodel#//@subBlock.0/@elements.43"/>
  </references>
  <references xsi:type="trace:ModelElementReference">
    <elementRef href="../../model.timemodel#/"/>
    <elementRef href="../../model.timemodel#//@subBlock.0"/>
    <elementRef href="../../model.timemodel#//@subBlock.0/@elements.40"/>
  </references>
  <references xsi:type="trace:ModelElementReference">
    <elementRef href="../../model.timemodel#/"/>
    <elementRef href="../../model.timemodel#//@subBlock.0"/>
    <elementRef href="../../model.timemodel#//@subBlock.0/@elements.25"/>
  </references>
  <references xsi:type="trace:ModelElementReference">
    <elementRef href="../../model.timemodel#/"/>
    <elementRef href="../../model.timemodel#//@subBlock.0"/>
    <elementRef href="../../model.timemodel#//@subBlock.0/@elements.35"/>
  </references>
  <references xsi:type="trace:ModelElementReference">
    <elementRef href="../../model.timemodel#/"/>
    <elementRef href="../../model.timemodel#//@subBlock.0"/>
    <elementRef href="../../model.timemodel#//@subBlock.0/@expressions.60"/>
  </references>
  <references xsi:type="trace:ModelElementReference">
    <elementRef href="../../model.timemodel#/"/>
    <elementRef href="../../model.timemodel#//@subBlock.0"/>
    <elementRef href="../../model.timemodel#//@subBlock.0/@expressions.41"/>
  </references>
  <references xsi:type="trace:ModelElementReference">
    <elementRef href="../../model.timemodel#/"/>
    <elementRef href="../../model.timemodel#//@subBlock.0"/>
    <elementRef href="../../model.timemodel#//@subBlock.0/@expressions.24"/>
  </references>
  <references xsi:type="trace:ModelElementReference">
    <elementRef href="../../model.timemodel#/"/>
    <elementRef href="../../model.timemodel#//@subBlock.0"/>
    <elementRef href="../../model.timemodel#//@subBlock.0/@expressions.10"/>
  </references>
  <references xsi:type="trace:ModelElementReference">
    <elementRef href="../../model.timemodel#/"/>
    <elementRef href="../../model.timemodel#//@subBlock.0"/>
    <elementRef href="../../model.timemodel#//@subBlock.0/@expressions.11"/>
  </references>
  <references xsi:type="trace:ModelElementReference">
    <elementRef href="../../model.timemodel#/"/>
    <elementRef href="../../model.timemodel#//@subBlock.0"/>
    <elementRef href="../../model.timemodel#//@subBlock.0/@expressions.53"/>
    <elementRef href="platform:/plugin/fr.inria.aoste.timesquare.ccslkernel.model/ccsllibrary/CCSL.ccslLib#//@expressionLibraries.0/@expressionDefinitions.2"/>
    <elementRef href="platform:/plugin/fr.inria.aoste.timesquare.ccslkernel.model/ccsllibrary/CCSL.ccslLib#//@expressionLibraries.0/@expressionDefinitions.2/@concreteEntities.1"/>
  </references>
  <references xsi:type="trace:ModelElementReference">
    <elementRef href="../../model.timemodel#/"/>
    <elementRef href="../../model.timemodel#//@subBlock.0"/>
    <elementRef href="../../model.timemodel#//@subBlock.0/@expressions.45"/>
    <elementRef href="platform:/plugin/fr.inria.aoste.timesquare.ccslkernel.model/ccsllibrary/CCSL.ccslLib#//@expressionLibraries.0/@expressionDefinitions.2"/>
    <elementRef href="platform:/plugin/fr.inria.aoste.timesquare.ccslkernel.model/ccsllibrary/CCSL.ccslLib#//@expressionLibraries.0/@expressionDefinitions.2/@concreteEntities.1"/>
  </references>
  <references xsi:type="trace:ModelElementReference">
    <elementRef href="../../model.timemodel#/"/>
    <elementRef href="../../model.timemodel#//@subBlock.0"/>
    <elementRef href="../../model.timemodel#//@subBlock.0/@expressions.38"/>
  </references>
  <references xsi:type="trace:ModelElementReference">
    <elementRef href="../../model.timemodel#/"/>
    <elementRef href="../../model.timemodel#//@subBlock.0"/>
    <elementRef href="../../model.timemodel#//@subBlock.0/@expressions.32"/>
  </references>
  <references xsi:type="trace:ModelElementReference">
    <elementRef href="../../model.timemodel#/"/>
    <elementRef href="../../model.timemodel#//@subBlock.0"/>
    <elementRef href="../../model.timemodel#//@subBlock.0/@expressions.36"/>
  </references>
  <references xsi:type="trace:ModelElementReference">
    <elementRef href="../../model.timemodel#/"/>
    <elementRef href="../../model.timemodel#//@subBlock.0"/>
    <elementRef href="../../model.timemodel#//@subBlock.0/@expressions.4"/>
  </references>
  <references xsi:type="trace:ModelElementReference">
    <elementRef href="../../model.timemodel#/"/>
    <elementRef href="../../model.timemodel#//@subBlock.0"/>
    <elementRef href="../../model.timemodel#//@subBlock.0/@expressions.48"/>
    <elementRef href="platform:/plugin/fr.inria.aoste.timesquare.ccslkernel.model/ccsllibrary/CCSL.ccslLib#//@expressionLibraries.0/@expressionDefinitions.2"/>
    <elementRef href="platform:/plugin/fr.inria.aoste.timesquare.ccslkernel.model/ccsllibrary/CCSL.ccslLib#//@expressionLibraries.0/@expressionDefinitions.2/@concreteEntities.1"/>
  </references>
  <references xsi:type="trace:ModelElementReference">
    <elementRef href="../../model.timemodel#/"/>
    <elementRef href="../../model.timemodel#//@subBlock.0"/>
    <elementRef href="../../model.timemodel#//@subBlock.0/@expressions.46"/>
    <elementRef href="platform:/plugin/fr.inria.aoste.timesquare.ccslkernel.model/ccsllibrary/CCSL.ccslLib#//@expressionLibraries.0/@expressionDefinitions.2"/>
    <elementRef href="platform:/plugin/fr.inria.aoste.timesquare.ccslkernel.model/ccsllibrary/CCSL.ccslLib#//@expressionLibraries.0/@expressionDefinitions.2/@concreteEntities.1"/>
  </references>
  <references xsi:type="trace:ModelElementReference">
    <elementRef href="../../model.timemodel#/"/>
    <elementRef href="../../model.timemodel#//@subBlock.0"/>
    <elementRef href="../../model.timemodel#//@subBlock.0/@expressions.9"/>
  </references>
  <references xsi:type="trace:ModelElementReference">
    <elementRef href="../../model.timemodel#/"/>
    <elementRef href="../../model.timemodel#//@subBlock.0"/>
    <elementRef href="../../model.timemodel#//@subBlock.0/@expressions.43"/>
    <elementRef href="platform:/plugin/fr.inria.aoste.timesquare.ccslkernel.model/ccsllibrary/CCSL.ccslLib#//@expressionLibraries.0/@expressionDefinitions.2"/>
    <elementRef href="platform:/plugin/fr.inria.aoste.timesquare.ccslkernel.model/ccsllibrary/CCSL.ccslLib#//@expressionLibraries.0/@expressionDefinitions.2/@concreteEntities.1"/>
  </references>
  <references xsi:type="trace:ModelElementReference">
    <elementRef href="../../model.timemodel#/"/>
    <elementRef href="../../model.timemodel#//@subBlock.0"/>
    <elementRef href="../../model.timemodel#//@subBlock.0/@expressions.52"/>
  </references>
  <references xsi:type="trace:ModelElementReference">
    <elementRef href="../../model.timemodel#/"/>
    <elementRef href="../../model.timemodel#//@subBlock.0"/>
    <elementRef href="../../model.timemodel#//@subBlock.0/@expressions.44"/>
    <elementRef href="platform:/plugin/fr.inria.aoste.timesquare.ccslkernel.model/ccsllibrary/CCSL.ccslLib#//@expressionLibraries.0/@expressionDefinitions.2"/>
    <elementRef href="platform:/plugin/fr.inria.aoste.timesquare.ccslkernel.model/ccsllibrary/CCSL.ccslLib#//@expressionLibraries.0/@expressionDefinitions.2/@concreteEntities.1"/>
  </references>
  <references xsi:type="trace:ModelElementReference">
    <elementRef href="../../model.timemodel#/"/>
    <elementRef href="../../model.timemodel#//@subBlock.0"/>
    <elementRef href="../../model.timemodel#//@subBlock.0/@expressions.49"/>
    <elementRef href="platform:/plugin/fr.inria.aoste.timesquare.ccslkernel.model/ccsllibrary/CCSL.ccslLib#//@expressionLibraries.0/@expressionDefinitions.2"/>
    <elementRef href="platform:/plugin/fr.inria.aoste.timesquare.ccslkernel.model/ccsllibrary/CCSL.ccslLib#//@expressionLibraries.0/@expressionDefinitions.2/@concreteEntities.1"/>
  </references>
  <references xsi:type="trace:ModelElementReference">
    <elementRef href="../../model.timemodel#/"/>
    <elementRef href="../../model.timemodel#//@subBlock.0"/>
    <elementRef href="../../model.timemodel#//@subBlock.0/@expressions.15"/>
  </references>
  <references xsi:type="trace:ModelElementReference">
    <elementRef href="../../model.timemodel#/"/>
    <elementRef href="../../model.timemodel#//@subBlock.0"/>
    <elementRef href="../../model.timemodel#//@subBlock.0/@expressions.22"/>
  </references>
  <references xsi:type="trace:ModelElementReference">
    <elementRef href="../../model.timemodel#/"/>
    <elementRef href="../../model.timemodel#//@subBlock.0"/>
    <elementRef href="../../model.timemodel#//@subBlock.0/@expressions.42"/>
  </references>
  <references xsi:type="trace:ModelElementReference">
    <elementRef href="../../model.timemodel#/"/>
    <elementRef href="../../model.timemodel#//@subBlock.0"/>
    <elementRef href="../../model.timemodel#//@subBlock.0/@expressions.54"/>
  </references>
  <references xsi:type="trace:ModelElementReference">
    <elementRef href="../../model.timemodel#/"/>
    <elementRef href="../../model.timemodel#//@subBlock.0"/>
    <elementRef href="../../model.timemodel#//@subBlock.0/@expressions.50"/>
  </references>
  <references xsi:type="trace:ModelElementReference">
    <elementRef href="../../model.timemodel#/"/>
    <elementRef href="../../model.timemodel#//@subBlock.0"/>
    <elementRef href="../../model.timemodel#//@subBlock.0/@expressions.43"/>
  </references>
  <references xsi:type="trace:ModelElementReference">
    <elementRef href="../../model.timemodel#/"/>
    <elementRef href="../../model.timemodel#//@subBlock.0"/>
    <elementRef href="../../model.timemodel#//@subBlock.0/@expressions.42"/>
    <elementRef href="platform:/plugin/fr.inria.aoste.timesquare.ccslkernel.model/ccsllibrary/CCSL.ccslLib#//@expressionLibraries.0/@expressionDefinitions.2"/>
    <elementRef href="platform:/plugin/fr.inria.aoste.timesquare.ccslkernel.model/ccsllibrary/CCSL.ccslLib#//@expressionLibraries.0/@expressionDefinitions.2/@concreteEntities.1"/>
  </references>
  <references xsi:type="trace:ModelElementReference">
    <elementRef href="../../model.timemodel#/"/>
    <elementRef href="../../model.timemodel#//@subBlock.0"/>
    <elementRef href="../../model.timemodel#//@subBlock.0/@expressions.56"/>
  </references>
  <references xsi:type="trace:ModelElementReference">
    <elementRef href="../../model.timemodel#/"/>
    <elementRef href="../../model.timemodel#//@subBlock.0"/>
    <elementRef href="../../model.timemodel#//@subBlock.0/@expressions.55"/>
  </references>
  <references xsi:type="trace:ModelElementReference">
    <elementRef href="../../model.timemodel#/"/>
    <elementRef href="../../model.timemodel#//@subBlock.0"/>
    <elementRef href="../../model.timemodel#//@subBlock.0/@expressions.57"/>
  </references>
  <references xsi:type="trace:ModelElementReference">
    <elementRef href="../../model.timemodel#/"/>
    <elementRef href="../../model.timemodel#//@subBlock.0"/>
    <elementRef href="../../model.timemodel#//@subBlock.0/@expressions.0"/>
  </references>
  <references xsi:type="trace:ModelElementReference">
    <elementRef href="../../model.timemodel#/"/>
    <elementRef href="../../model.timemodel#//@subBlock.0"/>
    <elementRef href="../../model.timemodel#//@subBlock.0/@expressions.37"/>
  </references>
  <references xsi:type="trace:ModelElementReference">
    <elementRef href="../../model.timemodel#/"/>
    <elementRef href="../../model.timemodel#//@subBlock.0"/>
    <elementRef href="../../model.timemodel#//@subBlock.0/@expressions.29"/>
  </references>
  <references xsi:type="trace:ModelElementReference">
    <elementRef href="../../model.timemodel#/"/>
    <elementRef href="../../model.timemodel#//@subBlock.0"/>
    <elementRef href="../../model.timemodel#//@subBlock.0/@expressions.59"/>
  </references>
  <references xsi:type="trace:ModelElementReference">
    <elementRef href="../../model.timemodel#/"/>
    <elementRef href="../../model.timemodel#//@subBlock.0"/>
    <elementRef href="../../model.timemodel#//@subBlock.0/@expressions.26"/>
  </references>
  <references xsi:type="trace:ModelElementReference">
    <elementRef href="../../model.timemodel#/"/>
    <elementRef href="../../model.timemodel#//@subBlock.0"/>
    <elementRef href="../../model.timemodel#//@subBlock.0/@expressions.58"/>
  </references>
  <references xsi:type="trace:ModelElementReference">
    <elementRef href="../../model.timemodel#/"/>
    <elementRef href="../../model.timemodel#//@subBlock.0"/>
    <elementRef href="../../model.timemodel#//@subBlock.0/@expressions.40"/>
  </references>
  <references xsi:type="trace:ModelElementReference">
    <elementRef href="../../model.timemodel#/"/>
    <elementRef href="../../model.timemodel#//@subBlock.0"/>
    <elementRef href="../../model.timemodel#//@subBlock.0/@expressions.28"/>
  </references>
  <references xsi:type="trace:ModelElementReference">
    <elementRef href="../../model.timemodel#/"/>
    <elementRef href="../../model.timemodel#//@subBlock.0"/>
    <elementRef href="../../model.timemodel#//@subBlock.0/@expressions.18"/>
  </references>
  <references xsi:type="trace:ModelElementReference">
    <elementRef href="../../model.timemodel#/"/>
    <elementRef href="../../model.timemodel#//@subBlock.0"/>
    <elementRef href="../../model.timemodel#//@subBlock.0/@expressions.46"/>
  </references>
  <references xsi:type="trace:ModelElementReference">
    <elementRef href="../../model.timemodel#/"/>
    <elementRef href="../../model.timemodel#//@subBlock.0"/>
    <elementRef href="../../model.timemodel#//@subBlock.0/@expressions.1"/>
  </references>
  <references xsi:type="trace:ModelElementReference">
    <elementRef href="../../model.timemodel#/"/>
    <elementRef href="../../model.timemodel#//@subBlock.0"/>
    <elementRef href="../../model.timemodel#//@subBlock.0/@expressions.16"/>
  </references>
  <references xsi:type="trace:ModelElementReference">
    <elementRef href="../../model.timemodel#/"/>
    <elementRef href="../../model.timemodel#//@subBlock.0"/>
    <elementRef href="../../model.timemodel#//@subBlock.0/@expressions.7"/>
  </references>
  <references xsi:type="trace:ModelElementReference">
    <elementRef href="../../model.timemodel#/"/>
    <elementRef href="../../model.timemodel#//@subBlock.0"/>
    <elementRef href="../../model.timemodel#//@subBlock.0/@expressions.14"/>
  </references>
  <references xsi:type="trace:ModelElementReference">
    <elementRef href="../../model.timemodel#/"/>
    <elementRef href="../../model.timemodel#//@subBlock.0"/>
    <elementRef href="../../model.timemodel#//@subBlock.0/@expressions.52"/>
    <elementRef href="platform:/plugin/fr.inria.aoste.timesquare.ccslkernel.model/ccsllibrary/CCSL.ccslLib#//@expressionLibraries.0/@expressionDefinitions.2"/>
    <elementRef href="platform:/plugin/fr.inria.aoste.timesquare.ccslkernel.model/ccsllibrary/CCSL.ccslLib#//@expressionLibraries.0/@expressionDefinitions.2/@concreteEntities.1"/>
  </references>
  <references xsi:type="trace:ModelElementReference">
    <elementRef href="../../model.timemodel#/"/>
    <elementRef href="../../model.timemodel#//@subBlock.0"/>
    <elementRef href="../../model.timemodel#//@subBlock.0/@expressions.20"/>
  </references>
  <references xsi:type="trace:ModelElementReference">
    <elementRef href="../../model.timemodel#/"/>
    <elementRef href="../../model.timemodel#//@subBlock.0"/>
    <elementRef href="../../model.timemodel#//@subBlock.0/@expressions.27"/>
  </references>
  <references xsi:type="trace:ModelElementReference">
    <elementRef href="../../model.timemodel#/"/>
    <elementRef href="../../model.timemodel#//@subBlock.0"/>
    <elementRef href="../../model.timemodel#//@subBlock.0/@expressions.33"/>
  </references>
  <references xsi:type="trace:ModelElementReference">
    <elementRef href="../../model.timemodel#/"/>
    <elementRef href="../../model.timemodel#//@subBlock.0"/>
    <elementRef href="../../model.timemodel#//@subBlock.0/@expressions.47"/>
    <elementRef href="platform:/plugin/fr.inria.aoste.timesquare.ccslkernel.model/ccsllibrary/CCSL.ccslLib#//@expressionLibraries.0/@expressionDefinitions.2"/>
    <elementRef href="platform:/plugin/fr.inria.aoste.timesquare.ccslkernel.model/ccsllibrary/CCSL.ccslLib#//@expressionLibraries.0/@expressionDefinitions.2/@concreteEntities.1"/>
  </references>
  <references xsi:type="trace:ModelElementReference">
    <elementRef href="../../model.timemodel#/"/>
    <elementRef href="../../model.timemodel#//@subBlock.0"/>
    <elementRef href="../../model.timemodel#//@subBlock.0/@expressions.39"/>
  </references>
  <references xsi:type="trace:ModelElementReference">
    <elementRef href="../../model.timemodel#/"/>
    <elementRef href="../../model.timemodel#//@subBlock.0"/>
    <elementRef href="../../model.timemodel#//@subBlock.0/@expressions.19"/>
  </references>
  <references xsi:type="trace:ModelElementReference">
    <elementRef href="../../model.timemodel#/"/>
    <elementRef href="../../model.timemodel#//@subBlock.0"/>
    <elementRef href="../../model.timemodel#//@subBlock.0/@expressions.58"/>
    <elementRef href="platform:/plugin/fr.inria.aoste.timesquare.ccslkernel.model/ccsllibrary/CCSL.ccslLib#//@expressionLibraries.0/@expressionDefinitions.2"/>
    <elementRef href="platform:/plugin/fr.inria.aoste.timesquare.ccslkernel.model/ccsllibrary/CCSL.ccslLib#//@expressionLibraries.0/@expressionDefinitions.2/@concreteEntities.1"/>
  </references>
  <references xsi:type="trace:ModelElementReference">
    <elementRef href="../../model.timemodel#/"/>
    <elementRef href="../../model.timemodel#//@subBlock.0"/>
    <elementRef href="../../model.timemodel#//@subBlock.0/@expressions.31"/>
  </references>
  <references xsi:type="trace:ModelElementReference">
    <elementRef href="../../model.timemodel#/"/>
    <elementRef href="../../model.timemodel#//@subBlock.0"/>
    <elementRef href="../../model.timemodel#//@subBlock.0/@expressions.17"/>
  </references>
  <references xsi:type="trace:ModelElementReference">
    <elementRef href="../../model.timemodel#/"/>
    <elementRef href="../../model.timemodel#//@subBlock.0"/>
    <elementRef href="../../model.timemodel#//@subBlock.0/@expressions.2"/>
  </references>
  <references xsi:type="trace:ModelElementReference">
    <elementRef href="../../model.timemodel#/"/>
    <elementRef href="../../model.timemodel#//@subBlock.0"/>
    <elementRef href="../../model.timemodel#//@subBlock.0/@expressions.25"/>
  </references>
  <references xsi:type="trace:ModelElementReference">
    <elementRef href="../../model.timemodel#/"/>
    <elementRef href="../../model.timemodel#//@subBlock.0"/>
    <elementRef href="../../model.timemodel#//@subBlock.0/@expressions.3"/>
  </references>
  <references xsi:type="trace:ModelElementReference">
    <elementRef href="../../model.timemodel#/"/>
    <elementRef href="../../model.timemodel#//@subBlock.0"/>
    <elementRef href="../../model.timemodel#//@subBlock.0/@expressions.60"/>
    <elementRef href="platform:/plugin/fr.inria.aoste.timesquare.ccslkernel.model/ccsllibrary/CCSL.ccslLib#//@expressionLibraries.0/@expressionDefinitions.3"/>
    <elementRef href="platform:/plugin/fr.inria.aoste.timesquare.ccslkernel.model/ccsllibrary/CCSL.ccslLib#//@expressionLibraries.0/@expressionDefinitions.3/@concreteEntities.0"/>
  </references>
  <references xsi:type="trace:ModelElementReference">
    <elementRef href="../../model.timemodel#/"/>
    <elementRef href="../../model.timemodel#//@subBlock.0"/>
    <elementRef href="../../model.timemodel#//@subBlock.0/@expressions.34"/>
  </references>
  <references xsi:type="trace:ModelElementReference">
    <elementRef href="../../model.timemodel#/"/>
    <elementRef href="../../model.timemodel#//@subBlock.0"/>
    <elementRef href="../../model.timemodel#//@subBlock.0/@expressions.30"/>
  </references>
  <references xsi:type="trace:ModelElementReference">
    <elementRef href="../../model.timemodel#/"/>
    <elementRef href="../../model.timemodel#//@subBlock.0"/>
    <elementRef href="../../model.timemodel#//@subBlock.0/@expressions.13"/>
  </references>
  <references xsi:type="trace:ModelElementReference">
    <elementRef href="../../model.timemodel#/"/>
    <elementRef href="../../model.timemodel#//@subBlock.0"/>
    <elementRef href="../../model.timemodel#//@subBlock.0/@expressions.45"/>
  </references>
  <references xsi:type="trace:ModelElementReference">
    <elementRef href="../../model.timemodel#/"/>
    <elementRef href="../../model.timemodel#//@subBlock.0"/>
    <elementRef href="../../model.timemodel#//@subBlock.0/@expressions.8"/>
  </references>
  <references xsi:type="trace:ModelElementReference">
    <elementRef href="../../model.timemodel#/"/>
    <elementRef href="../../model.timemodel#//@subBlock.0"/>
    <elementRef href="../../model.timemodel#//@subBlock.0/@expressions.53"/>
  </references>
  <references xsi:type="trace:ModelElementReference">
    <elementRef href="../../model.timemodel#/"/>
    <elementRef href="../../model.timemodel#//@subBlock.0"/>
    <elementRef href="../../model.timemodel#//@subBlock.0/@expressions.51"/>
  </references>
  <references xsi:type="trace:ModelElementReference">
    <elementRef href="../../model.timemodel#/"/>
    <elementRef href="../../model.timemodel#//@subBlock.0"/>
    <elementRef href="../../model.timemodel#//@subBlock.0/@expressions.44"/>
  </references>
  <references xsi:type="trace:ModelElementReference">
    <elementRef href="../../model.timemodel#/"/>
    <elementRef href="../../model.timemodel#//@subBlock.0"/>
    <elementRef href="../../model.timemodel#//@subBlock.0/@expressions.12"/>
  </references>
  <references xsi:type="trace:ModelElementReference">
    <elementRef href="../../model.timemodel#/"/>
    <elementRef href="../../model.timemodel#//@subBlock.0"/>
    <elementRef href="../../model.timemodel#//@subBlock.0/@expressions.51"/>
    <elementRef href="platform:/plugin/fr.inria.aoste.timesquare.ccslkernel.model/ccsllibrary/CCSL.ccslLib#//@expressionLibraries.0/@expressionDefinitions.2"/>
    <elementRef href="platform:/plugin/fr.inria.aoste.timesquare.ccslkernel.model/ccsllibrary/CCSL.ccslLib#//@expressionLibraries.0/@expressionDefinitions.2/@concreteEntities.1"/>
  </references>
  <references xsi:type="trace:ModelElementReference">
    <elementRef href="../../model.timemodel#/"/>
    <elementRef href="../../model.timemodel#//@subBlock.0"/>
    <elementRef href="../../model.timemodel#//@subBlock.0/@expressions.60"/>
    <elementRef href="platform:/plugin/fr.inria.aoste.timesquare.ccslkernel.model/ccsllibrary/CCSL.ccslLib#//@expressionLibraries.0/@expressionDefinitions.3"/>
    <elementRef href="platform:/plugin/fr.inria.aoste.timesquare.ccslkernel.model/ccsllibrary/CCSL.ccslLib#//@expressionLibraries.0/@expressionDefinitions.3/@concreteEntities.1"/>
  </references>
  <references xsi:type="trace:ModelElementReference">
    <elementRef href="../../model.timemodel#/"/>
    <elementRef href="../../model.timemodel#//@subBlock.0"/>
    <elementRef href="../../model.timemodel#//@subBlock.0/@expressions.6"/>
  </references>
  <references xsi:type="trace:ModelElementReference">
    <elementRef href="../../model.timemodel#/"/>
    <elementRef href="../../model.timemodel#//@subBlock.0"/>
    <elementRef href="../../model.timemodel#//@subBlock.0/@expressions.5"/>
  </references>
  <references xsi:type="trace:ModelElementReference">
    <elementRef href="../../model.timemodel#/"/>
    <elementRef href="../../model.timemodel#//@subBlock.0"/>
    <elementRef href="../../model.timemodel#//@subBlock.0/@expressions.47"/>
  </references>
  <references xsi:type="trace:ModelElementReference">
    <elementRef href="../../model.timemodel#/"/>
    <elementRef href="../../model.timemodel#//@subBlock.0"/>
    <elementRef href="../../model.timemodel#//@subBlock.0/@expressions.48"/>
  </references>
  <references xsi:type="trace:ModelElementReference">
    <elementRef href="../../model.timemodel#/"/>
    <elementRef href="../../model.timemodel#//@subBlock.0"/>
    <elementRef href="../../model.timemodel#//@subBlock.0/@expressions.50"/>
    <elementRef href="platform:/plugin/fr.inria.aoste.timesquare.ccslkernel.model/ccsllibrary/CCSL.ccslLib#//@expressionLibraries.0/@expressionDefinitions.2"/>
    <elementRef href="platform:/plugin/fr.inria.aoste.timesquare.ccslkernel.model/ccsllibrary/CCSL.ccslLib#//@expressionLibraries.0/@expressionDefinitions.2/@concreteEntities.1"/>
  </references>
  <references xsi:type="trace:ModelElementReference">
    <elementRef href="../../model.timemodel#/"/>
    <elementRef href="../../model.timemodel#//@subBlock.0"/>
    <elementRef href="../../model.timemodel#//@subBlock.0/@expressions.49"/>
  </references>
  <references xsi:type="trace:ModelElementReference">
    <elementRef href="../../model.timemodel#/"/>
    <elementRef href="../../model.timemodel#//@subBlock.0"/>
    <elementRef href="../../model.timemodel#//@subBlock.0/@expressions.21"/>
  </references>
  <references xsi:type="trace:ModelElementReference">
    <elementRef href="../../model.timemodel#/"/>
    <elementRef href="../../model.timemodel#//@subBlock.0"/>
    <elementRef href="../../model.timemodel#//@subBlock.0/@expressions.35"/>
  </references>
  <references xsi:type="trace:ModelElementReference">
    <elementRef href="../../model.timemodel#/"/>
    <elementRef href="../../model.timemodel#//@subBlock.0"/>
    <elementRef href="../../model.timemodel#//@subBlock.0/@expressions.23"/>
  </references>
  <references xsi:type="trace:ModelElementReference">
    <elementRef href="../../model.timemodel#/"/>
    <elementRef href="../../model.timemodel#//@subBlock.0"/>
    <elementRef href="../../model.timemodel#//@subBlock.0/@relations.83"/>
  </references>
  <references xsi:type="trace:ModelElementReference">
    <elementRef href="../../model.timemodel#/"/>
    <elementRef href="../../model.timemodel#//@subBlock.0"/>
    <elementRef href="../../model.timemodel#//@subBlock.0/@relations.0"/>
  </references>
  <references xsi:type="trace:ModelElementReference">
    <elementRef href="../../model.timemodel#/"/>
    <elementRef href="../../model.timemodel#//@subBlock.0"/>
    <elementRef href="../../model.timemodel#//@subBlock.0/@relations.1"/>
  </references>
  <references xsi:type="trace:ModelElementReference">
    <elementRef href="../../model.timemodel#/"/>
    <elementRef href="../../model.timemodel#//@subBlock.0"/>
    <elementRef href="../../model.timemodel#//@subBlock.0/@relations.76"/>
  </references>
  <references xsi:type="trace:ModelElementReference">
    <elementRef href="../../model.timemodel#/"/>
    <elementRef href="../../model.timemodel#//@subBlock.0"/>
    <elementRef href="../../model.timemodel#//@subBlock.0/@relations.34"/>
  </references>
  <references xsi:type="trace:ModelElementReference">
    <elementRef href="../../model.timemodel#/"/>
    <elementRef href="../../model.timemodel#//@subBlock.0"/>
    <elementRef href="../../model.timemodel#//@subBlock.0/@relations.69"/>
  </references>
  <references xsi:type="trace:ModelElementReference">
    <elementRef href="../../model.timemodel#/"/>
    <elementRef href="../../model.timemodel#//@subBlock.0"/>
    <elementRef href="../../model.timemodel#//@subBlock.0/@relations.18"/>
  </references>
  <references xsi:type="trace:ModelElementReference">
    <elementRef href="../../model.timemodel#/"/>
    <elementRef href="../../model.timemodel#//@subBlock.0"/>
    <elementRef href="../../model.timemodel#//@subBlock.0/@relations.22"/>
  </references>
  <references xsi:type="trace:ModelElementReference">
    <elementRef href="../../model.timemodel#/"/>
    <elementRef href="../../model.timemodel#//@subBlock.0"/>
    <elementRef href="../../model.timemodel#//@subBlock.0/@relations.78"/>
  </references>
  <references xsi:type="trace:ModelElementReference">
    <elementRef href="../../model.timemodel#/"/>
    <elementRef href="../../model.timemodel#//@subBlock.0"/>
    <elementRef href="../../model.timemodel#//@subBlock.0/@relations.70"/>
  </references>
  <references xsi:type="trace:ModelElementReference">
    <elementRef href="../../model.timemodel#/"/>
    <elementRef href="../../model.timemodel#//@subBlock.0"/>
    <elementRef href="../../model.timemodel#//@subBlock.0/@relations.2"/>
  </references>
  <references xsi:type="trace:ModelElementReference">
    <elementRef href="../../model.timemodel#/"/>
    <elementRef href="../../model.timemodel#//@subBlock.0"/>
    <elementRef href="../../model.timemodel#//@subBlock.0/@relations.86"/>
  </references>
  <references xsi:type="trace:ModelElementReference">
    <elementRef href="../../model.timemodel#/"/>
    <elementRef href="../../model.timemodel#//@subBlock.0"/>
    <elementRef href="../../model.timemodel#//@subBlock.0/@relations.10"/>
  </references>
  <references xsi:type="trace:ModelElementReference">
    <elementRef href="../../model.timemodel#/"/>
    <elementRef href="../../model.timemodel#//@subBlock.0"/>
    <elementRef href="../../model.timemodel#//@subBlock.0/@relations.90"/>
  </references>
  <references xsi:type="trace:ModelElementReference">
    <elementRef href="../../model.timemodel#/"/>
    <elementRef href="../../model.timemodel#//@subBlock.0"/>
    <elementRef href="../../model.timemodel#//@subBlock.0/@relations.74"/>
  </references>
  <references xsi:type="trace:ModelElementReference">
    <elementRef href="../../model.timemodel#/"/>
    <elementRef href="../../model.timemodel#//@subBlock.0"/>
    <elementRef href="../../model.timemodel#//@subBlock.0/@relations.8"/>
  </references>
  <references xsi:type="trace:ModelElementReference">
    <elementRef href="../../model.timemodel#/"/>
    <elementRef href="../../model.timemodel#//@subBlock.0"/>
    <elementRef href="../../model.timemodel#//@subBlock.0/@relations.94"/>
  </references>
  <references xsi:type="trace:ModelElementReference">
    <elementRef href="../../model.timemodel#/"/>
    <elementRef href="../../model.timemodel#//@subBlock.0"/>
    <elementRef href="../../model.timemodel#//@subBlock.0/@relations.85"/>
  </references>
  <references xsi:type="trace:ModelElementReference">
    <elementRef href="../../model.timemodel#/"/>
    <elementRef href="../../model.timemodel#//@subBlock.0"/>
    <elementRef href="../../model.timemodel#//@subBlock.0/@relations.73"/>
  </references>
  <references xsi:type="trace:ModelElementReference">
    <elementRef href="../../model.timemodel#/"/>
    <elementRef href="../../model.timemodel#//@subBlock.0"/>
    <elementRef href="../../model.timemodel#//@subBlock.0/@relations.40"/>
  </references>
  <references xsi:type="trace:ModelElementReference">
    <elementRef href="../../model.timemodel#/"/>
    <elementRef href="../../model.timemodel#//@subBlock.0"/>
    <elementRef href="../../model.timemodel#//@subBlock.0/@relations.39"/>
  </references>
  <references xsi:type="trace:ModelElementReference">
    <elementRef href="../../model.timemodel#/"/>
    <elementRef href="../../model.timemodel#//@subBlock.0"/>
    <elementRef href="../../model.timemodel#//@subBlock.0/@relations.65"/>
  </references>
  <references xsi:type="trace:ModelElementReference">
    <elementRef href="../../model.timemodel#/"/>
    <elementRef href="../../model.timemodel#//@subBlock.0"/>
    <elementRef href="../../model.timemodel#//@subBlock.0/@relations.4"/>
  </references>
  <references xsi:type="trace:ModelElementReference">
    <elementRef href="../../model.timemodel#/"/>
    <elementRef href="../../model.timemodel#//@subBlock.0"/>
    <elementRef href="../../model.timemodel#//@subBlock.0/@relations.9"/>
  </references>
  <references xsi:type="trace:ModelElementReference">
    <elementRef href="../../model.timemodel#/"/>
    <elementRef href="../../model.timemodel#//@subBlock.0"/>
    <elementRef href="../../model.timemodel#//@subBlock.0/@relations.96"/>
  </references>
  <references xsi:type="trace:ModelElementReference">
    <elementRef href="../../model.timemodel#/"/>
    <elementRef href="../../model.timemodel#//@subBlock.0"/>
    <elementRef href="../../model.timemodel#//@subBlock.0/@relations.14"/>
  </references>
  <references xsi:type="trace:ModelElementReference">
    <elementRef href="../../model.timemodel#/"/>
    <elementRef href="../../model.timemodel#//@subBlock.0"/>
    <elementRef href="../../model.timemodel#//@subBlock.0/@relations.16"/>
  </references>
  <references xsi:type="trace:ModelElementReference">
    <elementRef href="../../model.timemodel#/"/>
    <elementRef href="../../model.timemodel#//@subBlock.0"/>
    <elementRef href="../../model.timemodel#//@subBlock.0/@relations.84"/>
  </references>
  <references xsi:type="trace:ModelElementReference">
    <elementRef href="../../model.timemodel#/"/>
    <elementRef href="../../model.timemodel#//@subBlock.0"/>
    <elementRef href="../../model.timemodel#//@subBlock.0/@relations.82"/>
  </references>
  <references xsi:type="trace:ModelElementReference">
    <elementRef href="../../model.timemodel#/"/>
    <elementRef href="../../model.timemodel#//@subBlock.0"/>
    <elementRef href="../../model.timemodel#//@subBlock.0/@relations.75"/>
  </references>
  <references xsi:type="trace:ModelElementReference">
    <elementRef href="../../model.timemodel#/"/>
    <elementRef href="../../model.timemodel#//@subBlock.0"/>
    <elementRef href="../../model.timemodel#//@subBlock.0/@relations.61"/>
  </references>
  <references xsi:type="trace:ModelElementReference">
    <elementRef href="../../model.timemodel#/"/>
    <elementRef href="../../model.timemodel#//@subBlock.0"/>
    <elementRef href="../../model.timemodel#//@subBlock.0/@relations.6"/>
  </references>
  <references xsi:type="trace:ModelElementReference">
    <elementRef href="../../model.timemodel#/"/>
    <elementRef href="../../model.timemodel#//@subBlock.0"/>
    <elementRef href="../../model.timemodel#//@subBlock.0/@relations.93"/>
  </references>
  <references xsi:type="trace:ModelElementReference">
    <elementRef href="../../model.timemodel#/"/>
    <elementRef href="../../model.timemodel#//@subBlock.0"/>
    <elementRef href="../../model.timemodel#//@subBlock.0/@relations.97"/>
  </references>
  <references xsi:type="trace:ModelElementReference">
    <elementRef href="../../model.timemodel#/"/>
    <elementRef href="../../model.timemodel#//@subBlock.0"/>
    <elementRef href="../../model.timemodel#//@subBlock.0/@relations.33"/>
  </references>
  <references xsi:type="trace:ModelElementReference">
    <elementRef href="../../model.timemodel#/"/>
    <elementRef href="../../model.timemodel#//@subBlock.0"/>
    <elementRef href="../../model.timemodel#//@subBlock.0/@relations.62"/>
  </references>
  <references xsi:type="trace:ModelElementReference">
    <elementRef href="../../model.timemodel#/"/>
    <elementRef href="../../model.timemodel#//@subBlock.0"/>
    <elementRef href="../../model.timemodel#//@subBlock.0/@relations.17"/>
  </references>
  <references xsi:type="trace:ModelElementReference">
    <elementRef href="../../model.timemodel#/"/>
    <elementRef href="../../model.timemodel#//@subBlock.0"/>
    <elementRef href="../../model.timemodel#//@subBlock.0/@relations.12"/>
  </references>
  <references xsi:type="trace:ModelElementReference">
    <elementRef href="../../model.timemodel#/"/>
    <elementRef href="../../model.timemodel#//@subBlock.0"/>
    <elementRef href="../../model.timemodel#//@subBlock.0/@relations.23"/>
  </references>
  <references xsi:type="trace:ModelElementReference">
    <elementRef href="../../model.timemodel#/"/>
    <elementRef href="../../model.timemodel#//@subBlock.0"/>
    <elementRef href="../../model.timemodel#//@subBlock.0/@relations.21"/>
  </references>
  <references xsi:type="trace:ModelElementReference">
    <elementRef href="../../model.timemodel#/"/>
    <elementRef href="../../model.timemodel#//@subBlock.0"/>
    <elementRef href="../../model.timemodel#//@subBlock.0/@relations.7"/>
  </references>
  <references xsi:type="trace:ModelElementReference">
    <elementRef href="../../model.timemodel#/"/>
    <elementRef href="../../model.timemodel#//@subBlock.0"/>
    <elementRef href="../../model.timemodel#//@subBlock.0/@relations.88"/>
  </references>
  <references xsi:type="trace:ModelElementReference">
    <elementRef href="../../model.timemodel#/"/>
    <elementRef href="../../model.timemodel#//@subBlock.0"/>
    <elementRef href="../../model.timemodel#//@subBlock.0/@relations.5"/>
  </references>
  <references xsi:type="trace:ModelElementReference">
    <elementRef href="../../model.timemodel#/"/>
    <elementRef href="../../model.timemodel#//@subBlock.0"/>
    <elementRef href="../../model.timemodel#//@subBlock.0/@relations.3"/>
  </references>
  <references xsi:type="trace:ModelElementReference">
    <elementRef href="../../model.timemodel#/"/>
    <elementRef href="../../model.timemodel#//@subBlock.0"/>
    <elementRef href="../../model.timemodel#//@subBlock.0/@relations.72"/>
  </references>
  <references xsi:type="trace:ModelElementReference">
    <elementRef href="../../model.timemodel#/"/>
    <elementRef href="../../model.timemodel#//@subBlock.0"/>
    <elementRef href="../../model.timemodel#//@subBlock.0/@relations.87"/>
  </references>
  <references xsi:type="trace:ModelElementReference">
    <elementRef href="../../model.timemodel#/"/>
    <elementRef href="../../model.timemodel#//@subBlock.0"/>
    <elementRef href="../../model.timemodel#//@subBlock.0/@relations.92"/>
  </references>
  <references xsi:type="trace:ModelElementReference">
    <elementRef href="../../model.timemodel#/"/>
    <elementRef href="../../model.timemodel#//@subBlock.0"/>
    <elementRef href="../../model.timemodel#//@subBlock.0/@relations.99"/>
  </references>
  <references xsi:type="trace:ModelElementReference">
    <elementRef href="../../model.timemodel#/"/>
    <elementRef href="../../model.timemodel#//@subBlock.0"/>
    <elementRef href="../../model.timemodel#//@subBlock.0/@relations.98"/>
  </references>
  <references xsi:type="trace:ModelElementReference">
    <elementRef href="../../model.timemodel#/"/>
    <elementRef href="../../model.timemodel#//@subBlock.0"/>
    <elementRef href="../../model.timemodel#//@subBlock.0/@relations.79"/>
  </references>
  <references xsi:type="trace:ModelElementReference">
    <elementRef href="../../model.timemodel#/"/>
    <elementRef href="../../model.timemodel#//@subBlock.0"/>
    <elementRef href="../../model.timemodel#//@subBlock.0/@relations.80"/>
  </references>
  <references xsi:type="trace:ModelElementReference">
    <elementRef href="../../model.timemodel#/"/>
    <elementRef href="../../model.timemodel#//@subBlock.0"/>
    <elementRef href="../../model.timemodel#//@subBlock.0/@relations.11"/>
  </references>
  <references xsi:type="trace:ModelElementReference">
    <elementRef href="../../model.timemodel#/"/>
    <elementRef href="../../model.timemodel#//@subBlock.0"/>
    <elementRef href="../../model.timemodel#//@subBlock.0/@relations.15"/>
  </references>
  <references xsi:type="trace:ModelElementReference">
    <elementRef href="../../model.timemodel#/"/>
    <elementRef href="../../model.timemodel#//@subBlock.0"/>
    <elementRef href="../../model.timemodel#//@subBlock.0/@relations.66"/>
  </references>
  <references xsi:type="trace:ModelElementReference">
    <elementRef href="../../model.timemodel#/"/>
    <elementRef href="../../model.timemodel#//@subBlock.0"/>
    <elementRef href="../../model.timemodel#//@subBlock.0/@relations.13"/>
  </references>
  <references xsi:type="trace:ModelElementReference">
    <elementRef href="../../model.timemodel#/"/>
    <elementRef href="../../model.timemodel#//@subBlock.0"/>
    <elementRef href="../../model.timemodel#//@subBlock.0/@relations.35"/>
  </references>
  <references xsi:type="trace:ModelElementReference">
    <elementRef href="../../model.timemodel#/"/>
    <elementRef href="../../model.timemodel#//@subBlock.0"/>
    <elementRef href="../../model.timemodel#//@subBlock.0/@relations.19"/>
  </references>
  <references xsi:type="trace:ModelElementReference">
    <elementRef href="../../model.timemodel#/"/>
    <elementRef href="../../model.timemodel#//@subBlock.0"/>
    <elementRef href="../../model.timemodel#//@subBlock.0/@relations.91"/>
  </references>
  <references xsi:type="trace:ModelElementReference">
    <elementRef href="../../model.timemodel#/"/>
    <elementRef href="../../model.timemodel#//@subBlock.0"/>
    <elementRef href="../../model.timemodel#//@subBlock.0/@relations.89"/>
  </references>
  <references xsi:type="trace:ModelElementReference">
    <elementRef href="../../model.timemodel#/"/>
    <elementRef href="../../model.timemodel#//@subBlock.0"/>
    <elementRef href="../../model.timemodel#//@subBlock.0/@relations.81"/>
  </references>
  <references xsi:type="trace:ModelElementReference">
    <elementRef href="../../model.timemodel#/"/>
    <elementRef href="../../model.timemodel#//@subBlock.0"/>
    <elementRef href="../../model.timemodel#//@subBlock.0/@relations.95"/>
  </references>
  <references xsi:type="trace:ModelElementReference">
    <elementRef href="../../model.timemodel#/"/>
    <elementRef href="../../model.timemodel#//@subBlock.0"/>
    <elementRef href="../../model.timemodel#//@subBlock.0/@relations.67"/>
  </references>
  <references xsi:type="trace:ModelElementReference">
    <elementRef href="../../model.timemodel#/"/>
    <elementRef href="../../model.timemodel#//@subBlock.0"/>
    <elementRef href="../../model.timemodel#//@subBlock.0/@relations.64"/>
  </references>
  <references xsi:type="trace:ModelElementReference">
    <elementRef href="../../model.timemodel#/"/>
    <elementRef href="../../model.timemodel#//@subBlock.0"/>
    <elementRef href="../../model.timemodel#//@subBlock.0/@relations.68"/>
  </references>
  <references xsi:type="trace:ModelElementReference">
    <elementRef href="../../model.timemodel#/"/>
    <elementRef href="../../model.timemodel#//@subBlock.0"/>
    <elementRef href="../../model.timemodel#//@subBlock.0/@relations.20"/>
  </references>
  <references xsi:type="trace:ModelElementReference">
    <elementRef href="../../model.timemodel#/"/>
    <elementRef href="../../model.timemodel#//@subBlock.0"/>
    <elementRef href="../../model.timemodel#//@subBlock.0/@relations.63"/>
  </references>
  <references xsi:type="trace:ModelElementReference">
    <elementRef href="../../model.timemodel#/"/>
    <elementRef href="../../model.timemodel#//@subBlock.0"/>
    <elementRef href="../../model.timemodel#//@subBlock.0/@relations.71"/>
  </references>
  <references xsi:type="trace:ModelElementReference">
    <elementRef href="../../model.timemodel#/"/>
    <elementRef href="../../model.timemodel#//@subBlock.0"/>
    <elementRef href="../../model.timemodel#//@subBlock.0/@relations.77"/>
  </references>
</trace:Trace>
