$date 
Sun Jun 04 21:55:37 CEST 2017
$end

$version 
VCD Generation 2.1.0
$end

$comment hide PeriodicOffsetPDef_concatOffsetPeriod $end
$comment hide DelayFor_defer $end
$comment hide DelayFor_defer $end
$comment hide DelayFor_defer $end
$comment hide PeriodicOffsetPDef_concatOffsetPeriod $end
$comment hide DelayFor_defer $end
$comment hide DelayFor_defer $end
$comment hide DelayFor_defer $end
$comment hide DelayFor_defer $end
$comment hide DelayFor_defer $end
$comment hide PeriodicOffsetPDef_waitPeriod $end
$comment hide DelayFor_defer $end
$comment hide DelayFor_defer $end
$comment hide DelayFor_defer $end
$comment hide PeriodicOffsetPDef_concatOffsetPeriod $end
$comment hide DelayFor_defer $end
$comment hide DelayFor_defer $end
$comment hide PeriodicOffsetPDef_waitPeriod $end
$comment hide DelayFor_defer $end
$comment hide DelayFor_defer $end
$comment hide DelayFor_defer $end
$comment hide DelayFor_defer $end
$comment hide PeriodicOffsetPDef_waitPeriod $end
$comment scale 0.1  $end
$scope module top $end
$var event 1 !1 req_emcyBraking_13_taskComplete $end
$var event 1 !2 req_emcyBraking_13_send $end
$var event 1 !3 req_update_18_taskComplete $end
$var event 1 !4 req_update_18_consume $end
$var event 1 !5 update_2_oneEvent $end
$var event 1 !6 periodicBeacon_4_objSysSend $end
$var event 1 !7 assumption_beacon_14_consume $end
$var event 1 !8 req_enableBraking_16_receive $end
$var event 1 !9 periodicBeacon_4_objSysConsume $end
$var event 1 !10 assumption_obstacle_19_consume $end
$var event 1 !11 req_beacon_15_taskComplete $end
$var event 1 !12 neighborTbl_7_acquireRes $end
$var event 1 !13 assumption_beacon_14_taskComplete $end
$var event 1 !14 obstacle_3_oneEvent $end
$var event 1 !15 obstacle_3_notReady $end
$var event 1 !16 emcyBrakeWarning_1_oneEvent $end
$var event 1 !17 assumption_obstacle_19_receive $end
$var event 1 !18 MSDSpec_0_globalTime $end
$var event 1 !19 emcyBraking_6_objSysTaskStart $end
$var event 1 !20 emcyBraking_6_objSysSend $end
$var event 1 !21 emcyBraking_6_objSysTaskComplete $end
$var event 1 !22 req_beacon_15_consume $end
$var event 1 !23 update_2_objSysReceive $end
$var event 1 !24 req_emcyBrakeWarning_12_consume $end
$var event 1 !25 enableBraking_5_objSysReceive $end
$var event 1 !26 periodicBeacon_4_oneEvent $end
$var event 1 !27 periodicBeacon_4_objSysTaskStart $end
$var event 1 !28 enableBraking_5_objSysTaskComplete $end
$var event 1 !29 req_emcyBrakeWarning_12_taskComplete $end
$var event 1 !30 obstacle_3_objSysConsume $end
$var event 1 !31 emcyBraking_6_objSysReceive $end
$var event 1 !32 obstacle_3_objSysTaskComplete $end
$var event 1 !33 assumption_beacon_14_receive $end
$var event 1 !34 req_obstacle_17_send $end
$var event 1 !35 req_emcyBraking_13_taskStart $end
$var event 1 !36 assumption_beacon_14_taskStart $end
$var event 1 !37 req_enableBraking_16_taskStart $end
$var event 1 !38 req_emcyBraking_13_receive $end
$var event 1 !39 enableBraking_5_objSysTaskStart $end
$var event 1 !40 req_obstacle_17_consume $end
$var event 1 !41 req_enableBraking_16_consume $end
$var event 1 !42 PU2_11_dispatch $end
$var event 1 !43 req_beacon_15_receive $end
$var event 1 !44 update_2_objSysSend $end
$var event 1 !45 obstacle_3_objSysSend $end
$var event 1 !46 emcyBraking_6_objSysConsume $end
$var event 1 !47 update_2_objSysTaskComplete $end
$var event 1 !48 assumption_obstacle_19_taskComplete $end
$var event 1 !49 update_2_objSysTaskStart $end
$var event 1 !50 assumption_beacon_14_send $end
$var event 1 !51 emcyBraking_6_oneEvent $end
$var event 1 !52 obstacle_3_objSysTaskStart $end
$var event 1 !53 req_emcyBraking_13_consume $end
$var event 1 !54 req_beacon_15_send $end
$var event 1 !55 req_update_18_taskStart $end
$var event 1 !56 update_2_objSysConsume $end
$var event 1 !57 sharedMem_8_acquireCon $end
$var event 1 !58 req_emcyBrakeWarning_12_taskStart $end
$var event 1 !59 periodicBeacon_4_objSysReceive $end
$var event 1 !60 enableBraking_5_objSysConsume $end
$var event 1 !61 req_beacon_15_taskStart $end
$var event 1 !62 req_enableBraking_16_send $end
$var event 1 !63 req_obstacle_17_receive $end
$var event 1 !64 req_update_18_receive $end
$var event 1 !65 emcyBrakeWarning_1_objSysTaskStart $end
$var event 1 !66 periodicBeacon_4_objSysTaskComplete $end
$var event 1 !67 assumption_obstacle_19_send $end
$var event 1 !68 emcyBrakeWarning_1_objSysConsume $end
$var event 1 !69 req_obstacle_17_taskStart $end
$var event 1 !70 req_emcyBrakeWarning_12_receive $end
$var event 1 !71 req_obstacle_17_taskComplete $end
$var event 1 !72 enableBraking_5_objSysSend $end
$var event 1 !73 assumption_obstacle_19_taskStart $end
$var event 1 !74 comConnection_9_acquireCon $end
$var event 1 !75 obstacle_3_objSysReceive $end
$var event 1 !76 emcyBrakeWarning_1_objSysReceive $end
$var event 1 !77 PU1_10_dispatch $end
$var event 1 !78 req_update_18_send $end
$var event 1 !79 emcyBrakeWarning_1_objSysTaskComplete $end
$var event 1 !80 emcyBrakeWarning_1_objSysSend $end
$var event 1 !81 req_emcyBrakeWarning_12_send $end
$var event 1 !82 req_enableBraking_16_taskComplete $end
$var event 1 !83 enableBraking_5_oneEvent $end
$var event 1 !84 req_beacon_15intermediate_deactivate1 $end
$var event 1 !85 PeriodicOffsetPDef_concatOffsetPeriod $end
$var event 1 !86 enableBraking_5intermediate_oneRelTaskCompleteClock1 $end
$var event 1 !87 comConnection_9intermediate_receiveEvts1 $end
$var event 1 !88 UpdateSa_38intermediate_oneAssumptionMsgSend1 $end
$var event 1 !89 req_obstacle_17intermediate_deactivate51 $end
$var event 1 !90 emcyBraking_6intermediate_oneRelReceiveClock1 $end
$var event 1 !91 obstacle_3intermediate_oneRelTaskCompleteClock1 $end
$var event 1 !92 periodicBeacon_4intermediate_oneRelTaskStartClock1 $end
$var event 1 !93 req_beacon_15intermediate_deactivate31 $end
$var event 1 !94 enableBraking_5_DelayFor_sendDelayedByMin $end
$var event 1 !95 PU2_11intermediate_relTaskStarts1 $end
$var event 1 !96 req_beacon_15intermediate_deactivate51 $end
$var event 1 !97 emcyBrakeWarning_1_DelayFor_sendDelayedByMin_e2e $end
$var event 1 !98 enableBraking_5_DelayFor_receiveDelayedByMin $end
$var event 1 !99 enableBraking_5_DelayFor_receiveDelayedByMax $end
$var event 1 !100 emcyBraking_6intermediate_oneRelTaskCompleteClock1 $end
$var event 1 !101 DelayFor_defer $end
$var event 1 !102 emcyBrakeWarning_1_DelayFor_sendDelayedByMax_e2e $end
$var event 1 !103 periodicBeacon_4_DelayFor_taskStartDelayedByMin $end
$var event 1 !104 update_2_Union_unionEvts $end
$var event 1 !105 enableBraking_5intermediate_oneRelTaskStartClock1 $end
$var event 1 !106 emcyBrakeWarning_1intermediate_oneRelTaskCompleteClock1 $end
$var event 1 !107 periodicBeacon_4intermediate_oneRelConsumeClock1 $end
$var event 1 !108 req_obstacle_17intermediate_deactivate53 $end
$var event 1 !109 timeConstraint_36intermediate_activationTaskCompletions_upperE_s1 $end
$var event 1 !110 enableBraking_5_DelayFor_taskStartDelayedByMin $end
$var event 1 !111 emcyBrakeWarning_1intermediate_oneRelReceiveClock1 $end
$var event 1 !112 emcyBrakeWarning_1_Union_unionEvts $end
$var event 1 !113 PU1_10intermediate_relTaskComplete1 $end
$var event 1 !114 AssumptionEmcyBake_42_PeriodicOffsetP_periodicActivation_sMin $end
$var event 1 !115 DelayFor_defer $end
$var event 1 !116 DelayFor_defer $end
$var event 1 !117 req_obstacle_17intermediate_deactivate3 $end
$var event 1 !118 neighborTbl_7intermediate_taskCompleteEvts1 $end
$var event 1 !119 PeriodicOffsetPDef_concatOffsetPeriod $end
$var event 1 !120 emcyBraking_6_DelayFor_sendDelayedByMax_e2e $end
$var event 1 !121 emcyBrakeWarning_1intermediate_oneRelSendClock1 $end
$var event 1 !122 enableBraking_5_DelayFor_sendDelayedByMax $end
$var event 1 !123 update_2intermediate_acquireAllResources1 $end
$var event 1 !124 req_beacon_15intermediate_deactivate41 $end
$var event 1 !125 periodicBeacon_4intermediate_noHigherPrioTasksReady1 $end
$var event 1 !126 DelayFor_defer $end
$var event 1 !127 DelayFor_defer $end
$var event 1 !128 DelayFor_defer $end
$var event 1 !129 PU1_10intermediate_relTaskStarts3 $end
$var event 1 !130 emcyBraking_6_Union_unionEvts $end
$var event 1 !131 emcyBraking_6intermediate_oneRelTaskStartClock1 $end
$var event 1 !132 sharedMem_8intermediate_lu_sendEvts1 $end
$var event 1 !133 obstacle_3_DelayFor_taskStartDelayedByMin $end
$var event 1 !134 AssumptionEmcyBake_42_PeriodicOffsetP_periodicActivation_sMax $end
$var event 1 !135 update_2intermediate_oneRelConsumeClock1 $end
$var event 1 !136 DelayFor_defer $end
$var event 1 !137 DelayFor_defer $end
$var event 1 !138 comConnection_9intermediate_lu_sendEvts1 $end
$var event 1 !139 sharedMem_8intermediate_receiveEvts1 $end
$var event 1 !140 PeriodicOffsetPDef_waitPeriod $end
$var event 1 !141 req_obstacle_17intermediate_deactivate21 $end
$var event 1 !142 req_obstacle_17intermediate_deactivate43 $end
$var event 1 !143 periodicBeacon_4intermediate_oneRelReceiveClock1 $end
$var event 1 !144 DelayFor_defer $end
$var event 1 !145 DelayFor_defer $end
$var event 1 !146 EmcyBrakeTriggeringLeadingVehicle_39intermediate_oneAssumptionMsgSend1 $end
$var event 1 !147 DelayFor_defer $end
$var event 1 !148 periodicBeacon_4intermediate_oneRelTaskCompleteClock1 $end
$var event 1 !149 obstacle_3intermediate_oneRelConsumeClock1 $end
$var event 1 !150 req_beacon_15intermediate_deactivate21 $end
$var event 1 !151 update_2_DelayFor_taskStartDelayedByMin $end
$var event 1 !152 PU2_11intermediate_relTaskComplete1 $end
$var event 1 !153 enableBraking_5_DelayFor_taskStartDelayedByMax $end
$var event 1 !154 PU1_10intermediate_relTaskComplete3 $end
$var event 1 !155 enableBraking_5intermediate_oneRelSendClock1 $end
$var event 1 !156 obstacle_3intermediate_oneRelReceiveClock1 $end
$var event 1 !157 emcyBraking_6intermediate_oneRelConsumeClock1 $end
$var event 1 !158 PeriodicOffsetPDef_concatOffsetPeriod $end
$var event 1 !159 obstacle_3_Union_unionEvts $end
$var event 1 !160 DelayFor_defer $end
$var event 1 !161 DelayFor_defer $end
$var event 1 !162 obstacle_3_DelayFor_taskStartDelayedByMax $end
$var event 1 !163 PeriodicOffsetPDef_waitPeriod $end
$var event 1 !164 update_2intermediate_oneRelReceiveClock1 $end
$var event 1 !165 DelayFor_defer $end
$var event 1 !166 DelayFor_defer $end
$var event 1 !167 DelayFor_defer $end
$var event 1 !168 emcyBrakeWarning_1intermediate_oneRelConsumeClock1 $end
$var event 1 !169 obstacle_3intermediate_acquireAllResources1 $end
$var event 1 !170 timeConstraint_36intermediate_constrainedTaskCompletions_upperE_s1 $end
$var event 1 !171 req_obstacle_17intermediate_deactivate41 $end
$var event 1 !172 req_obstacle_17intermediate_deactivate1 $end
$var event 1 !173 req_obstacle_17intermediate_deactivate23 $end
$var event 1 !174 enableBraking_5intermediate_oneRelConsumeClock1 $end
$var event 1 !175 update_2intermediate_oneRelTaskCompleteClock1 $end
$var event 1 !176 update_2intermediate_oneRelSendClock1 $end
$var event 1 !177 obstacle_3intermediate_oneLowerPrioTask1 $end
$var event 1 !178 obstacle_3intermediate_oneRelSendClock1 $end
$var event 1 !179 timeConstraint_36_DelayFor_stimulusDelayedExpression_e2e_sE_s $end
$var event 1 !180 obstacle_3intermediate_oneRelTaskStartClock1 $end
$var event 1 !181 req_obstacle_17intermediate_deactivate31 $end
$var event 1 !182 timeConstraint_36intermediate_constrainedTaskCompletions_upperE_s3 $end
$var event 1 !183 emcyBraking_6intermediate_oneRelSendClock1 $end
$var event 1 !184 DelayFor_defer $end
$var event 1 !185 periodicBeacon_4_Union_unionEvts $end
$var event 1 !186 enableBraking_5_Union_unionEvts $end
$var event 1 !187 emcyBrakeWarning_1intermediate_oneRelTaskStartClock1 $end
$var event 1 !188 update_2_DelayFor_taskStartDelayedByMax $end
$var event 1 !189 neighborTbl_7intermediate_startTaskEvts1 $end
$var event 1 !190 update_2intermediate_noHigherPrioTasksReady1 $end
$var event 1 !191 PU1_10intermediate_relTaskStarts1 $end
$var event 1 !192 periodicBeacon_4intermediate_oneRelSendClock1 $end
$var event 1 !193 periodicBeacon_4_DelayFor_taskStartDelayedByMax $end
$var event 1 !194 AssumptionUpdate_40_PeriodicOffsetP_periodicActivation $end
$var event 1 !195 enableBraking_5intermediate_oneRelReceiveClock1 $end
$var event 1 !196 update_2intermediate_oneRelTaskStartClock1 $end
$var event 1 !197 req_obstacle_17intermediate_deactivate33 $end
$var event 1 !198 PeriodicOffsetPDef_waitPeriod $end
$var event 1 !199 emcyBraking_6_DelayFor_sendDelayedByMin_e2e $end
$upscope $end
$enddefinitions $end

#10
1!18
#20
1!18
#30
1!18
#40
z!1
z!2
z!3
z!4
z!5
z!6
z!7
z!8
z!9
z!10
z!11
z!12
z!13
z!14
z!15
z!16
z!17
z!18
z!19
z!20
z!21
z!22
z!23
z!24
z!25
z!26
z!27
z!28
z!29
z!30
z!31
z!32
z!33
z!34
z!35
z!36
z!37
z!38
z!39
z!40
z!41
z!42
z!43
z!44
z!45
z!46
z!47
z!48
z!49
z!50
z!51
z!52
z!53
z!54
z!55
z!56
z!57
z!58
z!59
z!60
z!61
z!62
z!63
z!64
z!65
z!66
z!67
z!68
z!69
z!70
z!71
z!72
z!73
z!74
z!75
z!76
z!77
z!78
z!79
z!80
z!81
z!82
z!83
z!84
z!85
z!86
z!87
z!88
z!89
z!90
z!91
z!92
z!93
z!94
z!95
z!96
z!97
z!98
z!99
z!100
z!101
z!102
z!103
z!104
z!105
z!106
z!107
z!108
z!109
z!110
z!111
z!112
z!113
z!114
z!115
z!116
z!117
z!118
z!119
z!120
z!121
z!122
z!123
z!124
z!125
z!126
z!127
z!128
z!129
z!130
z!131
z!132
z!133
z!134
z!135
z!136
z!137
z!138
z!139
z!140
z!141
z!142
z!143
z!144
z!145
z!146
z!147
z!148
z!149
z!150
z!151
z!152
z!153
z!154
z!155
z!156
z!157
z!158
z!159
z!160
z!161
z!162
z!163
z!164
z!165
z!166
z!167
z!168
z!169
z!170
z!171
z!172
z!173
z!174
z!175
z!176
z!177
z!178
z!179
z!180
z!181
z!182
z!183
z!184
z!185
z!186
z!187
z!188
z!189
z!190
z!191
z!192
z!193
z!194
z!195
z!196
z!197
z!198
z!199
