$date 
Tue May 16 22:56:09 CEST 2017
$end

$version 
VCD Generation 2.1.0
$end

$comment alias newfile__main__completions "newfile::main::completions" $end
$comment alias newfile__main__dispatch "newfile::main::dispatch" $end
$comment alias newfile__main__starts "newfile::main::starts" $end
$comment alias newfile__main__task1Finish "newfile::main::task1Finish" $end
$comment alias newfile__main__task1Start "newfile::main::task1Start" $end
$comment alias newfile__main__task2Finish "newfile::main::task2Finish" $end
$comment alias newfile__main__task2Start "newfile::main::task2Start" $end
$comment scale 0.1  $end
$comment relation   "newfile2017_0516_225608.ccslrelationmodel" $end
$comment xmi  newfile__main__task2Finish "newfile2017_0516_225608.trace#//@references.0" $end
$comment xmi  newfile__main__task1Start "newfile2017_0516_225608.trace#//@references.1" $end
$comment xmi  newfile__main__task1Finish "newfile2017_0516_225608.trace#//@references.2" $end
$comment xmi  newfile__main__task2Start "newfile2017_0516_225608.trace#//@references.3" $end
$comment xmi  newfile__main__dispatch "newfile2017_0516_225608.trace#//@references.4" $end
$comment xmi  newfile__main__completions "newfile2017_0516_225608.trace#//@references.5" $end
$comment xmi  newfile__main__starts "newfile2017_0516_225608.trace#//@references.6" $end
$scope module top $end
$var event 1 !1 newfile__main__completions $end
$var event 1 !2 newfile__main__dispatch $end
$var event 1 !3 newfile__main__starts $end
$var event 1 !4 newfile__main__task1Finish $end
$var event 1 !5 newfile__main__task1Start $end
$var event 1 !6 newfile__main__task2Finish $end
$var event 1 !7 newfile__main__task2Start $end
$upscope $end
$enddefinitions $end

#0
1!5
1!7
1!2
1!3
#10
1!6
1!1
#20
1!5
1!7
1!2
1!3
#30
1!6
1!4
1!1
#40
1!5
1!7
1!2
1!3
#50
1!6
1!4
1!1
#60
1!5
1!2
1!3
#70
1!6
1!1
#80
1!5
1!7
1!2
1!3
#90
1!6
1!4
1!1
#100
1!7
1!2
1!3
#110
1!6
1!4
1!1
#120
1!7
1!2
1!3
#130
1!6
1!4
1!1
#140
1!7
1!2
1!3
#150
1!4
1!1
#160
1!7
1!2
1!3
#170
1!6
1!4
1!1
#180
1!5
1!7
1!2
1!3
#190
1!4
1!1
#200
1!7
1!2
1!3
#210
1!6
1!4
1!1
#220
1!5
1!2
1!3
#230
1!6
1!4
1!1
#240
1!7
1!2
1!3
#250
1!6
1!1
#260
1!5
1!7
1!2
1!3
#270
1!6
1!4
1!1
#280
1!5
1!7
1!2
1!3
#290
1!6
1!4
1!1
#300
1!5
1!2
1!3
#310
1!6
1!1
#320
1!5
1!2
1!3
#330
1!6
1!1
#340
1!5
1!2
1!3
#350
1!6
1!4
1!1
#360
1!5
1!2
1!3
#370
1!6
1!1
#380
1!7
1!2
1!3
#390
1!6
1!1
#400
1!5
1!2
1!3
#410
1!6
1!1
#420
1!7
1!2
1!3
#430
1!4
1!1
#440
1!5
1!2
1!3
#450
1!6
1!1
#460
1!5
1!2
1!3
#470
1!6
1!4
1!1
#480
1!7
1!2
1!3
#490
1!6
1!1
#500
1!7
1!2
1!3
#510
1!4
1!1
#520
1!5
1!7
1!2
1!3
#530
1!6
1!4
1!1
#540
1!5
1!2
1!3
#550
1!4
1!1
#560
1!5
1!7
1!2
1!3
#570
1!6
1!4
1!1
#580
1!7
1!2
1!3
#590
1!6
1!4
1!1
#600
1!5
1!2
1!3
#610
1!4
1!1
#620
1!5
1!2
1!3
#630
1!6
1!4
1!1
#640
1!5
1!2
1!3
#650
1!6
1!1
#660
1!5
1!7
1!2
1!3
#670
1!4
1!1
#680
1!5
1!7
1!2
1!3
#690
1!6
1!1
#700
1!5
1!2
1!3
#710
1!4
1!1
#720
1!7
1!2
1!3
#730
1!6
1!4
1!1
#740
1!5
1!2
1!3
#750
1!6
1!1
#760
1!5
1!7
1!2
1!3
#770
1!6
1!1
#780
1!5
1!7
1!2
1!3
#790
1!4
1!1
#800
1!5
1!7
1!2
1!3
#810
1!4
1!1
#820
1!5
1!7
1!2
1!3
#830
1!6
1!4
1!1
#840
1!5
1!2
1!3
#850
1!6
1!1
#860
1!7
1!2
1!3
#870
1!4
1!1
#880
1!7
1!2
1!3
#890
1!6
1!1
#900
1!7
1!2
1!3
#910
1!6
1!1
#920
1!5
1!7
1!2
1!3
#930
1!4
1!1
#940
1!5
1!2
1!3
#950
1!6
1!1
#960
1!5
1!7
1!2
1!3
#970
1!6
1!4
1!1
#980
1!7
1!2
1!3
#990
1!4
1!1
#1000
z!1
z!2
z!3
z!4
z!5
z!6
z!7
